docs/evidence/raw/2026-09-07/a1bn.csv

Channel              :,CH1
Frequency            :,  ?
Period               :,  ?
PK-PK                :,102.0mV
Probe attenuation    :,1X
Voltage per ADC value:,0.125000mV
Time interval        :,100.00000us

index,CH1_Voltage(mV)
1,-14.000000
2,-14.000000
3,-4.000000
4,-14.000000
5,-14.000000
6,-4.000000
7,-14.000000
8,-14.000000
9,-4.000000
10,-4.000000
11,-14.000000
12,-4.000000
13,-4.000000
14,-4.000000
15,-4.000000
16,-4.000000
17,-4.000000
18,-4.000000
19,-4.000000
20,-8.000000
21,-12.000000
22,-4.000000
23,-4.000000
24,-4.000000
25,-2.000000
26,8.000000
27,-4.000000
28,-4.000000
29,-4.000000
30,-4.000000
31,-8.000000
32,-4.000000
33,-4.000000
34,-4.000000
35,-14.000000
36,-4.000000
37,-4.000000
38,-4.000000
39,-14.000000
40,-4.000000
41,-8.000000
42,-4.000000
43,-4.000000
44,-2.000000
45,-2.000000
46,-2.000000
47,-4.000000
48,-4.000000
49,-4.000000
50,-4.000000
51,-2.000000
52,0.000000
53,0.000000
54,0.000000
55,0.000000
56,-4.000000
57,-4.000000
58,0.000000
59,0.000000
60,0.000000
61,0.000000
62,0.000000
63,0.000000
64,-2.000000
65,-4.000000
66,-4.000000
67,-4.000000
68,-4.000000
69,-2.000000
70,-4.000000
71,-4.000000
72,0.000000
73,0.000000
74,0.000000
75,0.000000
76,0.000000
77,0.000000
78,-4.000000
79,-2.000000
80,0.000000
81,0.000000
82,-4.000000
83,4.000000
84,-4.000000
85,-4.000000
86,-4.000000
87,-4.000000
88,0.000000
89,0.000000
90,-2.000000
91,-4.000000
92,-4.000000
93,-4.000000
94,-2.000000
95,-4.000000
96,-4.000000
97,-4.000000
98,-4.000000
99,-4.000000
100,-4.000000
101,-4.000000
102,-4.000000
103,-4.000000
104,-4.000000
105,-4.000000
106,-4.000000
107,-2.000000
108,-4.000000
109,-4.000000
110,-4.000000
111,-4.000000
112,-4.000000
113,-2.000000
114,-4.000000
115,-4.000000
116,-4.000000
117,-4.000000
118,-4.000000
119,-4.000000
120,-4.000000
121,-12.000000
122,-4.000000
123,-14.000000
124,-4.000000
125,-12.000000
126,-14.000000
127,-14.000000
128,-4.000000
129,-10.000000
130,-14.000000
131,2.000000
132,-4.000000
133,-4.000000
134,-14.000000
135,-14.000000
136,-16.000000
137,-4.000000
138,-4.000000
139,-4.000000
140,-4.000000
141,-4.000000
142,-10.000000
143,-4.000000
144,-4.000000
145,-6.000000
146,-2.000000
147,-4.000000
148,-4.000000
149,-4.000000
150,2.000000
151,0.000000
152,-2.000000
153,-4.000000
154,0.000000
155,0.000000
156,-2.000000
157,-4.000000
158,-2.000000
159,-4.000000
160,0.000000
161,0.000000
162,-4.000000
163,-4.000000
164,-4.000000
165,-4.000000
166,0.000000
167,0.000000
168,-4.000000
169,-2.000000
170,-4.000000
171,-4.000000
172,-4.000000
173,-4.000000
174,-4.000000
175,-4.000000
176,-4.000000
177,-4.000000
178,-2.000000
179,-2.000000
180,0.000000
181,0.000000
182,-4.000000
183,-4.000000
184,-4.000000
185,-2.000000
186,-4.000000
187,0.000000
188,-4.000000
189,-4.000000
190,-4.000000
191,2.000000
192,-8.000000
193,-4.000000
194,-4.000000
195,-4.000000
196,-4.000000
197,-14.000000
198,0.000000
199,-4.000000
200,-4.000000
201,-4.000000
202,-14.000000
203,-4.000000
204,-4.000000
205,-4.000000
206,-4.000000
207,-14.000000
208,-4.000000
209,-4.000000
210,-14.000000
211,-4.000000
212,-4.000000
213,-4.000000
214,-14.000000
215,-14.000000
216,-4.000000
217,-4.000000
218,-4.000000
219,-14.000000
220,-4.000000
221,-4.000000
222,-14.000000
223,-12.000000
224,-4.000000
225,-56.000000
226,-4.000000
227,-8.000000
228,6.000000
229,-4.000000
230,-14.000000
231,-4.000000
232,-8.000000
233,-8.000000
234,-4.000000
235,-14.000000
236,-4.000000
237,-4.000000
238,-4.000000
239,-4.000000
240,-4.000000
241,-4.000000
242,-8.000000
243,-8.000000
244,0.000000
245,0.000000
246,0.000000
247,0.000000
248,-4.000000
249,-4.000000
250,-4.000000
251,0.000000
252,-2.000000
253,-4.000000
254,0.000000
255,0.000000
256,0.000000
257,0.000000
258,-4.000000
259,-2.000000
260,-2.000000
261,-4.000000
262,-4.000000
263,-4.000000
264,-4.000000
265,-4.000000
266,-4.000000
267,-4.000000
268,-4.000000
269,-4.000000
270,0.000000
271,0.000000
272,-2.000000
273,-2.000000
274,0.000000
275,0.000000
276,0.000000
277,0.000000
278,-4.000000
279,-2.000000
280,-2.000000
281,-4.000000
282,-2.000000
283,-2.000000
284,-4.000000
285,-4.000000
286,-4.000000
287,-4.000000
288,-4.000000
289,0.000000
290,-4.000000
291,-4.000000
292,-4.000000
293,-4.000000
294,-4.000000
295,-4.000000
296,-4.000000
297,-4.000000
298,-4.000000
299,-4.000000
300,-4.000000
301,-4.000000
302,-4.000000
303,28.000000
304,-4.000000
305,-4.000000
306,-4.000000
307,-4.000000
308,-4.000000
309,-4.000000
310,-4.000000
311,-4.000000
312,-4.000000
313,-2.000000
314,-4.000000
315,-4.000000
316,0.000000
317,0.000000
318,-8.000000
319,-4.000000
320,-14.000000
321,-14.000000
322,-14.000000
323,-14.000000
324,-4.000000
325,-4.000000
326,-14.000000
327,0.000000
328,-4.000000
329,-4.000000
330,-10.000000
331,-12.000000
332,-14.000000
333,-2.000000
334,-12.000000
335,-4.000000
336,-4.000000
337,-14.000000
338,-14.000000
339,-4.000000
340,-4.000000
341,-4.000000
342,-4.000000
343,-4.000000
344,-4.000000
345,-2.000000
346,-2.000000
347,-2.000000
348,0.000000
349,0.000000
350,0.000000
351,0.000000
352,0.000000
353,0.000000
354,0.000000
355,0.000000
356,-4.000000
357,-2.000000
358,0.000000
359,0.000000
360,-2.000000
361,-2.000000
362,0.000000
363,0.000000
364,0.000000
365,0.000000
366,-2.000000
367,-4.000000
368,-4.000000
369,-2.000000
370,-4.000000
371,-4.000000
372,-4.000000
373,-4.000000
374,-2.000000
375,-2.000000
376,-2.000000
377,0.000000
378,-4.000000
379,-2.000000
380,-4.000000
381,-4.000000
382,-4.000000
383,-4.000000
384,-4.000000
385,-12.000000
386,-12.000000
387,-4.000000
388,-8.000000
389,-4.000000
390,-4.000000
391,-4.000000
392,-4.000000
393,-4.000000
394,-4.000000
395,-8.000000
396,-14.000000
397,-14.000000
398,-6.000000
399,-8.000000
400,-4.000000
401,-4.000000
402,-12.000000
403,-4.000000
404,-4.000000
405,-14.000000
406,-14.000000
407,-4.000000
408,-4.000000
409,-4.000000
410,-14.000000
411,-14.000000
412,-8.000000
413,-4.000000
414,-6.000000
415,-4.000000
416,-8.000000
417,-4.000000
418,-12.000000
419,-4.000000
420,-4.000000
421,-4.000000
422,-4.000000
423,-12.000000
424,-12.000000
425,-4.000000
426,-8.000000
427,-8.000000
428,-4.000000
429,-4.000000
430,-14.000000
431,-4.000000
432,-4.000000
433,-4.000000
434,-14.000000
435,-12.000000
436,-4.000000
437,-4.000000
438,-14.000000
439,-14.000000
440,-4.000000
441,-4.000000
442,-4.000000
443,-4.000000
444,0.000000
445,0.000000
446,-4.000000
447,-4.000000
448,-2.000000
449,-2.000000
450,0.000000
451,0.000000
452,-4.000000
453,-4.000000
454,-2.000000
455,-4.000000
456,-4.000000
457,-4.000000
458,0.000000
459,2.000000
460,-2.000000
461,-4.000000
462,2.000000
463,0.000000
464,-4.000000
465,-4.000000
466,0.000000
467,2.000000
468,-4.000000
469,-2.000000
470,0.000000
471,0.000000
472,-2.000000
473,-4.000000
474,-4.000000
475,-4.000000
476,0.000000
477,0.000000
478,-4.000000
479,-2.000000
480,0.000000
481,0.000000
482,-6.000000
483,-6.000000
484,-4.000000
485,-4.000000
486,0.000000
487,0.000000
488,-4.000000
489,-4.000000
490,-4.000000
491,-4.000000
492,-4.000000
493,-4.000000
494,-4.000000
495,-4.000000
496,-4.000000
497,-4.000000
498,-4.000000
499,-4.000000
500,-4.000000
501,-4.000000
502,-4.000000
503,-4.000000
504,-4.000000
505,-4.000000
506,-4.000000
507,-4.000000
508,-4.000000
509,-2.000000
510,-4.000000
511,-4.000000
512,-4.000000
513,-4.000000
514,-4.000000
515,-4.000000
516,-4.000000
517,-4.000000
518,-14.000000
519,-4.000000
520,-4.000000
521,-12.000000
522,-10.000000
523,-14.000000
524,-14.000000
525,-4.000000
526,-4.000000
527,-4.000000
528,-14.000000
529,-4.000000
530,-4.000000
531,-4.000000
532,4.000000
533,-12.000000
534,-4.000000
535,-2.000000
536,-14.000000
537,-4.000000
538,-4.000000
539,-4.000000
540,-4.000000
541,-4.000000
542,-4.000000
543,-4.000000
544,-4.000000
545,-2.000000
546,-2.000000
547,-4.000000
548,0.000000
549,0.000000
550,0.000000
551,0.000000
552,-4.000000
553,-4.000000
554,0.000000
555,0.000000
556,-2.000000
557,-2.000000
558,0.000000
559,0.000000
560,-2.000000
561,-4.000000
562,0.000000
563,0.000000
564,-4.000000
565,-2.000000
566,-2.000000
567,-4.000000
568,-4.000000
569,-4.000000
570,0.000000
571,0.000000
572,-4.000000
573,-4.000000
574,-2.000000
575,-2.000000
576,-4.000000
577,-2.000000
578,0.000000
579,0.000000
580,-4.000000
581,-4.000000
582,-4.000000
583,-4.000000
584,-4.000000
585,-4.000000
586,-4.000000
587,-14.000000
588,-12.000000
589,-16.000000
590,-8.000000
591,-4.000000
592,-4.000000
593,-4.000000
594,-4.000000
595,-4.000000
596,-12.000000
597,-4.000000
598,-14.000000
599,-4.000000
600,-4.000000
601,-10.000000
602,-14.000000
603,-4.000000
604,-4.000000
605,-4.000000
606,-8.000000
607,-4.000000
608,-8.000000
609,-4.000000
610,-12.000000
611,-12.000000
612,-4.000000
613,-8.000000
614,-4.000000
615,-4.000000
616,-6.000000
617,-6.000000
618,-4.000000
619,12.000000
620,-4.000000
621,-4.000000
622,-4.000000
623,-4.000000
624,-4.000000
625,-14.000000
626,-14.000000
627,-4.000000
628,-4.000000
629,-4.000000
630,-4.000000
631,-14.000000
632,-4.000000
633,-4.000000
634,-4.000000
635,-4.000000
636,-12.000000
637,-4.000000
638,-4.000000
639,-4.000000
640,-14.000000
641,-4.000000
642,-4.000000
643,-4.000000
644,-2.000000
645,-4.000000
646,-4.000000
647,-2.000000
648,0.000000
649,0.000000
650,-4.000000
651,-2.000000
652,0.000000
653,0.000000
654,-2.000000
655,-2.000000
656,0.000000
657,0.000000
658,-4.000000
659,-4.000000
660,0.000000
661,0.000000
662,-4.000000
663,-4.000000
664,-2.000000
665,-4.000000
666,-4.000000
667,-4.000000
668,0.000000
669,0.000000
670,-4.000000
671,-4.000000
672,0.000000
673,0.000000
674,0.000000
675,0.000000
676,-4.000000
677,-4.000000
678,-2.000000
679,0.000000
680,-4.000000
681,-4.000000
682,-4.000000
683,-4.000000
684,-4.000000
685,-4.000000
686,-4.000000
687,-4.000000
688,-4.000000
689,-2.000000
690,-4.000000
691,-4.000000
692,-4.000000
693,-4.000000
694,-4.000000
695,-4.000000
696,-6.000000
697,-4.000000
698,-4.000000
699,-4.000000
700,-4.000000
701,-4.000000
702,-4.000000
703,-4.000000
704,-4.000000
705,-4.000000
706,-4.000000
707,-2.000000
708,-2.000000
709,-4.000000
710,-4.000000
711,-2.000000
712,-2.000000
713,-2.000000
714,-2.000000
715,-2.000000
716,-4.000000
717,-2.000000
718,22.000000
719,-4.000000
720,-4.000000
721,-4.000000
722,-14.000000
723,-14.000000
724,-4.000000
725,-14.000000
726,-14.000000
727,-4.000000
728,-4.000000
729,-12.000000
730,-14.000000
731,-10.000000
732,0.000000
733,-4.000000
734,-14.000000
735,-4.000000
736,-4.000000
737,-4.000000
738,-4.000000
739,-4.000000
740,-4.000000
741,-4.000000
742,-14.000000
743,-4.000000
744,-4.000000
745,-4.000000
746,-2.000000
747,-4.000000
748,0.000000
749,0.000000
750,0.000000
751,0.000000
752,-2.000000
753,-4.000000
754,-4.000000
755,-4.000000
756,0.000000
757,0.000000
758,2.000000
759,2.000000
760,0.000000
761,2.000000
762,-4.000000
763,-4.000000
764,0.000000
765,-4.000000
766,-4.000000
767,-2.000000
768,2.000000
769,2.000000
770,-4.000000
771,-2.000000
772,-4.000000
773,-4.000000
774,-4.000000
775,-2.000000
776,0.000000
777,0.000000
778,-2.000000
779,-2.000000
780,-4.000000
781,-4.000000
782,-12.000000
783,-14.000000
784,-4.000000
785,-12.000000
786,-8.000000
787,-4.000000
788,-4.000000
789,-8.000000
790,-4.000000
791,-4.000000
792,-8.000000
793,-4.000000
794,-4.000000
795,-4.000000
796,-4.000000
797,-14.000000
798,-4.000000
799,-4.000000
800,-6.000000
801,-8.000000
802,-4.000000
803,-4.000000
804,-4.000000
805,-4.000000
806,8.000000
807,-4.000000
808,-8.000000
809,-4.000000
810,-8.000000
811,-8.000000
812,-4.000000
813,-8.000000
814,-4.000000
815,-12.000000
816,-4.000000
817,-4.000000
818,-14.000000
819,-4.000000
820,-14.000000
821,-4.000000
822,-4.000000
823,-14.000000
824,-4.000000
825,-14.000000
826,-4.000000
827,-4.000000
828,-12.000000
829,-12.000000
830,-4.000000
831,-4.000000
832,-12.000000
833,-4.000000
834,-4.000000
835,-12.000000
836,-4.000000
837,-4.000000
838,-8.000000
839,-4.000000
840,-4.000000
841,-4.000000
842,-6.000000
843,-4.000000
844,-4.000000
845,-4.000000
846,0.000000
847,0.000000
848,-2.000000
849,-4.000000
850,-4.000000
851,-4.000000
852,-4.000000
853,-4.000000
854,-4.000000
855,-4.000000
856,-4.000000
857,-4.000000
858,-2.000000
859,-2.000000
860,-4.000000
861,-4.000000
862,-4.000000
863,-2.000000
864,-4.000000
865,-4.000000
866,-4.000000
867,-4.000000
868,-4.000000
869,-4.000000
870,-2.000000
871,-2.000000
872,-2.000000
873,-4.000000
874,0.000000
875,0.000000
876,0.000000
877,0.000000
878,-4.000000
879,-2.000000
880,0.000000
881,0.000000
882,0.000000
883,0.000000
884,-4.000000
885,-4.000000
886,-4.000000
887,-4.000000
888,-4.000000
889,-4.000000
890,-4.000000
891,-4.000000
892,-4.000000
893,-4.000000
894,-4.000000
895,-4.000000
896,-4.000000
897,-4.000000
898,-4.000000
899,-4.000000
900,-4.000000
901,34.000000
902,-4.000000
903,-4.000000
904,-4.000000
905,-4.000000
906,-4.000000
907,-6.000000
908,-2.000000
909,-4.000000
910,-4.000000
911,-4.000000
912,-2.000000
913,-4.000000
914,-4.000000
915,-4.000000
916,-8.000000
917,2.000000
918,-4.000000
919,-14.000000
920,-4.000000
921,-14.000000
922,-4.000000
923,-4.000000
924,-12.000000
925,-10.000000
926,-4.000000
927,-4.000000
928,-14.000000
929,-4.000000
930,-4.000000
931,-4.000000
932,-8.000000
933,-4.000000
934,-4.000000
935,-4.000000
936,-12.000000
937,-4.000000
938,-4.000000
939,-4.000000
940,-8.000000
941,-8.000000
942,-4.000000
943,-4.000000
944,-4.000000
945,-4.000000
946,-4.000000
947,-4.000000
948,-4.000000
949,-2.000000
950,-4.000000
951,-2.000000
952,0.000000
953,0.000000
954,-4.000000
955,-2.000000
956,0.000000
957,0.000000
958,-4.000000
959,-4.000000
960,0.000000
961,0.000000
962,0.000000
963,0.000000
964,0.000000
965,0.000000
966,-2.000000
967,-4.000000
968,0.000000
969,0.000000
970,0.000000
971,0.000000
972,-4.000000
973,-2.000000
974,-4.000000
975,-2.000000
976,-4.000000
977,-4.000000
978,-4.000000
979,-4.000000
980,-2.000000
981,-2.000000
982,-4.000000
983,-4.000000
984,-14.000000
985,-4.000000
986,-4.000000
987,-4.000000
988,-4.000000
989,-14.000000
990,-4.000000
991,-4.000000
992,-4.000000
993,-4.000000
994,-4.000000
995,0.000000
996,-4.000000
997,-4.000000
998,-4.000000
999,-4.000000
1000,-4.000000
1001,-12.000000
1002,-4.000000
1003,-4.000000
1004,-4.000000
1005,-4.000000
1006,-14.000000
1007,-4.000000
1008,-4.000000
1009,-14.000000
1010,-4.000000
1011,-14.000000
1012,-4.000000
1013,-4.000000
1014,-4.000000
1015,-8.000000
1016,-4.000000
1017,-4.000000
1018,-14.000000
1019,-4.000000
1020,-4.000000
1021,-2.000000
1022,-4.000000
1023,-4.000000
1024,-4.000000
1025,-8.000000
1026,-4.000000
1027,-14.000000
1028,-4.000000
1029,-14.000000
1030,-6.000000
1031,-8.000000
1032,-16.000000
1033,-12.000000
1034,-4.000000
1035,-4.000000
1036,-4.000000
1037,-4.000000
1038,-4.000000
1039,-4.000000
1040,-10.000000
1041,-4.000000
1042,-4.000000
1043,-4.000000
1044,0.000000
1045,0.000000
1046,0.000000
1047,0.000000
1048,-4.000000
1049,-4.000000
1050,0.000000
1051,0.000000
1052,0.000000
1053,0.000000
1054,-4.000000
1055,-2.000000
1056,-4.000000
1057,-2.000000
1058,0.000000
1059,0.000000
1060,-4.000000
1061,-4.000000
1062,-4.000000
1063,-2.000000
1064,0.000000
1065,0.000000
1066,0.000000
1067,0.000000
1068,0.000000
1069,0.000000
1070,0.000000
1071,0.000000
1072,-4.000000
1073,-4.000000
1074,-2.000000
1075,-4.000000
1076,0.000000
1077,0.000000
1078,-2.000000
1079,-4.000000
1080,-4.000000
1081,-2.000000
1082,-2.000000
1083,-4.000000
1084,-4.000000
1085,-4.000000
1086,-4.000000
1087,-4.000000
1088,-4.000000
1089,-4.000000
1090,-4.000000
1091,-4.000000
1092,-4.000000
1093,-4.000000
1094,-4.000000
1095,-4.000000
1096,-4.000000
1097,-4.000000
1098,-4.000000
1099,-4.000000
1100,-2.000000
1101,-4.000000
1102,-4.000000
1103,-4.000000
1104,-4.000000
1105,-4.000000
1106,-2.000000
1107,-2.000000
1108,-4.000000
1109,-4.000000
1110,-2.000000
1111,-2.000000
1112,-2.000000
1113,-4.000000
1114,6.000000
1115,-4.000000
1116,0.000000
1117,0.000000
1118,-4.000000
1119,-4.000000
1120,0.000000
1121,-4.000000
1122,-4.000000
1123,-4.000000
1124,-4.000000
1125,-4.000000
1126,-4.000000
1127,-14.000000
1128,-12.000000
1129,20.000000
1130,-4.000000
1131,-14.000000
1132,-4.000000
1133,0.000000
1134,-4.000000
1135,-4.000000
1136,-4.000000
1137,-4.000000
1138,-4.000000
1139,-4.000000
1140,-4.000000
1141,-4.000000
1142,-4.000000
1143,-4.000000
1144,-2.000000
1145,-4.000000
1146,-4.000000
1147,-4.000000
1148,0.000000
1149,0.000000
1150,0.000000
1151,0.000000
1152,-4.000000
1153,-4.000000
1154,-4.000000
1155,-4.000000
1156,0.000000
1157,0.000000
1158,0.000000
1159,2.000000
1160,-4.000000
1161,-2.000000
1162,-4.000000
1163,-4.000000
1164,0.000000
1165,0.000000
1166,-4.000000
1167,-4.000000
1168,0.000000
1169,0.000000
1170,-4.000000
1171,-4.000000
1172,-4.000000
1173,-4.000000
1174,0.000000
1175,0.000000
1176,0.000000
1177,0.000000
1178,-4.000000
1179,-4.000000
1180,-4.000000
1181,-2.000000
1182,-4.000000
1183,-4.000000
1184,-14.000000
1185,-12.000000
1186,-4.000000
1187,-4.000000
1188,-4.000000
1189,-4.000000
1190,-2.000000
1191,-12.000000
1192,-14.000000
1193,-4.000000
1194,-12.000000
1195,-4.000000
1196,-8.000000
1197,-4.000000
1198,-4.000000
1199,-4.000000
1200,-4.000000
1201,-4.000000
1202,-4.000000
1203,-4.000000
1204,-4.000000
1205,-4.000000
1206,-4.000000
1207,-4.000000
1208,-8.000000
1209,-4.000000
1210,-4.000000
1211,-4.000000
1212,-4.000000
1213,-4.000000
1214,-4.000000
1215,-8.000000
1216,-4.000000
1217,-4.000000
1218,-12.000000
1219,-4.000000
1220,-4.000000
1221,-4.000000
1222,-4.000000
1223,-4.000000
1224,-4.000000
1225,-4.000000
1226,24.000000
1227,-4.000000
1228,-4.000000
1229,-8.000000
1230,-4.000000
1231,-4.000000
1232,-12.000000
1233,-14.000000
1234,-8.000000
1235,-10.000000
1236,-4.000000
1237,-8.000000
1238,-4.000000
1239,-4.000000
1240,-2.000000
1241,-4.000000
1242,-4.000000
1243,-4.000000
1244,-4.000000
1245,2.000000
1246,0.000000
1247,0.000000
1248,-4.000000
1249,-4.000000
1250,0.000000
1251,0.000000
1252,-4.000000
1253,-4.000000
1254,0.000000
1255,0.000000
1256,0.000000
1257,2.000000
1258,-4.000000
1259,-4.000000
1260,-4.000000
1261,-4.000000
1262,0.000000
1263,0.000000
1264,0.000000
1265,0.000000
1266,-2.000000
1267,-4.000000
1268,-4.000000
1269,-2.000000
1270,-4.000000
1271,-4.000000
1272,0.000000
1273,0.000000
1274,0.000000
1275,0.000000
1276,-4.000000
1277,-4.000000
1278,0.000000
1279,0.000000
1280,-4.000000
1281,-2.000000
1282,-2.000000
1283,-2.000000
1284,-4.000000
1285,-4.000000
1286,-4.000000
1287,-4.000000
1288,-4.000000
1289,-4.000000
1290,0.000000
1291,0.000000
1292,-4.000000
1293,-4.000000
1294,-4.000000
1295,-4.000000
1296,-2.000000
1297,-4.000000
1298,-4.000000
1299,-4.000000
1300,-4.000000
1301,-4.000000
1302,-4.000000
1303,-4.000000
1304,-4.000000
1305,-4.000000
1306,-2.000000
1307,-4.000000
1308,-4.000000
1309,-4.000000
1310,-4.000000
1311,-4.000000
1312,-44.000000
1313,0.000000
1314,-4.000000
1315,2.000000
1316,4.000000
1317,-4.000000
1318,-4.000000
1319,-8.000000
1320,26.000000
1321,-4.000000
1322,-10.000000
1323,-4.000000
1324,-4.000000
1325,-12.000000
1326,-14.000000
1327,-12.000000
1328,-14.000000
1329,-14.000000
1330,-14.000000
1331,2.000000
1332,-4.000000
1333,-8.000000
1334,-4.000000
1335,-4.000000
1336,-4.000000
1337,-4.000000
1338,-12.000000
1339,-4.000000
1340,-4.000000
1341,-4.000000
1342,-6.000000
1343,-4.000000
1344,-4.000000
1345,-4.000000
1346,-4.000000
1347,-4.000000
1348,0.000000
1349,0.000000
1350,-4.000000
1351,-4.000000
1352,-4.000000
1353,-2.000000
1354,-4.000000
1355,-4.000000
1356,0.000000
1357,0.000000
1358,-4.000000
1359,-2.000000
1360,0.000000
1361,2.000000
1362,-4.000000
1363,-4.000000
1364,0.000000
1365,0.000000
1366,-4.000000
1367,-4.000000
1368,-4.000000
1369,-4.000000
1370,0.000000
1371,0.000000
1372,0.000000
1373,0.000000
1374,-4.000000
1375,-4.000000
1376,-2.000000
1377,-4.000000
1378,-4.000000
1379,-2.000000
1380,0.000000
1381,0.000000
1382,0.000000
1383,-4.000000
1384,-4.000000
1385,-4.000000
1386,0.000000
1387,-4.000000
1388,-4.000000
1389,-4.000000
1390,-4.000000
1391,-4.000000
1392,-4.000000
1393,-4.000000
1394,-4.000000
1395,-4.000000
1396,-4.000000
1397,-4.000000
1398,-4.000000
