docs/evidence/raw/2026-09-07/b2an.csv

Channel              :,CH1
Frequency            :,  ?
Period               :,  ?
PK-PK                :,234.0mV
Probe attenuation    :,1X
Voltage per ADC value:,0.125000mV
Time interval        :,100.00000us

index,CH1_Voltage(mV)
1,14.000000
2,14.000000
3,-4.000000
4,46.000000
5,-6.000000
6,-24.000000
7,-26.000000
8,-28.000000
9,24.000000
10,-24.000000
11,-6.000000
12,12.000000
13,-50.000000
14,50.000000
15,-4.000000
16,-40.000000
17,8.000000
18,10.000000
19,46.000000
20,14.000000
21,2.000000
22,6.000000
23,0.000000
24,50.000000
25,-74.000000
26,-44.000000
27,68.000000
28,-28.000000
29,42.000000
30,-10.000000
31,46.000000
32,-18.000000
33,-26.000000
34,-12.000000
35,12.000000
36,-4.000000
37,2.000000
38,12.000000
39,-8.000000
40,2.000000
41,14.000000
42,58.000000
43,-20.000000
44,22.000000
45,-28.000000
46,-54.000000
47,30.000000
48,-30.000000
49,-6.000000
50,-16.000000
51,-6.000000
52,-12.000000
53,2.000000
54,20.000000
55,22.000000
56,16.000000
57,-2.000000
58,14.000000
59,0.000000
60,0.000000
61,-22.000000
62,10.000000
63,-16.000000
64,-18.000000
65,58.000000
66,-6.000000
67,68.000000
68,-12.000000
69,2.000000
70,2.000000
71,-4.000000
72,6.000000
73,-42.000000
74,-4.000000
75,24.000000
76,0.000000
77,44.000000
78,-24.000000
79,4.000000
80,-8.000000
81,2.000000
82,-2.000000
83,-10.000000
84,-28.000000
85,0.000000
86,38.000000
87,12.000000
88,96.000000
89,-30.000000
90,14.000000
91,10.000000
92,-18.000000
93,8.000000
94,6.000000
95,-12.000000
96,-8.000000
97,34.000000
98,2.000000
99,62.000000
100,54.000000
101,-72.000000
102,-60.000000
103,14.000000
104,68.000000
105,0.000000
106,8.000000
107,72.000000
108,-36.000000
109,-68.000000
110,-16.000000
111,18.000000
112,2.000000
113,-4.000000
114,34.000000
115,-36.000000
116,-72.000000
117,0.000000
118,4.000000
119,-48.000000
120,14.000000
121,50.000000
122,-36.000000
123,26.000000
124,0.000000
125,42.000000
126,-12.000000
127,38.000000
128,-38.000000
129,2.000000
130,38.000000
131,-20.000000
132,-4.000000
133,18.000000
134,18.000000
135,-22.000000
136,-80.000000
137,-12.000000
138,-20.000000
139,14.000000
140,0.000000
141,8.000000
142,-20.000000
143,38.000000
144,-4.000000
145,64.000000
146,12.000000
147,14.000000
148,20.000000
149,-44.000000
150,6.000000
151,38.000000
152,62.000000
153,2.000000
154,54.000000
155,22.000000
156,18.000000
157,60.000000
158,-2.000000
159,0.000000
160,-6.000000
161,-4.000000
162,-4.000000
163,-16.000000
164,20.000000
165,-48.000000
166,-52.000000
167,12.000000
168,-30.000000
169,-16.000000
170,-16.000000
171,-26.000000
172,-20.000000
173,10.000000
174,-6.000000
175,26.000000
176,-16.000000
177,-48.000000
178,-36.000000
179,24.000000
180,10.000000
181,-26.000000
182,-16.000000
183,-22.000000
184,-32.000000
185,-2.000000
186,12.000000
187,-18.000000
188,-18.000000
189,-6.000000
190,-44.000000
191,30.000000
192,16.000000
193,8.000000
194,-14.000000
195,8.000000
196,20.000000
197,32.000000
198,20.000000
199,4.000000
200,-10.000000
201,28.000000
202,0.000000
203,-2.000000
204,-2.000000
205,-12.000000
206,32.000000
207,-6.000000
208,-74.000000
209,22.000000
210,22.000000
211,-6.000000
212,-48.000000
213,16.000000
214,14.000000
215,28.000000
216,16.000000
217,8.000000
218,-6.000000
219,48.000000
220,0.000000
221,-14.000000
222,-4.000000
223,-44.000000
224,-20.000000
225,28.000000
226,-20.000000
227,12.000000
228,2.000000
229,-26.000000
230,72.000000
231,38.000000
232,-10.000000
233,40.000000
234,12.000000
235,32.000000
236,-8.000000
237,-16.000000
238,-8.000000
239,-8.000000
240,-40.000000
241,46.000000
242,2.000000
243,8.000000
244,-18.000000
245,-26.000000
246,58.000000
247,-34.000000
248,-2.000000
249,-52.000000
250,-14.000000
251,2.000000
252,-4.000000
253,-24.000000
254,42.000000
255,-4.000000
256,-14.000000
257,42.000000
258,-4.000000
259,60.000000
260,-30.000000
261,-14.000000
262,58.000000
263,-4.000000
264,36.000000
265,-2.000000
266,4.000000
267,6.000000
268,-24.000000
269,34.000000
270,12.000000
271,24.000000
272,-14.000000
273,-8.000000
274,-38.000000
275,0.000000
276,-4.000000
277,10.000000
278,-28.000000
279,-26.000000
280,28.000000
281,60.000000
282,-76.000000
283,-64.000000
284,-12.000000
285,-24.000000
286,6.000000
287,-6.000000
288,24.000000
289,10.000000
290,40.000000
291,16.000000
292,-34.000000
293,-6.000000
294,0.000000
295,12.000000
296,30.000000
297,12.000000
298,6.000000
299,0.000000
300,10.000000
301,12.000000
302,70.000000
303,-4.000000
304,-22.000000
305,20.000000
306,-14.000000
307,-24.000000
308,-2.000000
309,-14.000000
310,8.000000
311,44.000000
312,-6.000000
313,-2.000000
314,14.000000
315,-4.000000
316,-2.000000
317,86.000000
318,-8.000000
319,-70.000000
320,14.000000
321,36.000000
322,-34.000000
323,-4.000000
324,8.000000
325,10.000000
326,-8.000000
327,28.000000
328,-32.000000
329,32.000000
330,-6.000000
331,-36.000000
332,0.000000
333,24.000000
334,68.000000
335,-16.000000
336,-8.000000
337,-2.000000
338,-2.000000
339,-30.000000
340,-72.000000
341,-4.000000
342,50.000000
343,2.000000
344,0.000000
345,-44.000000
346,120.000000
347,-30.000000
348,-56.000000
349,-8.000000
350,2.000000
351,-48.000000
352,-22.000000
353,16.000000
354,-72.000000
355,6.000000
356,46.000000
357,-4.000000
358,20.000000
359,48.000000
360,-30.000000
361,-72.000000
362,2.000000
363,-22.000000
364,-22.000000
365,4.000000
366,-16.000000
367,-4.000000
368,0.000000
369,-12.000000
370,-14.000000
371,-6.000000
372,-16.000000
373,2.000000
374,26.000000
375,-20.000000
376,-30.000000
377,-20.000000
378,-30.000000
379,-24.000000
380,14.000000
381,0.000000
382,86.000000
383,-8.000000
384,30.000000
385,50.000000
386,-2.000000
387,-114.000000
388,12.000000
389,-62.000000
390,14.000000
391,-12.000000
392,-12.000000
393,54.000000
394,-16.000000
395,10.000000
396,-6.000000
397,2.000000
398,-22.000000
399,-38.000000
400,-16.000000
401,14.000000
402,-18.000000
403,64.000000
404,46.000000
405,-8.000000
406,-6.000000
407,-26.000000
408,38.000000
409,4.000000
410,-4.000000
411,-40.000000
412,-26.000000
413,50.000000
414,-16.000000
415,-16.000000
416,-22.000000
417,6.000000
418,-2.000000
419,-48.000000
420,-4.000000
421,34.000000
422,28.000000
423,-30.000000
424,-16.000000
425,-22.000000
426,16.000000
427,2.000000
428,-12.000000
429,8.000000
430,-4.000000
431,-52.000000
432,10.000000
433,2.000000
434,12.000000
435,-12.000000
436,-24.000000
437,16.000000
438,20.000000
439,26.000000
440,10.000000
441,-26.000000
442,-4.000000
443,0.000000
444,2.000000
445,30.000000
446,4.000000
447,6.000000
448,4.000000
449,2.000000
450,-24.000000
451,-32.000000
452,-32.000000
453,-12.000000
454,-8.000000
455,40.000000
456,-8.000000
457,14.000000
458,-6.000000
459,-18.000000
460,8.000000
461,44.000000
462,-2.000000
463,30.000000
464,-32.000000
465,-20.000000
466,-16.000000
467,-46.000000
468,-18.000000
469,42.000000
470,-58.000000
471,-16.000000
472,14.000000
473,-40.000000
474,12.000000
475,-18.000000
476,18.000000
477,44.000000
478,-34.000000
479,-12.000000
480,-6.000000
481,10.000000
482,-36.000000
483,6.000000
484,-22.000000
485,22.000000
486,8.000000
487,10.000000
488,-30.000000
489,54.000000
490,-38.000000
491,-34.000000
492,26.000000
493,-16.000000
494,-12.000000
495,4.000000
496,44.000000
497,-30.000000
498,30.000000
499,10.000000
500,8.000000
501,-12.000000
502,-54.000000
503,-2.000000
504,-56.000000
505,-12.000000
506,-14.000000
507,4.000000
508,2.000000
509,50.000000
510,-64.000000
511,14.000000
512,58.000000
513,-56.000000
514,-54.000000
515,-34.000000
516,-16.000000
517,-12.000000
518,-4.000000
519,-20.000000
520,54.000000
521,-20.000000
522,8.000000
523,-20.000000
524,34.000000
525,-2.000000
526,24.000000
527,-18.000000
528,-4.000000
529,-82.000000
530,24.000000
531,20.000000
532,-12.000000
533,2.000000
534,-54.000000
535,14.000000
536,-16.000000
537,-4.000000
538,-14.000000
539,24.000000
540,46.000000
541,-20.000000
542,-50.000000
543,58.000000
544,-58.000000
545,-2.000000
546,20.000000
547,78.000000
548,2.000000
549,6.000000
550,-40.000000
551,-2.000000
552,-26.000000
553,26.000000
554,-16.000000
555,54.000000
556,2.000000
557,2.000000
558,-8.000000
559,4.000000
560,14.000000
561,-8.000000
562,2.000000
563,16.000000
564,-36.000000
565,-34.000000
566,2.000000
567,-4.000000
568,6.000000
569,8.000000
570,-14.000000
571,14.000000
572,-30.000000
573,-32.000000
574,-6.000000
575,26.000000
576,-54.000000
577,-30.000000
578,16.000000
579,40.000000
580,26.000000
581,32.000000
582,-26.000000
583,-34.000000
584,8.000000
585,-44.000000
586,38.000000
587,34.000000
588,-30.000000
589,-54.000000
590,2.000000
591,-18.000000
592,0.000000
593,26.000000
594,-12.000000
595,-14.000000
596,26.000000
597,22.000000
598,-70.000000
599,-18.000000
600,-14.000000
601,-56.000000
602,2.000000
603,-4.000000
604,-20.000000
605,-26.000000
606,46.000000
607,26.000000
608,-16.000000
609,38.000000
610,34.000000
611,44.000000
612,10.000000
613,-12.000000
614,42.000000
615,54.000000
616,-8.000000
617,28.000000
618,-4.000000
619,22.000000
620,-60.000000
621,-12.000000
622,-92.000000
623,26.000000
624,60.000000
625,-84.000000
626,-30.000000
627,-34.000000
628,-6.000000
629,-14.000000
630,-38.000000
631,-12.000000
632,-4.000000
633,8.000000
634,12.000000
635,-64.000000
636,-50.000000
637,32.000000
638,14.000000
639,-40.000000
640,-12.000000
641,-26.000000
642,12.000000
643,0.000000
644,16.000000
645,14.000000
646,-22.000000
647,68.000000
648,14.000000
649,-6.000000
650,46.000000
651,18.000000
652,-4.000000
653,54.000000
654,38.000000
655,8.000000
656,4.000000
657,-42.000000
658,24.000000
659,10.000000
660,26.000000
661,-6.000000
662,-4.000000
663,-4.000000
664,-8.000000
665,-10.000000
666,20.000000
667,-16.000000
668,-4.000000
669,-10.000000
670,-52.000000
671,-2.000000
672,-2.000000
673,-12.000000
674,-8.000000
675,-36.000000
676,-36.000000
677,36.000000
678,-4.000000
679,-10.000000
680,-20.000000
681,-24.000000
682,-24.000000
683,68.000000
684,6.000000
685,2.000000
686,60.000000
687,-50.000000
688,10.000000
689,62.000000
690,-6.000000
691,2.000000
692,-18.000000
693,-14.000000
694,34.000000
695,-14.000000
696,82.000000
697,-30.000000
698,-76.000000
699,-4.000000
700,14.000000
701,-16.000000
702,-32.000000
703,-28.000000
704,-20.000000
705,0.000000
706,10.000000
707,2.000000
708,0.000000
709,-4.000000
710,-24.000000
711,0.000000
712,-4.000000
713,24.000000
714,36.000000
715,86.000000
716,6.000000
717,-12.000000
718,-30.000000
719,-44.000000
720,60.000000
721,6.000000
722,-60.000000
723,-16.000000
724,34.000000
725,-104.000000
726,10.000000
727,18.000000
728,-50.000000
729,6.000000
730,-12.000000
731,-74.000000
732,12.000000
733,-14.000000
734,32.000000
735,-22.000000
736,0.000000
737,2.000000
738,20.000000
739,50.000000
740,34.000000
741,-20.000000
742,-2.000000
743,-2.000000
744,-26.000000
745,6.000000
746,36.000000
747,34.000000
748,64.000000
749,12.000000
750,-26.000000
751,6.000000
752,56.000000
753,4.000000
754,-68.000000
755,64.000000
756,6.000000
757,24.000000
758,-18.000000
759,40.000000
760,0.000000
761,-4.000000
762,0.000000
763,-4.000000
764,-58.000000
765,-20.000000
766,2.000000
767,-20.000000
768,-52.000000
769,34.000000
770,-12.000000
771,-44.000000
772,22.000000
773,48.000000
774,-16.000000
775,-22.000000
776,-8.000000
777,-26.000000
778,36.000000
779,-2.000000
780,26.000000
781,-38.000000
782,0.000000
783,82.000000
784,-20.000000
785,-12.000000
786,-12.000000
787,4.000000
788,-18.000000
789,18.000000
790,14.000000
791,-8.000000
792,16.000000
793,54.000000
794,36.000000
795,-8.000000
796,4.000000
797,2.000000
798,12.000000
799,8.000000
800,-6.000000
801,-24.000000
802,0.000000
803,-8.000000
804,14.000000
805,14.000000
806,12.000000
807,-18.000000
808,34.000000
809,-12.000000
810,50.000000
811,6.000000
812,64.000000
813,-34.000000
814,46.000000
815,-4.000000
816,-12.000000
817,2.000000
818,30.000000
819,38.000000
820,-26.000000
821,-56.000000
822,-6.000000
823,12.000000
824,4.000000
825,-26.000000
826,-16.000000
827,-14.000000
828,-12.000000
829,-78.000000
830,6.000000
831,10.000000
832,-72.000000
833,-10.000000
834,-8.000000
835,54.000000
836,6.000000
837,0.000000
838,10.000000
839,-36.000000
840,-2.000000
841,-20.000000
842,-6.000000
843,-30.000000
844,16.000000
845,-36.000000
846,-30.000000
847,12.000000
848,-30.000000
849,2.000000
850,34.000000
851,8.000000
852,-66.000000
853,2.000000
854,-24.000000
855,-4.000000
856,14.000000
857,-82.000000
858,22.000000
859,58.000000
860,-4.000000
861,24.000000
862,34.000000
863,-4.000000
864,-28.000000
865,-20.000000
866,-30.000000
867,2.000000
868,-14.000000
869,68.000000
870,8.000000
871,20.000000
872,-46.000000
873,4.000000
874,46.000000
875,-10.000000
876,-12.000000
877,-4.000000
878,38.000000
879,-66.000000
880,2.000000
881,4.000000
882,20.000000
883,-4.000000
884,-2.000000
885,-18.000000
886,-12.000000
887,-4.000000
888,0.000000
889,-12.000000
890,-12.000000
891,-20.000000
892,-16.000000
893,-46.000000
894,14.000000
895,-12.000000
896,18.000000
897,0.000000
898,18.000000
899,-18.000000
900,-12.000000
901,14.000000
902,-26.000000
903,10.000000
904,-26.000000
905,8.000000
906,8.000000
907,-8.000000
908,42.000000
909,-16.000000
910,-4.000000
911,28.000000
912,2.000000
913,-8.000000
914,22.000000
915,8.000000
916,-56.000000
917,10.000000
918,10.000000
919,0.000000
920,30.000000
921,-14.000000
922,12.000000
923,-8.000000
924,30.000000
925,8.000000
926,18.000000
927,-68.000000
928,46.000000
929,38.000000
930,-68.000000
931,-8.000000
932,-58.000000
933,12.000000
934,12.000000
935,-36.000000
936,-8.000000
937,-58.000000
938,-4.000000
939,30.000000
940,38.000000
941,58.000000
942,4.000000
943,-4.000000
944,60.000000
945,8.000000
946,-58.000000
947,-8.000000
948,2.000000
949,-46.000000
950,-4.000000
951,14.000000
952,-8.000000
953,-8.000000
954,-56.000000
955,8.000000
956,-4.000000
957,10.000000
958,0.000000
959,34.000000
960,-10.000000
961,-6.000000
962,2.000000
963,-22.000000
964,-20.000000
965,14.000000
966,-36.000000
967,6.000000
968,42.000000
969,-64.000000
970,-36.000000
971,10.000000
972,-44.000000
973,-20.000000
974,-34.000000
975,10.000000
976,16.000000
977,-16.000000
978,-16.000000
979,-20.000000
980,0.000000
981,28.000000
982,-2.000000
983,-12.000000
984,-12.000000
985,-18.000000
986,-22.000000
987,54.000000
988,28.000000
989,16.000000
990,-16.000000
991,-24.000000
992,-68.000000
993,22.000000
994,2.000000
995,42.000000
996,-6.000000
997,-6.000000
998,-14.000000
999,30.000000
1000,-18.000000
1001,-16.000000
1002,16.000000
1003,-12.000000
1004,-36.000000
1005,-12.000000
1006,-10.000000
1007,8.000000
1008,56.000000
1009,12.000000
1010,-56.000000
1011,8.000000
1012,0.000000
1013,90.000000
1014,-54.000000
1015,-40.000000
1016,14.000000
1017,-76.000000
1018,-4.000000
1019,-4.000000
1020,12.000000
1021,-32.000000
1022,50.000000
1023,-6.000000
1024,4.000000
1025,40.000000
1026,12.000000
1027,-22.000000
1028,-18.000000
1029,24.000000
1030,-6.000000
1031,50.000000
1032,-12.000000
1033,88.000000
1034,0.000000
1035,16.000000
1036,0.000000
1037,94.000000
1038,-6.000000
1039,-62.000000
1040,4.000000
1041,8.000000
1042,10.000000
1043,28.000000
1044,14.000000
1045,-22.000000
1046,-50.000000
1047,16.000000
1048,4.000000
1049,26.000000
1050,-30.000000
1051,8.000000
1052,8.000000
1053,-40.000000
1054,4.000000
1055,20.000000
1056,-12.000000
1057,14.000000
1058,-4.000000
1059,-6.000000
1060,-14.000000
1061,54.000000
1062,-8.000000
1063,-50.000000
1064,60.000000
1065,-34.000000
1066,-16.000000
1067,-20.000000
1068,-48.000000
1069,6.000000
1070,84.000000
1071,18.000000
1072,-22.000000
1073,-36.000000
1074,8.000000
1075,-12.000000
1076,6.000000
1077,28.000000
1078,-30.000000
1079,-12.000000
1080,32.000000
1081,-28.000000
1082,-12.000000
1083,0.000000
1084,34.000000
1085,16.000000
1086,14.000000
1087,20.000000
1088,-12.000000
1089,-76.000000
1090,-20.000000
1091,12.000000
1092,38.000000
1093,28.000000
1094,26.000000
1095,10.000000
1096,-30.000000
1097,24.000000
1098,6.000000
1099,-4.000000
1100,-2.000000
1101,-16.000000
1102,20.000000
1103,-12.000000
1104,-12.000000
1105,88.000000
1106,-20.000000
1107,2.000000
1108,-24.000000
1109,34.000000
1110,-8.000000
1111,-4.000000
1112,-4.000000
1113,-44.000000
1114,-16.000000
1115,26.000000
1116,34.000000
1117,34.000000
1118,8.000000
1119,24.000000
1120,-12.000000
1121,-32.000000
1122,-8.000000
1123,18.000000
1124,10.000000
1125,26.000000
1126,28.000000
1127,-12.000000
1128,-24.000000
1129,-12.000000
1130,2.000000
1131,-2.000000
1132,20.000000
1133,-22.000000
1134,134.000000
1135,-20.000000
1136,-20.000000
1137,-56.000000
1138,-12.000000
1139,-22.000000
1140,-64.000000
1141,8.000000
1142,8.000000
1143,-4.000000
1144,0.000000
1145,4.000000
1146,-16.000000
1147,-8.000000
1148,-30.000000
1149,-56.000000
1150,-48.000000
1151,10.000000
1152,-8.000000
1153,-8.000000
1154,16.000000
1155,-14.000000
1156,30.000000
1157,8.000000
1158,-2.000000
1159,-12.000000
1160,-14.000000
1161,8.000000
1162,-38.000000
1163,-12.000000
1164,44.000000
1165,54.000000
1166,28.000000
1167,-76.000000
1168,4.000000
1169,-16.000000
1170,-8.000000
1171,0.000000
1172,2.000000
1173,-6.000000
1174,26.000000
1175,-40.000000
1176,-20.000000
1177,22.000000
1178,-6.000000
1179,40.000000
1180,14.000000
1181,-22.000000
1182,-34.000000
1183,-42.000000
1184,-26.000000
1185,-12.000000
1186,-38.000000
1187,-6.000000
1188,40.000000
1189,-14.000000
1190,14.000000
1191,-4.000000
1192,0.000000
1193,-12.000000
1194,-12.000000
1195,32.000000
1196,-16.000000
1197,60.000000
1198,-58.000000
1199,32.000000
1200,-24.000000
1201,22.000000
1202,2.000000
1203,-6.000000
1204,50.000000
1205,20.000000
1206,40.000000
1207,8.000000
1208,-14.000000
1209,4.000000
1210,-30.000000
1211,-54.000000
1212,-26.000000
1213,-24.000000
1214,-48.000000
1215,-20.000000
1216,-12.000000
1217,-36.000000
1218,-20.000000
1219,-18.000000
1220,-64.000000
1221,54.000000
1222,12.000000
1223,-18.000000
1224,8.000000
1225,16.000000
1226,28.000000
1227,-82.000000
1228,-2.000000
1229,-76.000000
1230,2.000000
1231,0.000000
1232,-4.000000
1233,-16.000000
1234,0.000000
1235,54.000000
1236,38.000000
1237,-4.000000
1238,-4.000000
1239,34.000000
1240,-70.000000
1241,-26.000000
1242,4.000000
1243,54.000000
1244,-14.000000
1245,38.000000
1246,32.000000
1247,-48.000000
1248,-24.000000
1249,46.000000
1250,-14.000000
1251,-6.000000
1252,0.000000
1253,-12.000000
1254,20.000000
1255,-12.000000
1256,22.000000
1257,48.000000
1258,-10.000000
1259,-30.000000
1260,22.000000
1261,-34.000000
1262,10.000000
1263,-10.000000
1264,-24.000000
1265,-28.000000
1266,-2.000000
1267,16.000000
1268,-44.000000
1269,10.000000
1270,-44.000000
1271,-16.000000
1272,12.000000
1273,16.000000
1274,4.000000
1275,-4.000000
1276,-8.000000
1277,46.000000
1278,-22.000000
1279,0.000000
1280,-16.000000
1281,-36.000000
1282,-2.000000
1283,2.000000
1284,24.000000
1285,60.000000
1286,-8.000000
1287,78.000000
1288,0.000000
1289,54.000000
1290,-44.000000
1291,14.000000
1292,-84.000000
1293,-30.000000
1294,8.000000
1295,8.000000
1296,12.000000
1297,14.000000
1298,28.000000
1299,36.000000
1300,20.000000
1301,54.000000
1302,-30.000000
1303,-4.000000
1304,8.000000
1305,-4.000000
1306,-6.000000
1307,12.000000
1308,-40.000000
1309,-10.000000
1310,-52.000000
1311,-20.000000
1312,-14.000000
1313,-26.000000
1314,-26.000000
1315,68.000000
1316,-12.000000
1317,2.000000
1318,12.000000
1319,-74.000000
1320,44.000000
1321,-14.000000
1322,-24.000000
1323,6.000000
1324,8.000000
1325,-22.000000
1326,2.000000
1327,-56.000000
1328,14.000000
1329,46.000000
1330,54.000000
1331,16.000000
1332,-58.000000
1333,-8.000000
1334,-76.000000
1335,-6.000000
1336,20.000000
1337,-20.000000
1338,-16.000000
1339,74.000000
1340,12.000000
1341,-30.000000
1342,-2.000000
1343,28.000000
1344,-4.000000
1345,6.000000
1346,0.000000
1347,10.000000
1348,74.000000
1349,-20.000000
1350,8.000000
1351,-4.000000
1352,10.000000
1353,28.000000
1354,62.000000
1355,-22.000000
1356,-22.000000
1357,68.000000
1358,8.000000
1359,2.000000
1360,68.000000
1361,4.000000
1362,14.000000
1363,-26.000000
1364,-4.000000
1365,-60.000000
1366,0.000000
1367,8.000000
1368,20.000000
1369,-4.000000
1370,-88.000000
1371,6.000000
