docs/evidence/raw/2026-09-07/data_21_013.csv

Channel              :,CH1
Frequency            :,  ?
Period               :,  ?
PK-PK                :,94.00mV
Probe attenuation    :,1X
Voltage per ADC value:,0.125000mV
Time interval        :,100.00000us

index,CH1_Voltage(mV)
1,2.000000
2,2.000000
3,2.000000
4,2.000000
5,0.000000
6,4.000000
7,4.000000
8,4.000000
9,4.000000
10,4.000000
11,-8.000000
12,-4.000000
13,-4.000000
14,-4.000000
15,-4.000000
16,-12.000000
17,-20.000000
18,-4.000000
19,-4.000000
20,-8.000000
21,-4.000000
22,-4.000000
23,-12.000000
24,-8.000000
25,-12.000000
26,-10.000000
27,-2.000000
28,-4.000000
29,-4.000000
30,-4.000000
31,-8.000000
32,-4.000000
33,-4.000000
34,-8.000000
35,-4.000000
36,-4.000000
37,-4.000000
38,-4.000000
39,-4.000000
40,-4.000000
41,-4.000000
42,-4.000000
43,0.000000
44,0.000000
45,0.000000
46,0.000000
47,0.000000
48,0.000000
49,-4.000000
50,-2.000000
51,0.000000
52,0.000000
53,0.000000
54,0.000000
55,-4.000000
56,-4.000000
57,-4.000000
58,-4.000000
59,0.000000
60,0.000000
61,0.000000
62,0.000000
63,0.000000
64,0.000000
65,0.000000
66,0.000000
67,0.000000
68,0.000000
69,-4.000000
70,-4.000000
71,-4.000000
72,-4.000000
73,-4.000000
74,-4.000000
75,-4.000000
76,-10.000000
77,-4.000000
78,-4.000000
79,-8.000000
80,-8.000000
81,-4.000000
82,-4.000000
83,-6.000000
84,-8.000000
85,-4.000000
86,-4.000000
87,-8.000000
88,-4.000000
89,-4.000000
90,-4.000000
91,-4.000000
92,-4.000000
93,-4.000000
94,-4.000000
95,-4.000000
96,-2.000000
97,-4.000000
98,-4.000000
99,-4.000000
100,-8.000000
101,-4.000000
102,-14.000000
103,-4.000000
104,-4.000000
105,-4.000000
106,-4.000000
107,-4.000000
108,-4.000000
109,-4.000000
110,-4.000000
111,-14.000000
112,-4.000000
113,-4.000000
114,-4.000000
115,-8.000000
116,-8.000000
117,-8.000000
118,-4.000000
119,-4.000000
120,-4.000000
121,-4.000000
122,8.000000
123,-12.000000
124,-14.000000
125,-4.000000
126,14.000000
127,-4.000000
128,-8.000000
129,-8.000000
130,-4.000000
131,-8.000000
132,-4.000000
133,-4.000000
134,-4.000000
135,-4.000000
136,-4.000000
137,-2.000000
138,-4.000000
139,-2.000000
140,-2.000000
141,-4.000000
142,-2.000000
143,-4.000000
144,-2.000000
145,0.000000
146,0.000000
147,-4.000000
148,-4.000000
149,0.000000
150,0.000000
151,-4.000000
152,-4.000000
153,-2.000000
154,-4.000000
155,0.000000
156,0.000000
157,0.000000
158,0.000000
159,0.000000
160,0.000000
161,-2.000000
162,-4.000000
163,0.000000
164,0.000000
165,0.000000
166,0.000000
167,-2.000000
168,-4.000000
169,0.000000
170,0.000000
171,-4.000000
172,-4.000000
173,0.000000
174,0.000000
175,0.000000
176,2.000000
177,-4.000000
178,-4.000000
179,2.000000
180,0.000000
181,0.000000
182,2.000000
183,2.000000
184,2.000000
185,2.000000
186,2.000000
187,-2.000000
188,-2.000000
189,2.000000
190,0.000000
191,2.000000
192,0.000000
193,0.000000
194,2.000000
195,2.000000
196,2.000000
197,0.000000
198,2.000000
199,2.000000
200,2.000000
201,4.000000
202,4.000000
203,0.000000
204,0.000000
205,4.000000
206,0.000000
207,2.000000
208,2.000000
209,2.000000
210,2.000000
211,-4.000000
212,-8.000000
213,4.000000
214,-4.000000
215,-4.000000
216,-4.000000
217,-4.000000
218,-8.000000
219,-4.000000
220,-4.000000
221,-4.000000
222,-2.000000
223,-4.000000
224,-8.000000
225,8.000000
226,20.000000
227,-4.000000
228,-4.000000
229,-8.000000
230,-4.000000
231,-4.000000
232,-4.000000
233,-4.000000
234,-4.000000
235,-2.000000
236,-4.000000
237,0.000000
238,0.000000
239,-4.000000
240,-4.000000
241,-4.000000
242,-4.000000
243,0.000000
244,0.000000
245,-4.000000
246,-4.000000
247,0.000000
248,0.000000
249,0.000000
250,-4.000000
251,2.000000
252,0.000000
253,0.000000
254,0.000000
255,0.000000
256,0.000000
257,-4.000000
258,-4.000000
259,-4.000000
260,-4.000000
261,0.000000
262,0.000000
263,0.000000
264,0.000000
265,0.000000
266,-4.000000
267,-4.000000
268,-4.000000
269,-4.000000
270,-2.000000
271,0.000000
272,0.000000
273,-4.000000
274,-4.000000
275,-4.000000
276,-8.000000
277,-4.000000
278,-4.000000
279,-4.000000
280,-4.000000
281,-4.000000
282,-4.000000
283,-4.000000
284,-2.000000
285,-4.000000
286,-4.000000
287,-12.000000
288,-4.000000
289,-4.000000
290,-8.000000
291,-12.000000
292,-4.000000
293,-4.000000
294,-4.000000
295,-4.000000
296,-4.000000
297,-4.000000
298,-4.000000
299,-4.000000
300,-8.000000
301,-4.000000
302,-8.000000
303,-4.000000
304,-4.000000
305,-4.000000
306,-4.000000
307,-6.000000
308,-6.000000
309,-4.000000
310,2.000000
311,-4.000000
312,-8.000000
313,-4.000000
314,-4.000000
315,-4.000000
316,-4.000000
317,-14.000000
318,-4.000000
319,-4.000000
320,-4.000000
321,-8.000000
322,-4.000000
323,-4.000000
324,-8.000000
325,-4.000000
326,-4.000000
327,-6.000000
328,-4.000000
329,-8.000000
330,-8.000000
331,-4.000000
332,-8.000000
333,-8.000000
334,-10.000000
335,-4.000000
336,-4.000000
337,-4.000000
338,-4.000000
339,-4.000000
340,0.000000
341,0.000000
342,0.000000
343,0.000000
344,0.000000
345,-4.000000
346,-4.000000
347,-4.000000
348,-4.000000
349,0.000000
350,0.000000
351,-4.000000
352,-4.000000
353,-4.000000
354,-4.000000
355,0.000000
356,0.000000
357,0.000000
358,0.000000
359,0.000000
360,0.000000
361,-2.000000
362,-4.000000
363,-4.000000
364,-4.000000
365,0.000000
366,0.000000
367,0.000000
368,0.000000
369,0.000000
370,0.000000
371,-4.000000
372,-2.000000
373,2.000000
374,0.000000
375,0.000000
376,0.000000
377,2.000000
378,2.000000
379,2.000000
380,0.000000
381,0.000000
382,2.000000
383,0.000000
384,0.000000
385,4.000000
386,0.000000
387,2.000000
388,0.000000
389,-4.000000
390,2.000000
391,2.000000
392,2.000000
393,2.000000
394,0.000000
395,2.000000
396,2.000000
397,2.000000
398,2.000000
399,2.000000
400,2.000000
401,4.000000
402,4.000000
403,4.000000
404,4.000000
405,2.000000
406,0.000000
407,4.000000
408,4.000000
409,0.000000
410,0.000000
411,-2.000000
412,-4.000000
413,-4.000000
414,-4.000000
415,0.000000
416,-2.000000
417,-4.000000
418,-4.000000
419,-10.000000
420,-4.000000
421,-8.000000
422,-4.000000
423,-8.000000
424,-4.000000
425,-8.000000
426,-4.000000
427,-4.000000
428,-4.000000
429,-4.000000
430,-4.000000
431,-4.000000
432,-4.000000
433,-4.000000
434,-4.000000
435,-4.000000
436,-4.000000
437,-4.000000
438,-4.000000
439,-4.000000
440,-4.000000
441,-4.000000
442,-2.000000
443,0.000000
444,0.000000
445,-4.000000
446,-4.000000
447,-4.000000
448,-4.000000
449,0.000000
450,0.000000
451,0.000000
452,0.000000
453,-4.000000
454,-4.000000
455,-4.000000
456,-4.000000
457,0.000000
458,0.000000
459,0.000000
460,0.000000
461,0.000000
462,0.000000
463,0.000000
464,0.000000
465,-4.000000
466,-4.000000
467,-4.000000
468,-2.000000
469,-4.000000
470,-2.000000
471,2.000000
472,0.000000
473,0.000000
474,0.000000
475,-4.000000
476,-2.000000
477,-4.000000
478,-10.000000
479,-4.000000
480,-8.000000
481,-8.000000
482,-4.000000
483,-4.000000
484,-4.000000
485,-4.000000
486,-8.000000
487,-4.000000
488,-4.000000
489,-2.000000
490,-4.000000
491,-4.000000
492,-4.000000
493,-4.000000
494,-4.000000
495,-4.000000
496,0.000000
497,-4.000000
498,-4.000000
499,-4.000000
500,-4.000000
501,-4.000000
502,-4.000000
503,-8.000000
504,-8.000000
505,-4.000000
506,-4.000000
507,-4.000000
508,-4.000000
509,-4.000000
510,-4.000000
511,-4.000000
512,-4.000000
513,-4.000000
514,-4.000000
515,-4.000000
516,2.000000
517,-4.000000
518,-4.000000
519,-8.000000
520,6.000000
521,-4.000000
522,-4.000000
523,-4.000000
524,-10.000000
525,-8.000000
526,-8.000000
527,-10.000000
528,-4.000000
529,-8.000000
530,-4.000000
531,-8.000000
532,-4.000000
533,-4.000000
534,-4.000000
535,-4.000000
536,-4.000000
537,-4.000000
538,-4.000000
539,0.000000
540,0.000000
541,0.000000
542,-2.000000
543,0.000000
544,0.000000
545,0.000000
546,0.000000
547,0.000000
548,0.000000
549,0.000000
550,0.000000
551,0.000000
552,0.000000
553,0.000000
554,0.000000
555,0.000000
556,0.000000
557,0.000000
558,0.000000
559,0.000000
560,0.000000
561,-2.000000
562,-4.000000
563,-2.000000
564,-4.000000
565,-2.000000
566,-4.000000
567,0.000000
568,0.000000
569,0.000000
570,0.000000
571,-4.000000
572,-4.000000
573,0.000000
574,2.000000
575,2.000000
576,2.000000
577,2.000000
578,2.000000
579,2.000000
580,2.000000
581,2.000000
582,0.000000
583,0.000000
584,0.000000
585,0.000000
586,0.000000
587,2.000000
588,2.000000
589,2.000000
590,2.000000
591,2.000000
592,2.000000
593,2.000000
594,2.000000
595,2.000000
596,2.000000
597,2.000000
598,2.000000
599,0.000000
600,0.000000
601,-4.000000
602,-4.000000
603,2.000000
604,2.000000
605,2.000000
606,2.000000
607,2.000000
608,2.000000
609,4.000000
610,4.000000
611,-4.000000
612,-14.000000
613,-4.000000
614,4.000000
615,-14.000000
616,-4.000000
617,-4.000000
618,-4.000000
619,-4.000000
620,-4.000000
621,-8.000000
622,-8.000000
623,-4.000000
624,-4.000000
625,-4.000000
626,-4.000000
627,-8.000000
628,-8.000000
629,-8.000000
630,-10.000000
631,-4.000000
632,-4.000000
633,-4.000000
634,-8.000000
635,-4.000000
636,-4.000000
637,-4.000000
638,-4.000000
639,0.000000
640,0.000000
641,-4.000000
642,-2.000000
643,0.000000
644,0.000000
645,0.000000
646,0.000000
647,0.000000
648,0.000000
649,0.000000
650,0.000000
651,0.000000
652,0.000000
653,0.000000
654,0.000000
655,-4.000000
656,-4.000000
657,-2.000000
658,-2.000000
659,-4.000000
660,-4.000000
661,-4.000000
662,-4.000000
663,0.000000
664,0.000000
665,0.000000
666,0.000000
667,-2.000000
668,-4.000000
669,-4.000000
670,-2.000000
671,-2.000000
672,-4.000000
673,-2.000000
674,-4.000000
675,-4.000000
676,-4.000000
677,-14.000000
678,-14.000000
679,-8.000000
680,2.000000
681,-4.000000
682,-4.000000
683,-4.000000
684,-4.000000
685,-4.000000
686,-4.000000
687,-8.000000
688,-8.000000
689,-4.000000
690,-8.000000
691,-4.000000
692,-4.000000
693,-8.000000
694,-4.000000
695,-10.000000
696,-4.000000
697,-4.000000
698,-8.000000
699,-8.000000
700,-4.000000
701,-8.000000
702,-4.000000
703,-4.000000
704,2.000000
705,-4.000000
706,-4.000000
707,-2.000000
708,-4.000000
709,-4.000000
710,-4.000000
711,-4.000000
712,-4.000000
713,-4.000000
714,-4.000000
715,-8.000000
716,-10.000000
717,-4.000000
718,-4.000000
719,20.000000
720,-14.000000
721,-8.000000
722,-4.000000
723,-4.000000
724,-4.000000
725,-6.000000
726,-4.000000
727,-10.000000
728,-10.000000
729,-6.000000
730,-4.000000
731,-4.000000
732,-4.000000
733,-8.000000
734,-4.000000
735,-4.000000
736,-4.000000
737,0.000000
738,0.000000
739,-2.000000
740,-2.000000
741,-2.000000
742,-2.000000
743,2.000000
744,-2.000000
745,-4.000000
746,-4.000000
747,-4.000000
748,-2.000000
749,-4.000000
750,-4.000000
751,-4.000000
752,-4.000000
753,0.000000
754,0.000000
755,-4.000000
756,-2.000000
757,-4.000000
758,-4.000000
759,-4.000000
760,-4.000000
761,-4.000000
762,-4.000000
763,-4.000000
764,-4.000000
765,0.000000
766,0.000000
767,-4.000000
768,-4.000000
769,-4.000000
770,-4.000000
771,0.000000
772,0.000000
773,0.000000
774,0.000000
775,0.000000
776,4.000000
777,2.000000
778,2.000000
779,-4.000000
780,-4.000000
781,2.000000
782,2.000000
783,2.000000
784,2.000000
785,2.000000
786,2.000000
787,2.000000
788,2.000000
789,0.000000
790,0.000000
791,0.000000
792,0.000000
793,0.000000
794,2.000000
795,0.000000
796,0.000000
797,2.000000
798,2.000000
799,4.000000
800,4.000000
801,4.000000
802,0.000000
803,2.000000
804,2.000000
805,0.000000
806,0.000000
807,0.000000
808,4.000000
809,4.000000
810,4.000000
811,-4.000000
812,-4.000000
813,-4.000000
814,-4.000000
815,0.000000
816,-4.000000
817,-4.000000
818,-4.000000
819,-4.000000
820,-4.000000
821,-4.000000
822,2.000000
823,-4.000000
824,-4.000000
825,-4.000000
826,-12.000000
827,-8.000000
828,-4.000000
829,-4.000000
830,-8.000000
831,-8.000000
832,-4.000000
833,-8.000000
834,-8.000000
835,-4.000000
836,-4.000000
837,-4.000000
838,-4.000000
839,-2.000000
840,0.000000
841,0.000000
842,0.000000
843,-4.000000
844,-4.000000
845,-4.000000
846,-4.000000
847,-4.000000
848,-4.000000
849,-4.000000
850,-4.000000
851,0.000000
852,0.000000
853,0.000000
854,0.000000
855,-4.000000
856,-4.000000
857,-4.000000
858,-4.000000
859,0.000000
860,0.000000
861,0.000000
862,0.000000
863,0.000000
864,0.000000
865,-2.000000
866,-4.000000
867,0.000000
868,0.000000
869,-4.000000
870,-4.000000
871,-4.000000
872,-4.000000
873,-4.000000
874,-4.000000
875,-8.000000
876,-4.000000
877,-4.000000
878,-8.000000
879,-4.000000
880,-8.000000
881,-8.000000
882,-10.000000
883,-4.000000
884,-4.000000
885,-4.000000
886,-8.000000
887,-4.000000
888,-2.000000
889,-4.000000
890,-4.000000
891,-4.000000
892,-4.000000
893,-4.000000
894,-4.000000
895,-4.000000
896,-4.000000
897,-4.000000
898,-4.000000
899,-8.000000
900,-8.000000
901,-4.000000
902,-4.000000
903,-4.000000
904,-4.000000
905,-4.000000
906,-4.000000
907,-4.000000
908,-4.000000
909,-4.000000
910,-6.000000
911,-4.000000
912,-8.000000
913,12.000000
914,-4.000000
915,-14.000000
916,-14.000000
917,2.000000
918,-4.000000
919,-4.000000
920,-8.000000
921,-4.000000
922,-4.000000
923,-8.000000
924,-4.000000
925,-4.000000
926,-12.000000
927,-8.000000
928,14.000000
929,-8.000000
930,-8.000000
931,-8.000000
932,-12.000000
933,-4.000000
934,-8.000000
935,-4.000000
936,-4.000000
937,-4.000000
938,-4.000000
939,0.000000
940,0.000000
941,0.000000
942,0.000000
943,0.000000
944,-2.000000
945,0.000000
946,0.000000
947,0.000000
948,0.000000
949,0.000000
950,0.000000
951,-4.000000
952,-4.000000
953,-4.000000
954,-4.000000
955,0.000000
956,0.000000
957,-2.000000
958,-4.000000
959,-4.000000
960,-4.000000
961,-4.000000
962,-4.000000
963,0.000000
964,0.000000
965,0.000000
966,0.000000
967,-4.000000
968,-4.000000
969,-4.000000
970,-4.000000
971,0.000000
972,0.000000
973,0.000000
974,0.000000
975,0.000000
976,-4.000000
977,0.000000
978,2.000000
979,2.000000
980,2.000000
981,2.000000
982,2.000000
983,2.000000
984,2.000000
985,2.000000
986,2.000000
987,2.000000
988,0.000000
989,2.000000
990,2.000000
991,42.000000
992,24.000000
993,0.000000
994,0.000000
995,2.000000
996,2.000000
997,2.000000
998,2.000000
999,2.000000
1000,0.000000
1001,0.000000
1002,0.000000
1003,-2.000000
1004,4.000000
1005,0.000000
1006,0.000000
1007,2.000000
1008,2.000000
1009,0.000000
1010,2.000000
1011,-8.000000
1012,-4.000000
1013,-4.000000
1014,-12.000000
1015,-4.000000
1016,2.000000
1017,-4.000000
1018,-4.000000
1019,-4.000000
1020,-4.000000
1021,12.000000
1022,-8.000000
1023,-4.000000
1024,-4.000000
1025,-4.000000
1026,-4.000000
1027,-6.000000
1028,-8.000000
1029,-4.000000
1030,4.000000
1031,-4.000000
1032,-4.000000
1033,-4.000000
1034,-4.000000
1035,-4.000000
1036,-4.000000
1037,-2.000000
1038,-4.000000
1039,-4.000000
1040,-4.000000
1041,-4.000000
1042,-2.000000
1043,0.000000
1044,0.000000
1045,0.000000
1046,0.000000
1047,-2.000000
1048,-4.000000
1049,-2.000000
1050,-4.000000
1051,0.000000
1052,0.000000
1053,-4.000000
1054,-2.000000
1055,-4.000000
1056,-4.000000
1057,-2.000000
1058,-4.000000
1059,-4.000000
1060,-4.000000
1061,0.000000
1062,0.000000
1063,0.000000
1064,0.000000
1065,0.000000
1066,0.000000
1067,0.000000
1068,0.000000
1069,-4.000000
1070,-4.000000
1071,-4.000000
1072,-4.000000
1073,0.000000
1074,0.000000
1075,-4.000000
1076,-4.000000
1077,-4.000000
1078,2.000000
1079,-4.000000
1080,-4.000000
1081,-4.000000
1082,-8.000000
1083,-4.000000
1084,-4.000000
1085,-12.000000
1086,-4.000000
1087,-4.000000
1088,-4.000000
1089,-4.000000
1090,-4.000000
1091,-8.000000
1092,-28.000000
1093,-4.000000
1094,-4.000000
1095,-8.000000
1096,0.000000
1097,-4.000000
1098,-4.000000
1099,-4.000000
1100,-4.000000
1101,-4.000000
1102,-8.000000
1103,-4.000000
1104,-8.000000
1105,-8.000000
1106,-4.000000
1107,-4.000000
1108,-4.000000
1109,8.000000
1110,-4.000000
1111,-4.000000
1112,-12.000000
1113,-4.000000
1114,-4.000000
1115,-4.000000
1116,-4.000000
1117,-4.000000
1118,-12.000000
1119,-4.000000
1120,-4.000000
1121,-10.000000
1122,-2.000000
1123,-4.000000
1124,-4.000000
1125,-10.000000
1126,-4.000000
1127,-4.000000
1128,-4.000000
1129,-4.000000
1130,-4.000000
1131,-8.000000
1132,-4.000000
1133,-4.000000
1134,0.000000
1135,-4.000000
1136,-4.000000
1137,-2.000000
1138,-4.000000
1139,-4.000000
1140,-4.000000
1141,-6.000000
1142,0.000000
1143,-4.000000
1144,-2.000000
1145,-4.000000
1146,-2.000000
1147,0.000000
1148,0.000000
1149,-4.000000
1150,-4.000000
1151,0.000000
1152,0.000000
1153,-4.000000
1154,-2.000000
1155,0.000000
1156,0.000000
1157,-4.000000
1158,-4.000000
1159,0.000000
1160,2.000000
1161,0.000000
1162,0.000000
1163,-4.000000
1164,-4.000000
1165,0.000000
1166,0.000000
1167,-2.000000
1168,8.000000
1169,-4.000000
1170,-4.000000
1171,0.000000
1172,0.000000
1173,-4.000000
1174,-4.000000
1175,0.000000
1176,0.000000
1177,2.000000
1178,2.000000
1179,-4.000000
1180,0.000000
1181,2.000000
1182,2.000000
1183,2.000000
1184,2.000000
1185,2.000000
1186,2.000000
1187,2.000000
1188,2.000000
1189,2.000000
1190,2.000000
1191,0.000000
1192,0.000000
1193,4.000000
1194,2.000000
1195,2.000000
1196,2.000000
1197,2.000000
1198,2.000000
1199,2.000000
1200,2.000000
1201,4.000000
1202,4.000000
1203,4.000000
1204,4.000000
1205,4.000000
1206,4.000000
1207,6.000000
1208,4.000000
1209,4.000000
1210,4.000000
1211,-8.000000
1212,-4.000000
1213,-4.000000
1214,-8.000000
1215,-10.000000
1216,0.000000
1217,-4.000000
1218,-10.000000
1219,-4.000000
1220,-8.000000
1221,-4.000000
1222,-8.000000
1223,-8.000000
1224,-4.000000
1225,-4.000000
1226,-10.000000
1227,-4.000000
1228,-8.000000
1229,-8.000000
1230,-12.000000
1231,-4.000000
1232,-4.000000
1233,-4.000000
1234,-4.000000
1235,-4.000000
1236,-4.000000
1237,-4.000000
1238,-4.000000
1239,-4.000000
1240,-4.000000
1241,0.000000
1242,0.000000
1243,-4.000000
1244,2.000000
1245,-4.000000
1246,-4.000000
1247,-4.000000
1248,-4.000000
1249,-2.000000
1250,-2.000000
1251,0.000000
1252,0.000000
1253,2.000000
1254,2.000000
1255,0.000000
1256,0.000000
1257,-4.000000
1258,-2.000000
1259,-4.000000
1260,-4.000000
1261,-4.000000
1262,-4.000000
1263,0.000000
1264,0.000000
1265,-2.000000
1266,-4.000000
1267,0.000000
1268,0.000000
1269,-2.000000
1270,-4.000000
1271,-4.000000
1272,-2.000000
1273,-2.000000
1274,-2.000000
1275,-4.000000
1276,-4.000000
1277,-8.000000
1278,-4.000000
1279,-4.000000
1280,-4.000000
1281,-4.000000
1282,-4.000000
1283,-4.000000
1284,-6.000000
1285,-8.000000
1286,-4.000000
1287,-4.000000
1288,-4.000000
1289,-4.000000
1290,-4.000000
1291,-4.000000
1292,-4.000000
1293,-4.000000
1294,-4.000000
1295,-4.000000
1296,-4.000000
1297,-8.000000
1298,-8.000000
1299,-4.000000
1300,-8.000000
1301,-4.000000
1302,-14.000000
1303,-14.000000
1304,-14.000000
1305,-4.000000
1306,-4.000000
1307,-4.000000
1308,-4.000000
1309,-4.000000
1310,-4.000000
1311,-12.000000
1312,-8.000000
1313,-4.000000
1314,-4.000000
1315,-4.000000
1316,0.000000
1317,-4.000000
1318,-4.000000
1319,-4.000000
1320,-4.000000
1321,-4.000000
1322,-4.000000
1323,-8.000000
1324,-4.000000
1325,0.000000
1326,-4.000000
1327,-12.000000
1328,-10.000000
1329,-4.000000
1330,-8.000000
1331,-4.000000
1332,-4.000000
1333,-4.000000
1334,-4.000000
1335,-4.000000
1336,-4.000000
1337,-4.000000
1338,-4.000000
1339,0.000000
1340,0.000000
1341,-4.000000
1342,-4.000000
1343,-4.000000
1344,-2.000000
1345,0.000000
1346,0.000000
1347,-2.000000
1348,-2.000000
1349,0.000000
1350,0.000000
1351,0.000000
1352,0.000000
1353,-4.000000
1354,-4.000000
1355,-4.000000
1356,-4.000000
1357,-4.000000
1358,-4.000000
1359,-4.000000
1360,-4.000000
1361,-4.000000
1362,-4.000000
1363,0.000000
1364,0.000000
1365,-4.000000
1366,-4.000000
1367,-4.000000
1368,-4.000000
1369,-4.000000
1370,-4.000000
1371,-4.000000
1372,-4.000000
1373,0.000000
1374,0.000000
1375,2.000000
1376,2.000000
1377,2.000000
1378,2.000000
1379,2.000000
1380,2.000000
1381,2.000000
1382,2.000000
1383,0.000000
1384,0.000000
1385,0.000000
1386,2.000000
1387,2.000000
1388,-32.000000
1389,2.000000
1390,2.000000
1391,-8.000000
1392,2.000000
1393,2.000000
1394,2.000000
1395,0.000000
1396,0.000000
1397,0.000000
1398,2.000000
1399,2.000000
1400,2.000000
1401,2.000000
1402,2.000000
1403,0.000000
1404,0.000000
1405,4.000000
1406,4.000000
1407,4.000000
1408,2.000000
1409,4.000000
1410,4.000000
1411,-4.000000
1412,-4.000000
1413,-4.000000
1414,-10.000000
1415,-4.000000
1416,-14.000000
1417,-4.000000
1418,-4.000000
1419,-4.000000
1420,-8.000000
1421,-4.000000
1422,-4.000000
