docs/evidence/raw/2026-09-07/data_20_010on.csv

Channel              :,CH1
Frequency            :,  ?
Period               :,  ?
PK-PK                :,284.0mV
Probe attenuation    :,1X
Voltage per ADC value:,0.250000mV
Time interval        :,100.00000us

index,CH1_Voltage(mV)
1,0.000000
2,0.000000
3,-36.000000
4,-28.000000
5,0.000000
6,-64.000000
7,-8.000000
8,-24.000000
9,-12.000000
10,52.000000
11,20.000000
12,16.000000
13,8.000000
14,0.000000
15,-20.000000
16,-4.000000
17,-12.000000
18,-36.000000
19,-8.000000
20,-4.000000
21,12.000000
22,16.000000
23,32.000000
24,-44.000000
25,-12.000000
26,-12.000000
27,-12.000000
28,-12.000000
29,-16.000000
30,-20.000000
31,-8.000000
32,-16.000000
33,12.000000
34,8.000000
35,0.000000
36,8.000000
37,-48.000000
38,12.000000
39,0.000000
40,-28.000000
41,52.000000
42,-36.000000
43,-8.000000
44,12.000000
45,-8.000000
46,60.000000
47,24.000000
48,56.000000
49,0.000000
50,-8.000000
51,-32.000000
52,52.000000
53,-20.000000
54,-16.000000
55,12.000000
56,-8.000000
57,24.000000
58,-12.000000
59,-20.000000
60,4.000000
61,20.000000
62,36.000000
63,-40.000000
64,-56.000000
65,44.000000
66,-8.000000
67,-4.000000
68,-8.000000
69,-8.000000
70,-32.000000
71,16.000000
72,16.000000
73,16.000000
74,16.000000
75,52.000000
76,24.000000
77,12.000000
78,0.000000
79,56.000000
80,84.000000
81,24.000000
82,8.000000
83,0.000000
84,36.000000
85,20.000000
86,20.000000
87,-12.000000
88,-12.000000
89,100.000000
90,76.000000
91,4.000000
92,-8.000000
93,44.000000
94,-44.000000
95,8.000000
96,-4.000000
97,-60.000000
98,0.000000
99,-32.000000
100,4.000000
101,-8.000000
102,0.000000
103,8.000000
104,24.000000
105,-12.000000
106,16.000000
107,72.000000
108,76.000000
109,20.000000
110,16.000000
111,16.000000
112,16.000000
113,12.000000
114,8.000000
115,4.000000
116,20.000000
117,16.000000
118,20.000000
119,12.000000
120,24.000000
121,-20.000000
122,28.000000
123,20.000000
124,-32.000000
125,-8.000000
126,24.000000
127,-16.000000
128,8.000000
129,-12.000000
130,24.000000
131,20.000000
132,-32.000000
133,-44.000000
134,-28.000000
135,60.000000
136,0.000000
137,-40.000000
138,-52.000000
139,20.000000
140,-48.000000
141,16.000000
142,-36.000000
143,-8.000000
144,-4.000000
145,-20.000000
146,-40.000000
147,-12.000000
148,0.000000
149,-28.000000
150,-16.000000
151,-28.000000
152,-8.000000
153,-28.000000
154,-8.000000
155,4.000000
156,-20.000000
157,-32.000000
158,-24.000000
159,-8.000000
160,-16.000000
161,-24.000000
162,-8.000000
163,16.000000
164,-24.000000
165,28.000000
166,28.000000
167,-20.000000
168,-60.000000
169,-36.000000
170,-8.000000
171,-8.000000
172,-16.000000
173,-16.000000
174,0.000000
175,-28.000000
176,16.000000
177,-12.000000
178,-12.000000
179,44.000000
180,24.000000
181,-20.000000
182,56.000000
183,-16.000000
184,0.000000
185,4.000000
186,40.000000
187,-16.000000
188,0.000000
189,24.000000
190,16.000000
191,-20.000000
192,4.000000
193,24.000000
194,-28.000000
195,40.000000
196,0.000000
197,0.000000
198,28.000000
199,16.000000
200,20.000000
201,8.000000
202,-8.000000
203,0.000000
204,20.000000
205,-52.000000
206,20.000000
207,8.000000
208,16.000000
209,-8.000000
210,0.000000
211,12.000000
212,0.000000
213,-4.000000
214,-8.000000
215,0.000000
216,12.000000
217,-20.000000
218,48.000000
219,-8.000000
220,20.000000
221,-16.000000
222,-32.000000
223,0.000000
224,32.000000
225,44.000000
226,16.000000
227,4.000000
228,0.000000
229,36.000000
230,12.000000
231,-12.000000
232,20.000000
233,8.000000
234,24.000000
235,0.000000
236,16.000000
237,-12.000000
238,24.000000
239,-48.000000
240,-8.000000
241,-16.000000
242,-24.000000
243,-8.000000
244,-4.000000
245,32.000000
246,-20.000000
247,-20.000000
248,0.000000
249,-48.000000
250,-60.000000
251,-8.000000
252,0.000000
253,4.000000
254,-40.000000
255,-12.000000
256,-8.000000
257,16.000000
258,24.000000
259,4.000000
260,-8.000000
261,-32.000000
262,-32.000000
263,24.000000
264,-20.000000
265,-32.000000
266,20.000000
267,-40.000000
268,-8.000000
269,20.000000
270,0.000000
271,12.000000
272,24.000000
273,-144.000000
274,0.000000
275,-8.000000
276,-28.000000
277,-32.000000
278,-8.000000
279,-12.000000
280,24.000000
281,-4.000000
282,-8.000000
283,-16.000000
284,-8.000000
285,-32.000000
286,0.000000
287,-28.000000
288,0.000000
289,-8.000000
290,4.000000
291,-32.000000
292,-8.000000
293,-16.000000
294,-16.000000
295,8.000000
296,24.000000
297,4.000000
298,-28.000000
299,0.000000
300,0.000000
301,-16.000000
302,-24.000000
303,16.000000
304,12.000000
305,16.000000
306,-8.000000
307,16.000000
308,12.000000
309,0.000000
310,8.000000
311,-20.000000
312,-20.000000
313,-8.000000
314,-4.000000
315,28.000000
316,32.000000
317,20.000000
318,20.000000
319,0.000000
320,8.000000
321,-8.000000
322,4.000000
323,12.000000
324,24.000000
325,8.000000
326,0.000000
327,0.000000
328,4.000000
329,20.000000
330,16.000000
331,28.000000
332,-8.000000
333,20.000000
334,12.000000
335,-20.000000
336,32.000000
337,-28.000000
338,100.000000
339,0.000000
340,16.000000
341,-12.000000
342,16.000000
343,28.000000
344,-8.000000
345,12.000000
346,0.000000
347,-24.000000
348,-24.000000
349,4.000000
350,-16.000000
351,60.000000
352,-24.000000
353,-60.000000
354,-40.000000
355,-12.000000
356,-12.000000
357,-20.000000
358,-80.000000
359,24.000000
360,24.000000
361,-8.000000
362,-12.000000
363,0.000000
364,8.000000
365,20.000000
366,-16.000000
367,-4.000000
368,-24.000000
369,52.000000
370,-16.000000
371,-12.000000
372,-8.000000
373,-8.000000
374,68.000000
375,-28.000000
376,-4.000000
377,-8.000000
378,-8.000000
379,-12.000000
380,0.000000
381,-12.000000
382,-52.000000
383,-32.000000
384,0.000000
385,4.000000
386,-60.000000
387,-28.000000
388,-28.000000
389,0.000000
390,-28.000000
391,-40.000000
392,-20.000000
393,-32.000000
394,-4.000000
395,-8.000000
396,-28.000000
397,-28.000000
398,-12.000000
399,-32.000000
400,-36.000000
401,-12.000000
402,-32.000000
403,-20.000000
404,-16.000000
405,-16.000000
406,16.000000
407,0.000000
408,0.000000
409,-32.000000
410,-4.000000
411,24.000000
412,44.000000
413,-8.000000
414,-4.000000
415,20.000000
416,28.000000
417,-4.000000
418,-28.000000
419,8.000000
420,112.000000
421,28.000000
422,24.000000
423,-8.000000
424,0.000000
425,0.000000
426,8.000000
427,4.000000
428,36.000000
429,-12.000000
430,40.000000
431,-8.000000
432,-24.000000
433,16.000000
434,0.000000
435,0.000000
436,0.000000
437,-12.000000
438,16.000000
439,0.000000
440,0.000000
441,-8.000000
442,20.000000
443,24.000000
444,40.000000
445,-8.000000
446,28.000000
447,-8.000000
448,16.000000
449,20.000000
450,-48.000000
451,24.000000
452,-64.000000
453,24.000000
454,-44.000000
455,-8.000000
456,-8.000000
457,52.000000
458,4.000000
459,-4.000000
460,-40.000000
461,4.000000
462,0.000000
463,-8.000000
464,-8.000000
465,12.000000
466,-16.000000
467,4.000000
468,-12.000000
469,0.000000
470,-12.000000
471,12.000000
472,8.000000
473,-8.000000
474,-28.000000
475,-16.000000
476,-24.000000
477,12.000000
478,-4.000000
479,-8.000000
480,12.000000
481,0.000000
482,-28.000000
483,-8.000000
484,-32.000000
485,-32.000000
486,-32.000000
487,44.000000
488,-12.000000
489,52.000000
490,-4.000000
491,16.000000
492,-40.000000
493,-28.000000
494,0.000000
495,-20.000000
496,-52.000000
497,-12.000000
498,8.000000
499,-8.000000
500,-20.000000
501,-60.000000
502,28.000000
503,8.000000
504,-16.000000
505,-20.000000
506,-24.000000
507,-40.000000
508,-8.000000
509,-20.000000
510,24.000000
511,-28.000000
512,16.000000
513,-48.000000
514,-32.000000
515,72.000000
516,-20.000000
517,-16.000000
518,-8.000000
519,-28.000000
520,-40.000000
521,0.000000
522,0.000000
523,16.000000
524,-12.000000
525,-8.000000
526,64.000000
527,56.000000
528,-16.000000
529,-64.000000
530,44.000000
531,0.000000
532,-28.000000
533,-8.000000
534,-28.000000
535,-16.000000
536,-16.000000
537,68.000000
538,16.000000
539,0.000000
540,-32.000000
541,-24.000000
542,0.000000
543,12.000000
544,-8.000000
545,0.000000
546,0.000000
547,-20.000000
548,12.000000
549,40.000000
550,12.000000
551,-8.000000
552,12.000000
553,-4.000000
554,40.000000
555,76.000000
556,-4.000000
557,44.000000
558,4.000000
559,-12.000000
560,0.000000
561,0.000000
562,16.000000
563,-8.000000
564,-44.000000
565,-8.000000
566,-8.000000
567,0.000000
568,16.000000
569,24.000000
570,12.000000
571,8.000000
572,-84.000000
573,-8.000000
574,-24.000000
575,-12.000000
576,4.000000
577,-36.000000
578,20.000000
579,-36.000000
580,8.000000
581,4.000000
582,8.000000
583,-32.000000
584,8.000000
585,8.000000
586,24.000000
587,0.000000
588,-8.000000
589,0.000000
590,8.000000
591,44.000000
592,40.000000
593,-4.000000
594,28.000000
595,-4.000000
596,24.000000
597,8.000000
598,32.000000
599,16.000000
600,-36.000000
601,44.000000
602,0.000000
603,44.000000
604,8.000000
605,-16.000000
606,4.000000
607,4.000000
608,0.000000
609,12.000000
610,-28.000000
611,-4.000000
612,0.000000
613,-24.000000
614,-8.000000
615,20.000000
616,0.000000
617,4.000000
618,4.000000
619,24.000000
620,12.000000
621,-48.000000
622,4.000000
623,20.000000
624,-4.000000
625,-20.000000
626,-16.000000
627,-8.000000
628,-12.000000
629,-40.000000
630,0.000000
631,-12.000000
632,44.000000
633,-8.000000
634,-24.000000
635,-44.000000
636,16.000000
637,-28.000000
638,-8.000000
639,68.000000
640,-8.000000
641,-20.000000
642,0.000000
643,4.000000
644,4.000000
645,28.000000
646,-20.000000
647,28.000000
648,52.000000
649,-32.000000
650,-28.000000
651,0.000000
652,-16.000000
653,-8.000000
654,-8.000000
655,-32.000000
656,28.000000
657,-16.000000
658,24.000000
659,8.000000
660,-32.000000
661,16.000000
662,-12.000000
663,20.000000
664,0.000000
665,0.000000
666,16.000000
667,0.000000
668,-12.000000
669,-24.000000
670,44.000000
671,-4.000000
672,-8.000000
673,0.000000
674,4.000000
675,4.000000
676,8.000000
677,-24.000000
678,-60.000000
679,68.000000
680,-8.000000
681,-72.000000
682,24.000000
683,-12.000000
684,4.000000
685,4.000000
686,4.000000
687,-8.000000
688,-24.000000
689,0.000000
690,4.000000
691,28.000000
692,-4.000000
693,-8.000000
694,-8.000000
695,12.000000
696,-28.000000
697,96.000000
698,12.000000
699,52.000000
700,8.000000
701,4.000000
702,4.000000
703,52.000000
704,12.000000
705,-36.000000
706,44.000000
707,-24.000000
708,-8.000000
709,-44.000000
710,8.000000
711,52.000000
712,40.000000
713,-72.000000
714,12.000000
715,12.000000
716,12.000000
717,-16.000000
718,4.000000
719,0.000000
720,0.000000
721,-44.000000
722,4.000000
723,4.000000
724,-32.000000
725,-8.000000
726,-8.000000
727,-28.000000
728,24.000000
729,-12.000000
730,0.000000
731,0.000000
732,4.000000
733,12.000000
734,-8.000000
735,-20.000000
736,-20.000000
737,-16.000000
738,24.000000
739,-8.000000
740,4.000000
741,28.000000
742,64.000000
743,-20.000000
744,-24.000000
745,0.000000
746,64.000000
747,-20.000000
748,60.000000
749,28.000000
750,44.000000
751,-24.000000
752,-4.000000
753,0.000000
754,20.000000
755,32.000000
756,-4.000000
757,-8.000000
758,-20.000000
759,44.000000
760,28.000000
761,0.000000
762,-8.000000
763,-24.000000
764,-24.000000
765,-36.000000
766,-28.000000
767,-24.000000
768,12.000000
769,0.000000
770,-28.000000
771,-32.000000
772,12.000000
773,-4.000000
774,0.000000
775,-20.000000
776,-8.000000
777,0.000000
778,-28.000000
779,12.000000
780,-4.000000
781,-36.000000
782,8.000000
783,-144.000000
784,-20.000000
785,12.000000
786,0.000000
787,68.000000
788,64.000000
789,-4.000000
790,52.000000
791,8.000000
792,-4.000000
793,-44.000000
794,8.000000
795,64.000000
796,20.000000
797,12.000000
798,16.000000
799,32.000000
800,8.000000
801,-8.000000
802,4.000000
803,4.000000
804,-32.000000
805,16.000000
806,4.000000
807,64.000000
808,12.000000
809,20.000000
810,24.000000
811,24.000000
812,32.000000
813,20.000000
814,24.000000
815,-60.000000
816,8.000000
817,16.000000
818,24.000000
819,-40.000000
820,8.000000
821,-64.000000
822,20.000000
823,0.000000
824,-4.000000
825,16.000000
826,-16.000000
827,0.000000
828,20.000000
829,-64.000000
830,20.000000
831,20.000000
832,-4.000000
833,24.000000
834,24.000000
835,0.000000
836,52.000000
837,-8.000000
838,76.000000
839,-4.000000
840,32.000000
841,-16.000000
842,-16.000000
843,-8.000000
844,-8.000000
845,-40.000000
846,-8.000000
847,0.000000
848,28.000000
849,32.000000
850,-52.000000
851,16.000000
852,4.000000
853,0.000000
854,-40.000000
855,-4.000000
856,56.000000
857,-44.000000
858,-16.000000
859,32.000000
860,-4.000000
861,-4.000000
862,-20.000000
863,0.000000
864,-16.000000
865,-12.000000
866,-24.000000
867,52.000000
868,-32.000000
869,-32.000000
870,-8.000000
871,-16.000000
872,88.000000
873,-20.000000
874,-32.000000
875,-32.000000
876,-28.000000
877,-24.000000
878,-20.000000
879,-12.000000
880,-24.000000
881,-40.000000
882,-32.000000
883,0.000000
884,-28.000000
885,-60.000000
886,4.000000
887,-4.000000
888,-20.000000
889,-8.000000
890,-20.000000
891,-24.000000
892,-24.000000
893,-28.000000
894,-28.000000
895,0.000000
896,0.000000
897,-72.000000
898,8.000000
899,-32.000000
900,4.000000
901,72.000000
902,-16.000000
903,-8.000000
904,0.000000
905,-8.000000
906,24.000000
907,-24.000000
908,-8.000000
909,20.000000
910,4.000000
911,0.000000
912,32.000000
913,-8.000000
914,4.000000
915,8.000000
916,-8.000000
917,-8.000000
918,44.000000
919,-20.000000
920,28.000000
921,-40.000000
922,-8.000000
923,-44.000000
924,44.000000
925,0.000000
926,-8.000000
927,0.000000
928,28.000000
929,56.000000
930,-12.000000
931,4.000000
932,0.000000
933,0.000000
934,12.000000
935,16.000000
936,-20.000000
937,12.000000
938,72.000000
939,-4.000000
940,-8.000000
941,-20.000000
942,-12.000000
943,20.000000
944,16.000000
945,-8.000000
946,24.000000
947,56.000000
948,-8.000000
949,12.000000
950,16.000000
951,-8.000000
952,-12.000000
953,0.000000
954,0.000000
955,-12.000000
956,0.000000
957,0.000000
958,0.000000
959,-8.000000
960,52.000000
961,-12.000000
962,-4.000000
963,-12.000000
964,44.000000
965,-12.000000
966,8.000000
967,8.000000
968,0.000000
969,4.000000
970,-60.000000
971,-24.000000
972,-32.000000
973,-48.000000
974,-20.000000
975,0.000000
976,-32.000000
977,-24.000000
978,-24.000000
979,-4.000000
980,0.000000
981,-52.000000
982,-8.000000
983,44.000000
984,-24.000000
985,-32.000000
986,-40.000000
987,-24.000000
988,-4.000000
989,-40.000000
990,-36.000000
991,-8.000000
992,-36.000000
993,-24.000000
994,16.000000
995,4.000000
996,0.000000
997,32.000000
998,24.000000
999,0.000000
1000,44.000000
1001,-12.000000
1002,20.000000
1003,16.000000
1004,-8.000000
1005,-32.000000
1006,0.000000
1007,20.000000
1008,-16.000000
1009,-12.000000
1010,64.000000
1011,0.000000
1012,16.000000
1013,-28.000000
1014,-16.000000
1015,-8.000000
1016,12.000000
1017,-8.000000
1018,4.000000
1019,-4.000000
1020,52.000000
1021,-24.000000
1022,0.000000
1023,16.000000
1024,-20.000000
1025,16.000000
1026,20.000000
1027,24.000000
1028,-24.000000
1029,8.000000
1030,-32.000000
1031,0.000000
1032,12.000000
1033,8.000000
1034,0.000000
1035,4.000000
1036,-28.000000
1037,-36.000000
1038,-8.000000
1039,-8.000000
1040,48.000000
1041,88.000000
1042,4.000000
1043,24.000000
1044,40.000000
1045,0.000000
1046,8.000000
1047,24.000000
1048,0.000000
1049,44.000000
1050,8.000000
1051,40.000000
1052,52.000000
1053,24.000000
1054,0.000000
1055,4.000000
1056,56.000000
1057,-8.000000
1058,4.000000
1059,-36.000000
1060,16.000000
1061,-24.000000
1062,44.000000
1063,4.000000
1064,0.000000
1065,-20.000000
1066,-12.000000
1067,-8.000000
1068,4.000000
1069,-48.000000
1070,0.000000
1071,0.000000
1072,4.000000
1073,-16.000000
1074,-52.000000
1075,24.000000
1076,-4.000000
1077,-24.000000
1078,-12.000000
1079,-40.000000
1080,-60.000000
1081,16.000000
1082,-44.000000
1083,-32.000000
1084,-8.000000
1085,24.000000
1086,-40.000000
1087,0.000000
1088,-20.000000
1089,-24.000000
1090,28.000000
1091,-28.000000
1092,-36.000000
1093,-4.000000
1094,-8.000000
1095,20.000000
1096,0.000000
1097,-16.000000
1098,-16.000000
1099,-16.000000
1100,-16.000000
1101,-40.000000
1102,12.000000
1103,-60.000000
1104,-28.000000
1105,-40.000000
1106,-4.000000
1107,-8.000000
1108,-32.000000
1109,0.000000
1110,12.000000
1111,-8.000000
1112,-8.000000
1113,-16.000000
1114,16.000000
1115,4.000000
1116,-8.000000
1117,-16.000000
1118,-8.000000
1119,-20.000000
1120,-28.000000
1121,-24.000000
1122,16.000000
1123,20.000000
1124,-64.000000
1125,-4.000000
1126,-8.000000
1127,-20.000000
1128,64.000000
1129,-4.000000
1130,-8.000000
1131,0.000000
1132,0.000000
1133,-8.000000
1134,-4.000000
1135,16.000000
1136,12.000000
1137,-24.000000
1138,24.000000
1139,-8.000000
1140,-24.000000
1141,16.000000
1142,-8.000000
1143,24.000000
1144,16.000000
1145,0.000000
1146,20.000000
1147,8.000000
1148,-32.000000
1149,-12.000000
1150,-4.000000
1151,16.000000
1152,-8.000000
1153,-60.000000
1154,4.000000
1155,52.000000
1156,-16.000000
1157,16.000000
1158,0.000000
1159,12.000000
1160,4.000000
1161,40.000000
1162,28.000000
1163,8.000000
1164,-40.000000
1165,-8.000000
1166,16.000000
1167,20.000000
1168,-8.000000
1169,-12.000000
1170,20.000000
1171,-4.000000
1172,4.000000
1173,52.000000
1174,8.000000
1175,-24.000000
1176,4.000000
1177,4.000000
1178,0.000000
1179,12.000000
1180,-8.000000
1181,0.000000
1182,8.000000
1183,0.000000
1184,20.000000
1185,0.000000
1186,8.000000
1187,8.000000
1188,8.000000
1189,-8.000000
1190,16.000000
1191,-8.000000
1192,-8.000000
1193,20.000000
1194,16.000000
1195,24.000000
1196,-4.000000
1197,8.000000
1198,8.000000
1199,-8.000000
1200,-4.000000
1201,-8.000000
1202,20.000000
1203,8.000000
1204,-40.000000
1205,-8.000000
1206,-12.000000
1207,-12.000000
1208,12.000000
1209,-24.000000
1210,28.000000
1211,16.000000
1212,-52.000000
1213,32.000000
1214,4.000000
1215,-16.000000
1216,-24.000000
1217,20.000000
1218,20.000000
1219,20.000000
1220,0.000000
1221,-8.000000
1222,-8.000000
1223,4.000000
1224,16.000000
1225,-8.000000
1226,28.000000
1227,-28.000000
1228,-12.000000
1229,4.000000
1230,-8.000000
1231,-24.000000
1232,-8.000000
1233,0.000000
1234,-20.000000
1235,-8.000000
1236,16.000000
1237,-12.000000
1238,-32.000000
1239,-16.000000
1240,16.000000
1241,4.000000
1242,-40.000000
1243,20.000000
1244,-40.000000
1245,44.000000
1246,16.000000
1247,-28.000000
1248,-24.000000
1249,16.000000
1250,16.000000
1251,-16.000000
1252,-20.000000
1253,-28.000000
1254,-28.000000
1255,-8.000000
1256,-8.000000
1257,-28.000000
1258,-28.000000
1259,40.000000
1260,12.000000
1261,-8.000000
1262,-24.000000
1263,-28.000000
1264,-32.000000
1265,-8.000000
1266,-12.000000
1267,0.000000
1268,-8.000000
1269,-4.000000
1270,-12.000000
1271,-16.000000
1272,-16.000000
1273,4.000000
1274,20.000000
1275,68.000000
1276,64.000000
1277,-60.000000
1278,-16.000000
1279,4.000000
1280,-8.000000
1281,-20.000000
1282,-44.000000
1283,-8.000000
1284,4.000000
1285,-8.000000
1286,8.000000
1287,8.000000
1288,0.000000
1289,132.000000
1290,0.000000
1291,0.000000
1292,-8.000000
1293,0.000000
1294,4.000000
1295,-8.000000
1296,8.000000
1297,24.000000
1298,-8.000000
1299,8.000000
1300,-16.000000
1301,32.000000
1302,-28.000000
1303,-4.000000
1304,20.000000
1305,28.000000
1306,-12.000000
1307,-8.000000
1308,-8.000000
1309,44.000000
1310,-8.000000
1311,20.000000
1312,-4.000000
1313,-20.000000
1314,0.000000
1315,8.000000
1316,8.000000
1317,32.000000
1318,4.000000
1319,8.000000
1320,-28.000000
1321,-20.000000
1322,16.000000
1323,20.000000
1324,0.000000
1325,12.000000
1326,-4.000000
1327,40.000000
1328,12.000000
1329,4.000000
1330,8.000000
1331,36.000000
1332,-20.000000
1333,0.000000
1334,-8.000000
1335,-8.000000
1336,-24.000000
1337,-24.000000
1338,-16.000000
1339,-8.000000
1340,64.000000
1341,12.000000
1342,16.000000
1343,-20.000000
1344,-40.000000
1345,12.000000
1346,-52.000000
1347,-40.000000
1348,-36.000000
1349,-32.000000
1350,-12.000000
1351,-28.000000
1352,16.000000
1353,-8.000000
1354,0.000000
1355,-24.000000
1356,-24.000000
1357,8.000000
1358,-28.000000
1359,-36.000000
1360,20.000000
1361,-4.000000
1362,-12.000000
1363,-16.000000
1364,8.000000
1365,24.000000
1366,-28.000000
1367,0.000000
1368,-24.000000
1369,-24.000000
1370,8.000000
1371,-20.000000
1372,-28.000000
1373,-28.000000
1374,-60.000000
1375,12.000000
1376,-32.000000
1377,-36.000000
1378,-8.000000
1379,-28.000000
1380,16.000000
