docs/evidence/raw/2026-09-07/data_20_011off.csv

Channel              :,CH1
Frequency            :,  ?
Period               :,  ?
PK-PK                :,232.0mV
Probe attenuation    :,1X
Voltage per ADC value:,0.250000mV
Time interval        :,100.00000us

index,CH1_Voltage(mV)
1,-8.000000
2,-8.000000
3,-16.000000
4,-16.000000
5,-60.000000
6,-12.000000
7,-12.000000
8,20.000000
9,16.000000
10,24.000000
11,8.000000
12,12.000000
13,4.000000
14,20.000000
15,28.000000
16,-20.000000
17,0.000000
18,4.000000
19,-32.000000
20,28.000000
21,20.000000
22,44.000000
23,-68.000000
24,-36.000000
25,-24.000000
26,20.000000
27,-8.000000
28,-8.000000
29,68.000000
30,-8.000000
31,8.000000
32,0.000000
33,-60.000000
34,-32.000000
35,-60.000000
36,24.000000
37,-20.000000
38,-8.000000
39,0.000000
40,44.000000
41,4.000000
42,-20.000000
43,-8.000000
44,0.000000
45,-12.000000
46,-16.000000
47,24.000000
48,4.000000
49,20.000000
50,-20.000000
51,4.000000
52,8.000000
53,-16.000000
54,16.000000
55,-24.000000
56,-8.000000
57,-20.000000
58,40.000000
59,28.000000
60,-8.000000
61,-28.000000
62,-24.000000
63,16.000000
64,0.000000
65,0.000000
66,0.000000
67,-4.000000
68,0.000000
69,-44.000000
70,28.000000
71,12.000000
72,-8.000000
73,4.000000
74,-20.000000
75,20.000000
76,-24.000000
77,0.000000
78,-8.000000
79,0.000000
80,16.000000
81,0.000000
82,-8.000000
83,-12.000000
84,-20.000000
85,4.000000
86,-36.000000
87,-8.000000
88,24.000000
89,-8.000000
90,-24.000000
91,-52.000000
92,-20.000000
93,12.000000
94,-16.000000
95,-52.000000
96,-40.000000
97,0.000000
98,-48.000000
99,-12.000000
100,16.000000
101,-36.000000
102,-84.000000
103,-12.000000
104,-12.000000
105,84.000000
106,0.000000
107,-8.000000
108,-12.000000
109,-8.000000
110,8.000000
111,-12.000000
112,-16.000000
113,20.000000
114,44.000000
115,-8.000000
116,-8.000000
117,12.000000
118,4.000000
119,-8.000000
120,44.000000
121,52.000000
122,0.000000
123,-8.000000
124,-32.000000
125,-12.000000
126,-12.000000
127,0.000000
128,-68.000000
129,12.000000
130,-32.000000
131,4.000000
132,44.000000
133,0.000000
134,8.000000
135,0.000000
136,-40.000000
137,-44.000000
138,-16.000000
139,-32.000000
140,4.000000
141,0.000000
142,-24.000000
143,-12.000000
144,-4.000000
145,-28.000000
146,-4.000000
147,-8.000000
148,40.000000
149,8.000000
150,8.000000
151,-24.000000
152,-60.000000
153,24.000000
154,0.000000
155,-12.000000
156,-12.000000
157,-8.000000
158,56.000000
159,4.000000
160,-28.000000
161,-44.000000
162,-8.000000
163,-12.000000
164,-4.000000
165,-12.000000
166,4.000000
167,-12.000000
168,-20.000000
169,24.000000
170,16.000000
171,-4.000000
172,0.000000
173,-28.000000
174,8.000000
175,-8.000000
176,-32.000000
177,0.000000
178,0.000000
179,4.000000
180,-8.000000
181,52.000000
182,64.000000
183,-12.000000
184,16.000000
185,76.000000
186,44.000000
187,-8.000000
188,-4.000000
189,4.000000
190,0.000000
191,4.000000
192,12.000000
193,12.000000
194,-16.000000
195,12.000000
196,-52.000000
197,-8.000000
198,0.000000
199,16.000000
200,32.000000
201,-4.000000
202,64.000000
203,16.000000
204,-20.000000
205,-32.000000
206,-8.000000
207,-20.000000
208,64.000000
209,-4.000000
210,-4.000000
211,-20.000000
212,-16.000000
213,-24.000000
214,-8.000000
215,-32.000000
216,-8.000000
217,-40.000000
218,-16.000000
219,-12.000000
220,-12.000000
221,-32.000000
222,12.000000
223,-16.000000
224,-16.000000
225,0.000000
226,-16.000000
227,0.000000
228,0.000000
229,0.000000
230,16.000000
231,-8.000000
232,-20.000000
233,24.000000
234,16.000000
235,-20.000000
236,64.000000
237,24.000000
238,-8.000000
239,16.000000
240,8.000000
241,4.000000
242,4.000000
243,-24.000000
244,28.000000
245,24.000000
246,-24.000000
247,44.000000
248,-20.000000
249,-8.000000
250,0.000000
251,-40.000000
252,-24.000000
253,4.000000
254,0.000000
255,0.000000
256,-8.000000
257,20.000000
258,-4.000000
259,-12.000000
260,52.000000
261,-32.000000
262,8.000000
263,-28.000000
264,-24.000000
265,24.000000
266,-12.000000
267,0.000000
268,48.000000
269,-28.000000
270,20.000000
271,-20.000000
272,0.000000
273,0.000000
274,8.000000
275,-16.000000
276,12.000000
277,12.000000
278,16.000000
279,32.000000
280,32.000000
281,44.000000
282,-4.000000
283,52.000000
284,-4.000000
285,-36.000000
286,4.000000
287,-24.000000
288,8.000000
289,-16.000000
290,44.000000
291,-8.000000
292,12.000000
293,-24.000000
294,-8.000000
295,-32.000000
296,-16.000000
297,52.000000
298,-16.000000
299,-12.000000
300,-20.000000
301,24.000000
302,4.000000
303,16.000000
304,-8.000000
305,0.000000
306,16.000000
307,-32.000000
308,-12.000000
309,-4.000000
310,-12.000000
311,24.000000
312,16.000000
313,4.000000
314,0.000000
315,-8.000000
316,-16.000000
317,-12.000000
318,-24.000000
319,-20.000000
320,-8.000000
321,0.000000
322,20.000000
323,-16.000000
324,-16.000000
325,8.000000
326,-12.000000
327,-20.000000
328,64.000000
329,16.000000
330,16.000000
331,-8.000000
332,-8.000000
333,0.000000
334,0.000000
335,4.000000
336,-100.000000
337,8.000000
338,8.000000
339,-4.000000
340,-24.000000
341,12.000000
342,16.000000
343,56.000000
344,-24.000000
345,-12.000000
346,12.000000
347,-76.000000
348,-20.000000
349,-28.000000
350,48.000000
351,-24.000000
352,24.000000
353,44.000000
354,-16.000000
355,8.000000
356,52.000000
357,16.000000
358,84.000000
359,-12.000000
360,28.000000
361,4.000000
362,12.000000
363,12.000000
364,32.000000
365,-20.000000
366,-28.000000
367,-20.000000
368,-12.000000
369,4.000000
370,-8.000000
371,0.000000
372,0.000000
373,4.000000
374,36.000000
375,28.000000
376,-20.000000
377,-44.000000
378,4.000000
379,24.000000
380,0.000000
381,28.000000
382,16.000000
383,8.000000
384,-32.000000
385,-8.000000
386,0.000000
387,60.000000
388,8.000000
389,28.000000
390,-8.000000
391,-20.000000
392,-12.000000
393,4.000000
394,0.000000
395,-24.000000
396,4.000000
397,-4.000000
398,100.000000
399,8.000000
400,-8.000000
401,-24.000000
402,-12.000000
403,40.000000
404,-8.000000
405,12.000000
406,0.000000
407,76.000000
408,12.000000
409,-12.000000
410,16.000000
411,-32.000000
412,16.000000
413,-20.000000
414,-8.000000
415,-8.000000
416,-12.000000
417,0.000000
418,12.000000
419,-16.000000
420,-12.000000
421,-8.000000
422,-4.000000
423,-12.000000
424,20.000000
425,8.000000
426,-4.000000
427,-68.000000
428,8.000000
429,-56.000000
430,24.000000
431,-8.000000
432,-12.000000
433,-16.000000
434,4.000000
435,-24.000000
436,-28.000000
437,44.000000
438,-20.000000
439,-4.000000
440,-8.000000
441,-8.000000
442,-48.000000
443,-20.000000
444,8.000000
445,28.000000
446,-44.000000
447,12.000000
448,0.000000
449,-28.000000
450,-20.000000
451,4.000000
452,-24.000000
453,16.000000
454,-4.000000
455,-12.000000
456,-16.000000
457,12.000000
458,-40.000000
459,-16.000000
460,-4.000000
461,-32.000000
462,4.000000
463,-8.000000
464,-40.000000
465,12.000000
466,-20.000000
467,-32.000000
468,20.000000
469,-20.000000
470,-24.000000
471,16.000000
472,0.000000
473,-20.000000
474,12.000000
475,20.000000
476,16.000000
477,-32.000000
478,0.000000
479,12.000000
480,-8.000000
481,-24.000000
482,12.000000
483,28.000000
484,4.000000
485,-12.000000
486,16.000000
487,-24.000000
488,-12.000000
489,4.000000
490,4.000000
491,8.000000
492,-12.000000
493,-4.000000
494,4.000000
495,8.000000
496,0.000000
497,-20.000000
498,-8.000000
499,-16.000000
500,-56.000000
501,-28.000000
502,-20.000000
503,0.000000
504,-8.000000
505,-24.000000
506,0.000000
507,0.000000
508,8.000000
509,-16.000000
510,0.000000
511,-16.000000
512,-64.000000
513,-8.000000
514,0.000000
515,4.000000
516,-24.000000
517,16.000000
518,52.000000
519,-20.000000
520,0.000000
521,-8.000000
522,-8.000000
523,20.000000
524,64.000000
525,12.000000
526,0.000000
527,0.000000
528,-20.000000
529,8.000000
530,4.000000
531,-8.000000
532,-16.000000
533,-24.000000
534,0.000000
535,-40.000000
536,20.000000
537,4.000000
538,-24.000000
539,-12.000000
540,-8.000000
541,16.000000
542,-20.000000
543,16.000000
544,12.000000
545,-36.000000
546,16.000000
547,-24.000000
548,-4.000000
549,24.000000
550,-76.000000
551,4.000000
552,0.000000
553,-4.000000
554,-32.000000
555,-4.000000
556,-8.000000
557,-8.000000
558,-4.000000
559,72.000000
560,-4.000000
561,-20.000000
562,-40.000000
563,8.000000
564,4.000000
565,-8.000000
566,52.000000
567,8.000000
568,0.000000
569,-20.000000
570,-12.000000
571,-24.000000
572,0.000000
573,-8.000000
574,-4.000000
575,-12.000000
576,8.000000
577,12.000000
578,-24.000000
579,0.000000
580,-8.000000
581,-40.000000
582,-16.000000
583,-28.000000
584,-28.000000
585,28.000000
586,-8.000000
587,-8.000000
588,-20.000000
589,-12.000000
590,4.000000
591,8.000000
592,-4.000000
593,28.000000
594,44.000000
595,4.000000
596,-8.000000
597,44.000000
598,20.000000
599,4.000000
600,44.000000
601,4.000000
602,4.000000
603,-32.000000
604,4.000000
605,-8.000000
606,12.000000
607,20.000000
608,-28.000000
609,-20.000000
610,-20.000000
611,16.000000
612,-24.000000
613,12.000000
614,-16.000000
615,0.000000
616,-24.000000
617,-12.000000
618,44.000000
619,4.000000
620,4.000000
621,12.000000
622,16.000000
623,-8.000000
624,16.000000
625,-8.000000
626,-12.000000
627,-8.000000
628,20.000000
629,8.000000
630,0.000000
631,8.000000
632,4.000000
633,0.000000
634,-28.000000
635,0.000000
636,40.000000
637,12.000000
638,12.000000
639,0.000000
640,4.000000
641,16.000000
642,12.000000
643,-44.000000
644,24.000000
645,8.000000
646,52.000000
647,-24.000000
648,44.000000
649,-28.000000
650,28.000000
651,24.000000
652,28.000000
653,16.000000
654,52.000000
655,20.000000
656,0.000000
657,16.000000
658,-24.000000
659,52.000000
660,52.000000
661,12.000000
662,-28.000000
663,16.000000
664,24.000000
665,-4.000000
666,-28.000000
667,-36.000000
668,-60.000000
669,0.000000
670,-32.000000
671,0.000000
672,8.000000
673,44.000000
674,40.000000
675,0.000000
676,-16.000000
677,-20.000000
678,60.000000
679,16.000000
680,-12.000000
681,72.000000
682,-4.000000
683,12.000000
684,40.000000
685,32.000000
686,8.000000
687,24.000000
688,-12.000000
689,0.000000
690,0.000000
691,16.000000
692,0.000000
693,-12.000000
694,-24.000000
695,12.000000
696,32.000000
697,12.000000
698,72.000000
699,-12.000000
700,4.000000
701,-12.000000
702,-32.000000
703,0.000000
704,0.000000
705,24.000000
706,-16.000000
707,8.000000
708,8.000000
709,-44.000000
710,16.000000
711,8.000000
712,12.000000
713,0.000000
714,0.000000
715,-40.000000
716,20.000000
717,40.000000
718,8.000000
719,44.000000
720,28.000000
721,-24.000000
722,-36.000000
723,-28.000000
724,8.000000
725,-12.000000
726,4.000000
727,-8.000000
728,4.000000
729,28.000000
730,-28.000000
731,16.000000
732,20.000000
733,28.000000
734,-20.000000
735,16.000000
736,-28.000000
737,8.000000
738,-16.000000
739,-8.000000
740,0.000000
741,-56.000000
742,-16.000000
743,-12.000000
744,-4.000000
745,12.000000
746,4.000000
747,8.000000
748,-12.000000
749,-52.000000
750,52.000000
751,0.000000
752,40.000000
753,20.000000
754,-108.000000
755,-8.000000
756,0.000000
757,44.000000
758,-12.000000
759,-8.000000
760,44.000000
761,24.000000
762,12.000000
763,16.000000
764,-24.000000
765,-12.000000
766,20.000000
767,20.000000
768,-28.000000
769,24.000000
770,-8.000000
771,16.000000
772,52.000000
773,-44.000000
774,32.000000
775,28.000000
776,-20.000000
777,-4.000000
778,24.000000
779,-8.000000
780,0.000000
781,-8.000000
782,-28.000000
783,72.000000
784,-8.000000
785,-36.000000
786,-4.000000
787,8.000000
788,-16.000000
789,-36.000000
790,4.000000
791,-36.000000
792,0.000000
793,-8.000000
794,-12.000000
795,12.000000
796,8.000000
797,32.000000
798,-32.000000
799,-12.000000
800,8.000000
801,-16.000000
802,-20.000000
803,-8.000000
804,-8.000000
805,12.000000
806,-28.000000
807,-12.000000
808,-20.000000
809,-8.000000
810,44.000000
811,0.000000
812,-20.000000
813,-8.000000
814,-36.000000
815,0.000000
816,12.000000
817,16.000000
818,20.000000
819,-16.000000
820,-24.000000
821,20.000000
822,12.000000
823,-8.000000
824,-8.000000
825,0.000000
826,0.000000
827,16.000000
828,-12.000000
829,-100.000000
830,12.000000
831,-12.000000
832,16.000000
833,60.000000
834,24.000000
835,-8.000000
836,-16.000000
837,12.000000
838,-4.000000
839,40.000000
840,-8.000000
841,0.000000
842,4.000000
843,16.000000
844,32.000000
845,28.000000
846,0.000000
847,24.000000
848,4.000000
849,16.000000
850,8.000000
851,-8.000000
852,-36.000000
853,4.000000
854,44.000000
855,-24.000000
856,-24.000000
857,88.000000
858,-8.000000
859,-24.000000
860,12.000000
861,16.000000
862,-8.000000
863,24.000000
864,4.000000
865,-16.000000
866,-44.000000
867,8.000000
868,4.000000
869,16.000000
870,-8.000000
871,-4.000000
872,24.000000
873,-8.000000
874,12.000000
875,4.000000
876,-28.000000
877,24.000000
878,-24.000000
879,-8.000000
880,-40.000000
881,8.000000
882,0.000000
883,28.000000
884,-12.000000
885,-40.000000
886,-20.000000
887,4.000000
888,-8.000000
889,16.000000
890,-16.000000
891,-16.000000
892,-20.000000
893,12.000000
894,-16.000000
895,-24.000000
896,-32.000000
897,-8.000000
898,-32.000000
899,-12.000000
900,4.000000
901,8.000000
902,24.000000
903,76.000000
904,-4.000000
905,-12.000000
906,16.000000
907,-32.000000
908,-20.000000
909,0.000000
910,0.000000
911,0.000000
912,24.000000
913,-28.000000
914,-20.000000
915,-8.000000
916,68.000000
917,4.000000
918,-8.000000
919,24.000000
920,0.000000
921,12.000000
922,-72.000000
923,24.000000
924,16.000000
925,-32.000000
926,0.000000
927,16.000000
928,-40.000000
929,0.000000
930,4.000000
931,28.000000
932,-4.000000
933,0.000000
934,28.000000
935,-16.000000
936,-16.000000
937,44.000000
938,56.000000
939,8.000000
940,32.000000
941,-8.000000
942,12.000000
943,32.000000
944,-20.000000
945,48.000000
946,12.000000
947,-8.000000
948,-4.000000
949,0.000000
950,0.000000
951,-8.000000
952,-8.000000
953,-8.000000
954,0.000000
955,8.000000
956,-32.000000
957,-44.000000
958,-36.000000
959,0.000000
960,-24.000000
961,-8.000000
962,-8.000000
963,12.000000
964,-4.000000
965,0.000000
966,-4.000000
967,-20.000000
968,-20.000000
969,4.000000
970,16.000000
971,8.000000
972,-16.000000
973,24.000000
974,4.000000
975,4.000000
976,32.000000
977,12.000000
978,-16.000000
979,-8.000000
980,12.000000
981,-8.000000
982,-8.000000
983,-24.000000
984,-24.000000
985,-36.000000
986,0.000000
987,0.000000
988,0.000000
989,24.000000
990,16.000000
991,0.000000
992,8.000000
993,0.000000
994,-20.000000
995,0.000000
996,24.000000
997,12.000000
998,16.000000
999,4.000000
1000,4.000000
1001,-76.000000
1002,4.000000
1003,44.000000
1004,-12.000000
1005,-40.000000
1006,108.000000
1007,-32.000000
1008,-20.000000
1009,-16.000000
1010,24.000000
1011,28.000000
1012,0.000000
1013,-64.000000
1014,0.000000
1015,-28.000000
1016,16.000000
1017,40.000000
1018,0.000000
1019,12.000000
1020,-8.000000
1021,0.000000
1022,0.000000
1023,24.000000
1024,-32.000000
1025,-28.000000
1026,16.000000
1027,-4.000000
1028,40.000000
1029,-8.000000
1030,-28.000000
1031,12.000000
1032,12.000000
1033,0.000000
1034,0.000000
1035,-8.000000
1036,-8.000000
1037,-12.000000
1038,8.000000
1039,-20.000000
1040,0.000000
1041,-20.000000
1042,-8.000000
1043,-12.000000
1044,60.000000
1045,-44.000000
1046,32.000000
1047,-16.000000
1048,-20.000000
1049,12.000000
1050,-24.000000
1051,16.000000
1052,-24.000000
1053,-4.000000
1054,-8.000000
1055,4.000000
1056,-8.000000
1057,8.000000
1058,24.000000
1059,-4.000000
1060,-20.000000
1061,52.000000
1062,-120.000000
1063,0.000000
1064,-32.000000
1065,-8.000000
1066,-8.000000
1067,16.000000
1068,-8.000000
1069,-12.000000
1070,28.000000
1071,8.000000
1072,0.000000
1073,-8.000000
1074,-12.000000
1075,-4.000000
1076,0.000000
1077,4.000000
1078,4.000000
1079,0.000000
1080,-52.000000
1081,20.000000
1082,16.000000
1083,-20.000000
1084,28.000000
1085,8.000000
1086,-36.000000
1087,-8.000000
1088,12.000000
1089,-12.000000
1090,12.000000
1091,-8.000000
1092,4.000000
1093,-8.000000
1094,-8.000000
1095,0.000000
1096,-44.000000
1097,0.000000
1098,64.000000
1099,4.000000
1100,24.000000
1101,44.000000
1102,8.000000
1103,0.000000
1104,0.000000
1105,-24.000000
1106,-4.000000
1107,-44.000000
1108,0.000000
1109,24.000000
1110,16.000000
1111,60.000000
1112,12.000000
1113,-24.000000
1114,-24.000000
1115,-12.000000
1116,4.000000
1117,-16.000000
1118,-8.000000
1119,-32.000000
1120,8.000000
1121,-28.000000
1122,-28.000000
1123,-20.000000
1124,-8.000000
1125,12.000000
1126,4.000000
1127,-20.000000
1128,-56.000000
1129,16.000000
1130,-12.000000
1131,-20.000000
1132,-24.000000
1133,-4.000000
1134,24.000000
1135,44.000000
1136,4.000000
1137,8.000000
1138,-12.000000
1139,-28.000000
1140,-24.000000
1141,-8.000000
1142,-4.000000
1143,-36.000000
1144,-36.000000
1145,-8.000000
1146,52.000000
1147,-8.000000
1148,4.000000
1149,-40.000000
1150,-16.000000
1151,-20.000000
1152,-8.000000
1153,64.000000
1154,-20.000000
1155,-36.000000
1156,-36.000000
1157,-8.000000
1158,-40.000000
1159,-8.000000
1160,-16.000000
1161,-36.000000
1162,-28.000000
1163,68.000000
1164,-4.000000
1165,-12.000000
1166,-24.000000
1167,-20.000000
1168,-20.000000
1169,8.000000
1170,4.000000
1171,40.000000
1172,-8.000000
1173,-12.000000
1174,0.000000
1175,-8.000000
1176,-4.000000
1177,-16.000000
1178,0.000000
1179,-8.000000
1180,-8.000000
1181,-12.000000
1182,24.000000
1183,36.000000
1184,24.000000
1185,0.000000
1186,0.000000
1187,0.000000
1188,12.000000
1189,68.000000
1190,-4.000000
1191,8.000000
1192,16.000000
1193,-12.000000
1194,4.000000
1195,-16.000000
1196,-8.000000
1197,8.000000
1198,-20.000000
1199,24.000000
1200,-8.000000
1201,44.000000
1202,-4.000000
1203,16.000000
1204,-16.000000
1205,44.000000
1206,-20.000000
1207,-12.000000
1208,-56.000000
1209,-16.000000
1210,64.000000
1211,20.000000
1212,-12.000000
1213,-8.000000
1214,-4.000000
1215,-44.000000
1216,52.000000
1217,16.000000
1218,-16.000000
1219,-16.000000
1220,52.000000
1221,-8.000000
1222,0.000000
1223,24.000000
1224,-8.000000
1225,-16.000000
1226,-16.000000
1227,-56.000000
1228,-36.000000
1229,44.000000
1230,-16.000000
1231,12.000000
1232,-8.000000
1233,-16.000000
1234,-12.000000
1235,-32.000000
1236,-32.000000
1237,-20.000000
1238,16.000000
1239,0.000000
1240,-16.000000
1241,-8.000000
1242,20.000000
1243,-8.000000
1244,-20.000000
1245,-16.000000
1246,-16.000000
1247,-20.000000
1248,-8.000000
1249,16.000000
1250,-8.000000
1251,64.000000
1252,-16.000000
1253,-28.000000
1254,0.000000
1255,-12.000000
1256,0.000000
1257,-40.000000
1258,44.000000
1259,12.000000
1260,12.000000
1261,-8.000000
1262,-8.000000
1263,52.000000
1264,28.000000
1265,-4.000000
1266,0.000000
1267,-32.000000
1268,12.000000
1269,0.000000
1270,28.000000
1271,-24.000000
1272,-8.000000
1273,4.000000
1274,8.000000
1275,24.000000
1276,44.000000
1277,-4.000000
1278,-32.000000
1279,-20.000000
1280,16.000000
1281,-8.000000
1282,-8.000000
1283,-24.000000
1284,4.000000
1285,56.000000
1286,24.000000
1287,-4.000000
1288,-16.000000
1289,-8.000000
1290,-40.000000
1291,8.000000
1292,-12.000000
1293,-24.000000
1294,4.000000
1295,-12.000000
1296,-8.000000
1297,4.000000
1298,-36.000000
1299,-32.000000
1300,20.000000
1301,-28.000000
1302,-20.000000
1303,-40.000000
1304,-8.000000
1305,-36.000000
1306,-16.000000
1307,-24.000000
1308,-52.000000
1309,8.000000
1310,-28.000000
1311,-12.000000
1312,-20.000000
1313,-4.000000
1314,12.000000
1315,-8.000000
1316,28.000000
1317,-8.000000
1318,52.000000
1319,-12.000000
1320,16.000000
1321,12.000000
1322,12.000000
1323,8.000000
1324,-24.000000
1325,20.000000
1326,0.000000
1327,-16.000000
1328,0.000000
1329,-28.000000
1330,20.000000
1331,-8.000000
1332,52.000000
1333,76.000000
1334,-20.000000
1335,4.000000
1336,4.000000
1337,-20.000000
1338,20.000000
1339,0.000000
1340,32.000000
1341,-8.000000
1342,12.000000
1343,16.000000
1344,20.000000
1345,-20.000000
1346,0.000000
1347,-36.000000
1348,12.000000
1349,0.000000
1350,-16.000000
1351,0.000000
1352,16.000000
1353,-8.000000
1354,16.000000
1355,8.000000
1356,24.000000
1357,0.000000
1358,0.000000
1359,68.000000
1360,0.000000
1361,-12.000000
1362,72.000000
1363,12.000000
1364,4.000000
1365,-4.000000
1366,24.000000
1367,-12.000000
1368,-8.000000
1369,0.000000
1370,16.000000
1371,-8.000000
1372,12.000000
1373,-44.000000
1374,24.000000
1375,20.000000
1376,-36.000000
1377,4.000000
1378,0.000000
1379,-8.000000
1380,-24.000000
