docs/evidence/raw/2026-09-07/data_20_007.csv

Channel              :,CH1
Frequency            :,  ?
Period               :,  ?
PK-PK                :,240.0mV
Probe attenuation    :,1X
Voltage per ADC value:,0.250000mV
Time interval        :,100.00000us

index,CH1_Voltage(mV)
1,60.000000
2,60.000000
3,-8.000000
4,-24.000000
5,-28.000000
6,-8.000000
7,24.000000
8,-40.000000
9,56.000000
10,52.000000
11,-48.000000
12,-12.000000
13,-16.000000
14,-8.000000
15,4.000000
16,-12.000000
17,0.000000
18,-36.000000
19,-16.000000
20,0.000000
21,8.000000
22,-12.000000
23,12.000000
24,20.000000
25,20.000000
26,-16.000000
27,12.000000
28,-16.000000
29,8.000000
30,20.000000
31,8.000000
32,36.000000
33,12.000000
34,-4.000000
35,-16.000000
36,12.000000
37,-4.000000
38,-12.000000
39,-12.000000
40,-48.000000
41,-16.000000
42,-20.000000
43,-8.000000
44,-24.000000
45,4.000000
46,68.000000
47,-36.000000
48,60.000000
49,-12.000000
50,16.000000
51,-40.000000
52,8.000000
53,-12.000000
54,-44.000000
55,-24.000000
56,32.000000
57,-24.000000
58,-48.000000
59,-4.000000
60,0.000000
61,28.000000
62,0.000000
63,4.000000
64,0.000000
65,16.000000
66,-4.000000
67,20.000000
68,28.000000
69,24.000000
70,-8.000000
71,8.000000
72,-20.000000
73,0.000000
74,16.000000
75,-8.000000
76,-20.000000
77,-12.000000
78,-36.000000
79,4.000000
80,24.000000
81,24.000000
82,24.000000
83,40.000000
84,20.000000
85,72.000000
86,-16.000000
87,-16.000000
88,-16.000000
89,-16.000000
90,16.000000
91,-8.000000
92,-16.000000
93,-8.000000
94,12.000000
95,20.000000
96,52.000000
97,44.000000
98,4.000000
99,-20.000000
100,-20.000000
101,-16.000000
102,-20.000000
103,-20.000000
104,68.000000
105,-16.000000
106,-8.000000
107,-20.000000
108,-4.000000
109,-60.000000
110,56.000000
111,16.000000
112,-8.000000
113,-24.000000
114,24.000000
115,0.000000
116,52.000000
117,76.000000
118,-32.000000
119,-8.000000
120,4.000000
121,-8.000000
122,-28.000000
123,8.000000
124,-32.000000
125,-48.000000
126,-32.000000
127,12.000000
128,-20.000000
129,-72.000000
130,-36.000000
131,28.000000
132,-12.000000
133,-8.000000
134,-28.000000
135,8.000000
136,12.000000
137,12.000000
138,-32.000000
139,0.000000
140,-36.000000
141,8.000000
142,-8.000000
143,0.000000
144,-12.000000
145,0.000000
146,-48.000000
147,-48.000000
148,-8.000000
149,-16.000000
150,-12.000000
151,0.000000
152,4.000000
153,-44.000000
154,20.000000
155,-12.000000
156,-24.000000
157,-8.000000
158,8.000000
159,-12.000000
160,-4.000000
161,-24.000000
162,-8.000000
163,-12.000000
164,12.000000
165,0.000000
166,16.000000
167,-12.000000
168,-4.000000
169,0.000000
170,-32.000000
171,-12.000000
172,-64.000000
173,4.000000
174,-8.000000
175,-88.000000
176,12.000000
177,-32.000000
178,20.000000
179,-48.000000
180,12.000000
181,28.000000
182,24.000000
183,-8.000000
184,-28.000000
185,-4.000000
186,-24.000000
187,8.000000
188,-16.000000
189,-20.000000
190,-20.000000
191,8.000000
192,-16.000000
193,-16.000000
194,-32.000000
195,28.000000
196,4.000000
197,-28.000000
198,20.000000
199,-40.000000
200,-36.000000
201,-12.000000
202,0.000000
203,-12.000000
204,32.000000
205,32.000000
206,-8.000000
207,-12.000000
208,-16.000000
209,-20.000000
210,-8.000000
211,-24.000000
212,-4.000000
213,-32.000000
214,-32.000000
215,24.000000
216,32.000000
217,-20.000000
218,20.000000
219,24.000000
220,-28.000000
221,-32.000000
222,-60.000000
223,8.000000
224,4.000000
225,44.000000
226,44.000000
227,-44.000000
228,-12.000000
229,60.000000
230,-8.000000
231,0.000000
232,0.000000
233,4.000000
234,4.000000
235,-12.000000
236,-28.000000
237,12.000000
238,-20.000000
239,60.000000
240,12.000000
241,12.000000
242,-8.000000
243,-4.000000
244,-4.000000
245,28.000000
246,0.000000
247,4.000000
248,-16.000000
249,4.000000
250,28.000000
251,-8.000000
252,16.000000
253,20.000000
254,-24.000000
255,-8.000000
256,-16.000000
257,-8.000000
258,-8.000000
259,-16.000000
260,24.000000
261,-4.000000
262,8.000000
263,0.000000
264,4.000000
265,0.000000
266,-44.000000
267,32.000000
268,-4.000000
269,-4.000000
270,52.000000
271,-12.000000
272,-8.000000
273,-24.000000
274,4.000000
275,4.000000
276,-20.000000
277,16.000000
278,-8.000000
279,-4.000000
280,-8.000000
281,-8.000000
282,8.000000
283,8.000000
284,-12.000000
285,8.000000
286,4.000000
287,56.000000
288,-52.000000
289,-20.000000
290,24.000000
291,52.000000
292,0.000000
293,40.000000
294,0.000000
295,-8.000000
296,44.000000
297,4.000000
298,-8.000000
299,4.000000
300,-24.000000
301,-32.000000
302,0.000000
303,4.000000
304,-24.000000
305,-8.000000
306,-4.000000
307,-12.000000
308,-8.000000
309,-8.000000
310,-28.000000
311,-28.000000
312,24.000000
313,20.000000
314,20.000000
315,16.000000
316,4.000000
317,12.000000
318,-36.000000
319,52.000000
320,12.000000
321,8.000000
322,0.000000
323,-24.000000
324,-16.000000
325,-32.000000
326,0.000000
327,24.000000
328,16.000000
329,-16.000000
330,24.000000
331,12.000000
332,8.000000
333,12.000000
334,-20.000000
335,0.000000
336,-24.000000
337,-8.000000
338,-28.000000
339,0.000000
340,-4.000000
341,0.000000
342,-16.000000
343,52.000000
344,-24.000000
345,8.000000
346,-24.000000
347,4.000000
348,-32.000000
349,-4.000000
350,4.000000
351,-4.000000
352,4.000000
353,-8.000000
354,-16.000000
355,44.000000
356,4.000000
357,-8.000000
358,0.000000
359,4.000000
360,24.000000
361,-8.000000
362,16.000000
363,0.000000
364,-24.000000
365,0.000000
366,-4.000000
367,16.000000
368,-12.000000
369,76.000000
370,24.000000
371,-20.000000
372,-20.000000
373,8.000000
374,-12.000000
375,-12.000000
376,0.000000
377,-8.000000
378,32.000000
379,4.000000
380,44.000000
381,-28.000000
382,-20.000000
383,68.000000
384,56.000000
385,4.000000
386,-8.000000
387,20.000000
388,-20.000000
389,-20.000000
390,-32.000000
391,-16.000000
392,-8.000000
393,16.000000
394,20.000000
395,-24.000000
396,-16.000000
397,-12.000000
398,-56.000000
399,-16.000000
400,-32.000000
401,8.000000
402,0.000000
403,-44.000000
404,16.000000
405,52.000000
406,56.000000
407,16.000000
408,-8.000000
409,4.000000
410,12.000000
411,0.000000
412,20.000000
413,-32.000000
414,-8.000000
415,12.000000
416,-24.000000
417,24.000000
418,-4.000000
419,40.000000
420,24.000000
421,-12.000000
422,28.000000
423,-12.000000
424,48.000000
425,-8.000000
426,-4.000000
427,12.000000
428,8.000000
429,0.000000
430,52.000000
431,0.000000
432,-20.000000
433,40.000000
434,-8.000000
435,24.000000
436,48.000000
437,20.000000
438,-44.000000
439,-20.000000
440,0.000000
441,-4.000000
442,-32.000000
443,-32.000000
444,-20.000000
445,12.000000
446,-8.000000
447,8.000000
448,20.000000
449,72.000000
450,16.000000
451,-20.000000
452,16.000000
453,-32.000000
454,60.000000
455,-8.000000
456,-8.000000
457,16.000000
458,24.000000
459,-16.000000
460,28.000000
461,-8.000000
462,0.000000
463,0.000000
464,0.000000
465,12.000000
466,-36.000000
467,0.000000
468,12.000000
469,-16.000000
470,-8.000000
471,16.000000
472,-12.000000
473,4.000000
474,-8.000000
475,-8.000000
476,-24.000000
477,-24.000000
478,4.000000
479,4.000000
480,4.000000
481,8.000000
482,24.000000
483,-60.000000
484,-20.000000
485,-24.000000
486,40.000000
487,-4.000000
488,0.000000
489,-8.000000
490,4.000000
491,-40.000000
492,-36.000000
493,-12.000000
494,28.000000
495,16.000000
496,-36.000000
497,0.000000
498,-28.000000
499,-20.000000
500,-12.000000
501,-16.000000
502,-12.000000
503,8.000000
504,-16.000000
505,20.000000
506,-8.000000
507,-40.000000
508,84.000000
509,0.000000
510,12.000000
511,8.000000
512,0.000000
513,24.000000
514,20.000000
515,-40.000000
516,16.000000
517,0.000000
518,0.000000
519,-16.000000
520,12.000000
521,0.000000
522,-4.000000
523,-20.000000
524,-16.000000
525,-8.000000
526,4.000000
527,20.000000
528,8.000000
529,-20.000000
530,-8.000000
531,8.000000
532,0.000000
533,-12.000000
534,-24.000000
535,20.000000
536,-8.000000
537,4.000000
538,0.000000
539,8.000000
540,0.000000
541,44.000000
542,-32.000000
543,20.000000
544,8.000000
545,-28.000000
546,8.000000
547,12.000000
548,-8.000000
549,-24.000000
550,-4.000000
551,-8.000000
552,-4.000000
553,0.000000
554,-28.000000
555,-40.000000
556,-36.000000
557,44.000000
558,12.000000
559,-24.000000
560,40.000000
561,-8.000000
562,0.000000
563,0.000000
564,-12.000000
565,-8.000000
566,0.000000
567,4.000000
568,44.000000
569,8.000000
570,-52.000000
571,-24.000000
572,-8.000000
573,0.000000
574,-8.000000
575,0.000000
576,0.000000
577,16.000000
578,-12.000000
579,-16.000000
580,4.000000
581,-20.000000
582,-20.000000
583,0.000000
584,44.000000
585,-4.000000
586,-32.000000
587,4.000000
588,0.000000
589,20.000000
590,0.000000
591,20.000000
592,-24.000000
593,-4.000000
594,-4.000000
595,-8.000000
596,0.000000
597,24.000000
598,12.000000
599,-44.000000
600,-8.000000
601,-12.000000
602,-24.000000
603,-36.000000
604,-32.000000
605,-24.000000
606,28.000000
607,-8.000000
608,0.000000
609,-52.000000
610,-16.000000
611,-20.000000
612,0.000000
613,-4.000000
614,56.000000
615,4.000000
616,4.000000
617,4.000000
618,-8.000000
619,8.000000
620,24.000000
621,4.000000
622,-8.000000
623,-8.000000
624,44.000000
625,4.000000
626,-20.000000
627,-8.000000
628,-12.000000
629,-60.000000
630,20.000000
631,28.000000
632,8.000000
633,52.000000
634,12.000000
635,12.000000
636,-32.000000
637,12.000000
638,52.000000
639,28.000000
640,-8.000000
641,16.000000
642,-8.000000
643,-12.000000
644,-20.000000
645,-16.000000
646,-8.000000
647,20.000000
648,-20.000000
649,32.000000
650,4.000000
651,-40.000000
652,-8.000000
653,-40.000000
654,44.000000
655,24.000000
656,16.000000
657,-4.000000
658,0.000000
659,84.000000
660,-24.000000
661,8.000000
662,-12.000000
663,-12.000000
664,-8.000000
665,16.000000
666,0.000000
667,-8.000000
668,16.000000
669,-36.000000
670,-12.000000
671,0.000000
672,-4.000000
673,-100.000000
674,-16.000000
675,-20.000000
676,4.000000
677,-40.000000
678,-8.000000
679,16.000000
680,-24.000000
681,-8.000000
682,-32.000000
683,-28.000000
684,-24.000000
685,0.000000
686,4.000000
687,-16.000000
688,-8.000000
689,-12.000000
690,8.000000
691,8.000000
692,0.000000
693,-8.000000
694,-16.000000
695,20.000000
696,20.000000
697,0.000000
698,-40.000000
699,0.000000
700,-8.000000
701,8.000000
702,-12.000000
703,0.000000
704,-12.000000
705,-24.000000
706,-8.000000
707,-8.000000
708,-8.000000
709,-24.000000
710,-8.000000
711,28.000000
712,64.000000
713,0.000000
714,-16.000000
715,-28.000000
716,32.000000
717,12.000000
718,-28.000000
719,0.000000
720,-56.000000
721,0.000000
722,44.000000
723,-20.000000
724,0.000000
725,4.000000
726,16.000000
727,-8.000000
728,32.000000
729,4.000000
730,-24.000000
731,0.000000
732,0.000000
733,-8.000000
734,24.000000
735,-8.000000
736,4.000000
737,-32.000000
738,24.000000
739,-20.000000
740,-52.000000
741,-20.000000
742,20.000000
743,0.000000
744,-44.000000
745,-20.000000
746,16.000000
747,-4.000000
748,-4.000000
749,0.000000
750,-24.000000
751,-8.000000
752,-12.000000
753,-32.000000
754,0.000000
755,-16.000000
756,16.000000
757,8.000000
758,-16.000000
759,-8.000000
760,0.000000
761,32.000000
762,0.000000
763,-32.000000
764,16.000000
765,8.000000
766,0.000000
767,-8.000000
768,16.000000
769,20.000000
770,16.000000
771,-48.000000
772,44.000000
773,0.000000
774,44.000000
775,24.000000
776,24.000000
777,-40.000000
778,-4.000000
779,28.000000
780,12.000000
781,-16.000000
782,12.000000
783,-24.000000
784,0.000000
785,0.000000
786,0.000000
787,-8.000000
788,-4.000000
789,4.000000
790,52.000000
791,52.000000
792,-16.000000
793,16.000000
794,-12.000000
795,0.000000
796,12.000000
797,-20.000000
798,-8.000000
799,-8.000000
800,52.000000
801,32.000000
802,-52.000000
803,-36.000000
804,-28.000000
805,-12.000000
806,20.000000
807,16.000000
808,-4.000000
809,20.000000
810,12.000000
811,0.000000
812,20.000000
813,16.000000
814,60.000000
815,8.000000
816,-40.000000
817,-8.000000
818,16.000000
819,24.000000
820,-44.000000
821,-8.000000
822,24.000000
823,-8.000000
824,44.000000
825,0.000000
826,-16.000000
827,-16.000000
828,-28.000000
829,-8.000000
830,8.000000
831,0.000000
832,4.000000
833,20.000000
834,-24.000000
835,0.000000
836,8.000000
837,-32.000000
838,0.000000
839,-4.000000
840,-12.000000
841,52.000000
842,-12.000000
843,16.000000
844,-4.000000
845,28.000000
846,12.000000
847,-12.000000
848,-8.000000
849,4.000000
850,-12.000000
851,20.000000
852,4.000000
853,8.000000
854,-12.000000
855,-12.000000
856,24.000000
857,20.000000
858,24.000000
859,-72.000000
860,-40.000000
861,-8.000000
862,32.000000
863,-24.000000
864,24.000000
865,-24.000000
866,-4.000000
867,52.000000
868,-8.000000
869,-8.000000
870,-8.000000
871,4.000000
872,4.000000
873,-24.000000
874,-12.000000
875,4.000000
876,-12.000000
877,-16.000000
878,-24.000000
879,40.000000
880,8.000000
881,16.000000
882,64.000000
883,-8.000000
884,-16.000000
885,8.000000
886,52.000000
887,0.000000
888,-16.000000
889,-16.000000
890,12.000000
891,0.000000
892,-4.000000
893,-8.000000
894,-8.000000
895,-8.000000
896,-20.000000
897,-8.000000
898,4.000000
899,-20.000000
900,0.000000
901,-16.000000
902,52.000000
903,-4.000000
904,0.000000
905,0.000000
906,44.000000
907,20.000000
908,-20.000000
909,-24.000000
910,16.000000
911,-24.000000
912,20.000000
913,28.000000
914,44.000000
915,4.000000
916,-12.000000
917,-12.000000
918,4.000000
919,-4.000000
920,16.000000
921,-12.000000
922,60.000000
923,4.000000
924,-8.000000
925,-4.000000
926,-12.000000
927,-20.000000
928,4.000000
929,4.000000
930,0.000000
931,-12.000000
932,-60.000000
933,8.000000
934,-8.000000
935,64.000000
936,0.000000
937,32.000000
938,-8.000000
939,24.000000
940,-8.000000
941,-16.000000
942,-8.000000
943,-8.000000
944,-48.000000
945,52.000000
946,-16.000000
947,16.000000
948,24.000000
949,-48.000000
950,-24.000000
951,44.000000
952,-28.000000
953,0.000000
954,0.000000
955,-8.000000
956,-24.000000
957,0.000000
958,-8.000000
959,-8.000000
960,-8.000000
961,0.000000
962,-8.000000
963,8.000000
964,4.000000
965,0.000000
966,24.000000
967,4.000000
968,4.000000
969,-32.000000
970,-16.000000
971,-16.000000
972,-16.000000
973,-52.000000
974,-32.000000
975,12.000000
976,28.000000
977,72.000000
978,8.000000
979,4.000000
980,8.000000
981,12.000000
982,-8.000000
983,24.000000
984,4.000000
985,20.000000
986,0.000000
987,-40.000000
988,8.000000
989,0.000000
990,20.000000
991,-20.000000
992,40.000000
993,-8.000000
994,-8.000000
995,-28.000000
996,44.000000
997,-32.000000
998,-20.000000
999,0.000000
1000,8.000000
1001,-20.000000
1002,-4.000000
1003,0.000000
1004,-12.000000
1005,44.000000
1006,8.000000
1007,-12.000000
1008,0.000000
1009,4.000000
1010,24.000000
1011,0.000000
1012,-8.000000
1013,52.000000
1014,8.000000
1015,-48.000000
1016,-8.000000
1017,-16.000000
1018,-20.000000
1019,0.000000
1020,-8.000000
1021,4.000000
1022,4.000000
1023,-8.000000
1024,8.000000
1025,-24.000000
1026,-8.000000
1027,16.000000
1028,8.000000
1029,8.000000
1030,-12.000000
1031,-16.000000
1032,0.000000
1033,24.000000
1034,-40.000000
1035,12.000000
1036,-8.000000
1037,-56.000000
1038,-36.000000
1039,44.000000
1040,-16.000000
1041,-12.000000
1042,44.000000
1043,68.000000
1044,24.000000
1045,-16.000000
1046,-56.000000
1047,-20.000000
1048,-8.000000
1049,8.000000
1050,-12.000000
1051,4.000000
1052,16.000000
1053,-8.000000
1054,44.000000
1055,-4.000000
1056,-16.000000
1057,24.000000
1058,8.000000
1059,-12.000000
1060,-4.000000
1061,-20.000000
1062,0.000000
1063,28.000000
1064,-28.000000
1065,-20.000000
1066,-20.000000
1067,-20.000000
1068,-4.000000
1069,-8.000000
1070,52.000000
1071,-12.000000
1072,-12.000000
1073,-12.000000
1074,-28.000000
1075,4.000000
1076,20.000000
1077,20.000000
1078,-12.000000
1079,-56.000000
1080,-8.000000
1081,24.000000
1082,-8.000000
1083,24.000000
1084,0.000000
1085,-12.000000
1086,-4.000000
1087,8.000000
1088,-24.000000
1089,-4.000000
1090,24.000000
1091,-4.000000
1092,8.000000
1093,8.000000
1094,20.000000
1095,0.000000
1096,-16.000000
1097,16.000000
1098,-8.000000
1099,-28.000000
1100,12.000000
1101,-8.000000
1102,-8.000000
1103,-8.000000
1104,0.000000
1105,-32.000000
1106,-8.000000
1107,12.000000
1108,8.000000
1109,-28.000000
1110,-8.000000
1111,-4.000000
1112,0.000000
1113,-8.000000
1114,20.000000
1115,0.000000
1116,-32.000000
1117,-36.000000
1118,52.000000
1119,-4.000000
1120,4.000000
1121,-36.000000
1122,0.000000
1123,0.000000
1124,-36.000000
1125,0.000000
1126,-12.000000
1127,-12.000000
1128,-4.000000
1129,28.000000
1130,52.000000
1131,-48.000000
1132,4.000000
1133,-20.000000
1134,84.000000
1135,24.000000
1136,-28.000000
1137,0.000000
1138,-44.000000
1139,56.000000
1140,24.000000
1141,0.000000
1142,24.000000
1143,-36.000000
1144,88.000000
1145,20.000000
1146,0.000000
1147,-32.000000
1148,-40.000000
1149,-12.000000
1150,-24.000000
1151,12.000000
1152,-20.000000
1153,-8.000000
1154,-8.000000
1155,-4.000000
1156,-16.000000
1157,32.000000
1158,-40.000000
1159,-12.000000
1160,-8.000000
1161,4.000000
1162,12.000000
1163,4.000000
1164,20.000000
1165,-12.000000
1166,0.000000
1167,-4.000000
1168,0.000000
1169,-36.000000
1170,0.000000
1171,-8.000000
1172,-4.000000
1173,4.000000
1174,-12.000000
1175,-8.000000
1176,4.000000
1177,0.000000
1178,32.000000
1179,-24.000000
1180,16.000000
1181,20.000000
1182,24.000000
1183,44.000000
1184,0.000000
1185,-20.000000
1186,-8.000000
1187,12.000000
1188,0.000000
1189,-40.000000
1190,12.000000
1191,-16.000000
1192,-8.000000
1193,16.000000
1194,0.000000
1195,-32.000000
1196,-20.000000
1197,64.000000
1198,-28.000000
1199,-28.000000
1200,16.000000
1201,-8.000000
1202,-8.000000
1203,0.000000
1204,20.000000
1205,-36.000000
1206,-8.000000
1207,52.000000
1208,-4.000000
1209,-12.000000
1210,28.000000
1211,-20.000000
1212,-4.000000
1213,-8.000000
1214,-12.000000
1215,20.000000
1216,0.000000
1217,-12.000000
1218,4.000000
1219,-8.000000
1220,-12.000000
1221,24.000000
1222,0.000000
1223,-4.000000
1224,52.000000
1225,-40.000000
1226,-4.000000
1227,20.000000
1228,20.000000
1229,-16.000000
1230,-4.000000
1231,-4.000000
1232,28.000000
1233,-28.000000
1234,8.000000
1235,16.000000
1236,8.000000
1237,-20.000000
1238,44.000000
1239,44.000000
1240,28.000000
1241,-40.000000
1242,-28.000000
1243,-60.000000
1244,100.000000
1245,4.000000
1246,4.000000
1247,0.000000
1248,8.000000
1249,16.000000
1250,8.000000
1251,-24.000000
1252,-24.000000
1253,28.000000
1254,8.000000
1255,-12.000000
1256,-4.000000
1257,16.000000
1258,-60.000000
1259,0.000000
1260,-20.000000
1261,0.000000
1262,16.000000
1263,16.000000
1264,36.000000
1265,12.000000
1266,-24.000000
1267,-8.000000
1268,16.000000
1269,12.000000
1270,0.000000
1271,-8.000000
1272,12.000000
1273,-36.000000
1274,16.000000
1275,12.000000
1276,4.000000
1277,8.000000
1278,-52.000000
1279,-24.000000
1280,-20.000000
1281,-20.000000
1282,0.000000
1283,-36.000000
1284,-12.000000
1285,0.000000
1286,-4.000000
1287,40.000000
1288,4.000000
1289,-36.000000
1290,4.000000
1291,-52.000000
1292,80.000000
1293,4.000000
1294,-4.000000
1295,-96.000000
1296,0.000000
1297,12.000000
1298,8.000000
1299,-24.000000
1300,-32.000000
1301,-60.000000
1302,-28.000000
1303,-36.000000
1304,0.000000
1305,12.000000
1306,0.000000
1307,-16.000000
1308,-8.000000
1309,-4.000000
1310,-40.000000
1311,-24.000000
1312,-32.000000
1313,-32.000000
1314,4.000000
1315,0.000000
1316,12.000000
1317,-12.000000
1318,16.000000
1319,-20.000000
1320,-20.000000
1321,-56.000000
1322,-4.000000
1323,-8.000000
1324,-12.000000
1325,24.000000
1326,-40.000000
1327,12.000000
1328,-8.000000
1329,-8.000000
1330,-32.000000
1331,20.000000
1332,-4.000000
1333,12.000000
1334,4.000000
1335,-20.000000
1336,0.000000
1337,0.000000
1338,28.000000
1339,-8.000000
1340,-8.000000
1341,-4.000000
1342,-12.000000
1343,0.000000
1344,0.000000
1345,-8.000000
1346,12.000000
1347,-8.000000
1348,52.000000
1349,44.000000
1350,-44.000000
1351,16.000000
1352,-28.000000
1353,-20.000000
1354,16.000000
1355,0.000000
1356,8.000000
1357,0.000000
1358,-24.000000
1359,-16.000000
1360,4.000000
1361,-8.000000
1362,8.000000
1363,24.000000
1364,-24.000000
1365,52.000000
1366,40.000000
1367,48.000000
1368,-12.000000
1369,-12.000000
1370,-16.000000
1371,0.000000
1372,-12.000000
1373,-12.000000
1374,20.000000
1375,-32.000000
1376,12.000000
1377,20.000000
1378,-24.000000
1379,4.000000
1380,-4.000000
1381,-4.000000
1382,0.000000
