docs/evidence/raw/2026-09-07/data_21_015.csv

Channel              :,CH1
Frequency            :,2.639Hz
Period               :,0.379s
PK-PK                :,242.0mV
Probe attenuation    :,1X
Voltage per ADC value:,0.125000mV
Time interval        :,100.00000us

index,CH1_Voltage(mV)
1,30.000000
2,30.000000
3,60.000000
4,-12.000000
5,-68.000000
6,24.000000
7,4.000000
8,-8.000000
9,-6.000000
10,72.000000
11,4.000000
12,-10.000000
13,-36.000000
14,-8.000000
15,2.000000
16,-32.000000
17,-16.000000
18,22.000000
19,-56.000000
20,42.000000
21,0.000000
22,2.000000
23,-16.000000
24,-48.000000
25,10.000000
26,14.000000
27,0.000000
28,0.000000
29,-40.000000
30,-82.000000
31,-4.000000
32,68.000000
33,-40.000000
34,22.000000
35,24.000000
36,10.000000
37,14.000000
38,-56.000000
39,-8.000000
40,-4.000000
41,-22.000000
42,82.000000
43,16.000000
44,-28.000000
45,16.000000
46,28.000000
47,26.000000
48,74.000000
49,-4.000000
50,-4.000000
51,-14.000000
52,-24.000000
53,72.000000
54,72.000000
55,-22.000000
56,22.000000
57,-2.000000
58,12.000000
59,60.000000
60,46.000000
61,2.000000
62,2.000000
63,-22.000000
64,-8.000000
65,-4.000000
66,-6.000000
67,36.000000
68,-28.000000
69,32.000000
70,-4.000000
71,2.000000
72,40.000000
73,-4.000000
74,-10.000000
75,2.000000
76,14.000000
77,-58.000000
78,-30.000000
79,20.000000
80,-18.000000
81,4.000000
82,-26.000000
83,30.000000
84,2.000000
85,2.000000
86,0.000000
87,-32.000000
88,10.000000
89,-2.000000
90,-24.000000
91,-14.000000
92,-20.000000
93,28.000000
94,-12.000000
95,-4.000000
96,-6.000000
97,30.000000
98,38.000000
99,32.000000
100,-84.000000
101,60.000000
102,0.000000
103,-4.000000
104,-20.000000
105,-2.000000
106,42.000000
107,-2.000000
108,10.000000
109,2.000000
110,2.000000
111,0.000000
112,34.000000
113,-36.000000
114,98.000000
115,-34.000000
116,12.000000
117,10.000000
118,-26.000000
119,8.000000
120,-14.000000
121,26.000000
122,-14.000000
123,-24.000000
124,-4.000000
125,2.000000
126,14.000000
127,-12.000000
128,24.000000
129,-26.000000
130,-18.000000
131,-6.000000
132,-10.000000
133,2.000000
134,-8.000000
135,16.000000
136,-50.000000
137,-50.000000
138,-48.000000
139,-10.000000
140,-48.000000
141,-2.000000
142,30.000000
143,-50.000000
144,-8.000000
145,68.000000
146,6.000000
147,-26.000000
148,-2.000000
149,-16.000000
150,64.000000
151,32.000000
152,-4.000000
153,28.000000
154,-28.000000
155,-14.000000
156,10.000000
157,50.000000
158,-22.000000
159,2.000000
160,-30.000000
161,-20.000000
162,-38.000000
163,-8.000000
164,20.000000
165,-8.000000
166,-30.000000
167,6.000000
168,-44.000000
169,4.000000
170,-20.000000
171,14.000000
172,-16.000000
173,-36.000000
174,-8.000000
175,42.000000
176,-30.000000
177,-16.000000
178,54.000000
179,26.000000
180,-4.000000
181,-12.000000
182,-44.000000
183,42.000000
184,-30.000000
185,-24.000000
186,-94.000000
187,-20.000000
188,-60.000000
189,-24.000000
190,2.000000
191,62.000000
192,-46.000000
193,4.000000
194,16.000000
195,34.000000
196,-22.000000
197,12.000000
198,10.000000
199,-14.000000
200,-52.000000
201,-4.000000
202,76.000000
203,-8.000000
204,-8.000000
205,18.000000
206,18.000000
207,6.000000
208,-44.000000
209,82.000000
210,10.000000
211,28.000000
212,26.000000
213,2.000000
214,14.000000
215,0.000000
216,20.000000
217,-18.000000
218,-18.000000
219,14.000000
220,-14.000000
221,-66.000000
222,32.000000
223,10.000000
224,-22.000000
225,18.000000
226,10.000000
227,-12.000000
228,-46.000000
229,-8.000000
230,0.000000
231,12.000000
232,-18.000000
233,-18.000000
234,44.000000
235,-62.000000
236,28.000000
237,16.000000
238,-8.000000
239,-6.000000
240,14.000000
241,-8.000000
242,-6.000000
243,2.000000
244,-32.000000
245,20.000000
246,22.000000
247,-8.000000
248,-8.000000
249,54.000000
250,-30.000000
251,12.000000
252,-16.000000
253,10.000000
254,-4.000000
255,-28.000000
256,14.000000
257,8.000000
258,8.000000
259,-10.000000
260,-4.000000
261,76.000000
262,14.000000
263,10.000000
264,22.000000
265,-12.000000
266,-4.000000
267,14.000000
268,-36.000000
269,20.000000
270,-8.000000
271,46.000000
272,54.000000
273,-12.000000
274,-6.000000
275,-20.000000
276,-20.000000
277,26.000000
278,-16.000000
279,-16.000000
280,12.000000
281,2.000000
282,2.000000
283,-8.000000
284,8.000000
285,-2.000000
286,-28.000000
287,2.000000
288,-22.000000
289,58.000000
290,26.000000
291,10.000000
292,30.000000
293,60.000000
294,16.000000
295,-36.000000
296,68.000000
297,32.000000
298,-34.000000
299,-68.000000
300,18.000000
301,-2.000000
302,-4.000000
303,14.000000
304,54.000000
305,-22.000000
306,-60.000000
307,-10.000000
308,8.000000
309,32.000000
310,-12.000000
311,24.000000
312,14.000000
313,-76.000000
314,-2.000000
315,-54.000000
316,46.000000
317,-2.000000
318,0.000000
319,12.000000
320,-8.000000
321,-42.000000
322,14.000000
323,10.000000
324,-14.000000
325,2.000000
326,-4.000000
327,4.000000
328,0.000000
329,-34.000000
330,14.000000
331,22.000000
332,46.000000
333,-16.000000
334,16.000000
335,-16.000000
336,-26.000000
337,-24.000000
338,74.000000
339,-6.000000
340,0.000000
341,-2.000000
342,-30.000000
343,10.000000
344,-46.000000
345,-2.000000
346,54.000000
347,-14.000000
348,2.000000
349,12.000000
350,-48.000000
351,-54.000000
352,12.000000
353,0.000000
354,-36.000000
355,-16.000000
356,-38.000000
357,-4.000000
358,-20.000000
359,-36.000000
360,0.000000
361,-4.000000
362,-12.000000
363,72.000000
364,-14.000000
365,-38.000000
366,6.000000
367,-4.000000
368,12.000000
369,8.000000
370,50.000000
371,-12.000000
372,-18.000000
373,10.000000
374,-18.000000
375,-16.000000
376,46.000000
377,4.000000
378,2.000000
379,10.000000
380,-32.000000
381,-24.000000
382,40.000000
383,50.000000
384,46.000000
385,-36.000000
386,10.000000
387,-16.000000
388,-16.000000
389,-16.000000
390,-20.000000
391,-64.000000
392,-22.000000
393,10.000000
394,-32.000000
395,12.000000
396,2.000000
397,-24.000000
398,12.000000
399,-2.000000
400,-26.000000
401,-16.000000
402,0.000000
403,22.000000
404,-20.000000
405,-16.000000
406,2.000000
407,-24.000000
408,0.000000
409,-6.000000
410,-6.000000
411,2.000000
412,-12.000000
413,82.000000
414,12.000000
415,10.000000
416,10.000000
417,-30.000000
418,-36.000000
419,-6.000000
420,-30.000000
421,-16.000000
422,16.000000
423,-26.000000
424,62.000000
425,-26.000000
426,-18.000000
427,8.000000
428,2.000000
429,-6.000000
430,78.000000
431,10.000000
432,12.000000
433,28.000000
434,-64.000000
435,-26.000000
436,16.000000
437,22.000000
438,24.000000
439,-16.000000
440,38.000000
441,6.000000
442,10.000000
443,0.000000
444,10.000000
445,-30.000000
446,58.000000
447,-6.000000
448,44.000000
449,14.000000
450,14.000000
451,-38.000000
452,20.000000
453,-44.000000
454,6.000000
455,16.000000
456,-34.000000
457,-34.000000
458,0.000000
459,-4.000000
460,48.000000
461,0.000000
462,0.000000
463,10.000000
464,-32.000000
465,8.000000
466,22.000000
467,86.000000
468,84.000000
469,-26.000000
470,-28.000000
471,-44.000000
472,-40.000000
473,12.000000
474,-6.000000
475,-20.000000
476,32.000000
477,-26.000000
478,56.000000
479,12.000000
480,8.000000
481,8.000000
482,2.000000
483,50.000000
484,22.000000
485,-62.000000
486,14.000000
487,-12.000000
488,-18.000000
489,16.000000
490,-2.000000
491,22.000000
492,14.000000
493,14.000000
494,-18.000000
495,-4.000000
496,40.000000
497,4.000000
498,-18.000000
499,22.000000
500,8.000000
501,16.000000
502,4.000000
503,2.000000
504,-12.000000
505,-6.000000
506,46.000000
507,14.000000
508,-4.000000
509,38.000000
510,48.000000
511,-20.000000
512,14.000000
513,20.000000
514,-26.000000
515,24.000000
516,16.000000
517,0.000000
518,46.000000
519,-30.000000
520,-32.000000
521,10.000000
522,-34.000000
523,10.000000
524,-44.000000
525,54.000000
526,-4.000000
527,-64.000000
528,8.000000
529,10.000000
530,10.000000
531,-54.000000
532,18.000000
533,16.000000
534,2.000000
535,-44.000000
536,14.000000
537,26.000000
538,0.000000
539,32.000000
540,26.000000
541,-30.000000
542,-44.000000
543,-72.000000
544,-20.000000
545,62.000000
546,-4.000000
547,-20.000000
548,-20.000000
549,-48.000000
550,94.000000
551,82.000000
552,0.000000
553,6.000000
554,0.000000
555,-4.000000
556,62.000000
557,-4.000000
558,46.000000
559,-24.000000
560,-6.000000
561,2.000000
562,-4.000000
563,-12.000000
564,0.000000
565,2.000000
566,-40.000000
567,-14.000000
568,-6.000000
569,58.000000
570,-60.000000
571,14.000000
572,20.000000
573,-12.000000
574,40.000000
575,-4.000000
576,-38.000000
577,28.000000
578,6.000000
579,-8.000000
580,38.000000
581,46.000000
582,-4.000000
583,2.000000
584,-26.000000
585,-20.000000
586,2.000000
587,0.000000
588,-30.000000
589,-40.000000
590,-26.000000
591,-30.000000
592,-20.000000
593,0.000000
594,18.000000
595,24.000000
596,-4.000000
597,-12.000000
598,20.000000
599,0.000000
600,-22.000000
601,-14.000000
602,-2.000000
603,-22.000000
604,-4.000000
605,40.000000
606,-24.000000
607,-20.000000
608,2.000000
609,-16.000000
610,94.000000
611,64.000000
612,2.000000
613,14.000000
614,16.000000
615,-26.000000
616,40.000000
617,2.000000
618,-16.000000
619,40.000000
620,-54.000000
621,0.000000
622,0.000000
623,32.000000
624,-8.000000
625,-78.000000
626,20.000000
627,46.000000
628,2.000000
629,14.000000
630,-30.000000
631,-48.000000
632,-32.000000
633,-66.000000
634,-18.000000
635,-26.000000
636,-16.000000
637,-8.000000
638,-54.000000
639,20.000000
640,-16.000000
641,-12.000000
642,-60.000000
643,-22.000000
644,-16.000000
645,-44.000000
646,-16.000000
647,2.000000
648,-30.000000
649,2.000000
650,-10.000000
651,8.000000
652,-26.000000
653,-8.000000
654,2.000000
655,4.000000
656,2.000000
657,-6.000000
658,-6.000000
659,-18.000000
660,10.000000
661,40.000000
662,-14.000000
663,-54.000000
664,-34.000000
665,16.000000
666,16.000000
667,34.000000
668,-22.000000
669,-14.000000
670,26.000000
671,2.000000
672,-16.000000
673,-2.000000
674,12.000000
675,-38.000000
676,2.000000
677,0.000000
678,14.000000
679,14.000000
680,38.000000
681,2.000000
682,-12.000000
683,-4.000000
684,-16.000000
685,-26.000000
686,34.000000
687,46.000000
688,-4.000000
689,10.000000
690,18.000000
691,34.000000
692,-32.000000
693,-48.000000
694,-4.000000
695,54.000000
696,-12.000000
697,-36.000000
698,-60.000000
699,8.000000
700,8.000000
701,0.000000
702,-8.000000
703,-16.000000
704,40.000000
705,18.000000
706,-34.000000
707,8.000000
708,4.000000
709,10.000000
710,8.000000
711,22.000000
712,12.000000
713,-18.000000
714,14.000000
715,26.000000
716,62.000000
717,38.000000
718,8.000000
719,2.000000
720,2.000000
721,-46.000000
722,-64.000000
723,-10.000000
724,-48.000000
725,-14.000000
726,32.000000
727,-20.000000
728,-4.000000
729,-12.000000
730,40.000000
731,2.000000
732,6.000000
733,88.000000
734,26.000000
735,-18.000000
736,-46.000000
737,-18.000000
738,54.000000
739,-28.000000
740,-30.000000
741,-26.000000
742,4.000000
743,14.000000
744,14.000000
745,-26.000000
746,22.000000
747,34.000000
748,8.000000
749,-20.000000
750,-10.000000
751,14.000000
752,40.000000
753,60.000000
754,-86.000000
755,20.000000
756,10.000000
757,-38.000000
758,-22.000000
759,-8.000000
760,32.000000
761,-36.000000
762,2.000000
763,-2.000000
764,38.000000
765,34.000000
766,24.000000
767,0.000000
768,0.000000
769,-12.000000
770,-72.000000
771,-46.000000
772,68.000000
773,-22.000000
774,-86.000000
775,-22.000000
776,20.000000
777,14.000000
778,-12.000000
779,4.000000
780,-30.000000
781,-8.000000
782,24.000000
783,22.000000
784,2.000000
785,-16.000000
786,-50.000000
787,60.000000
788,-16.000000
789,-12.000000
790,-26.000000
791,46.000000
792,-16.000000
793,38.000000
794,-24.000000
795,8.000000
796,-44.000000
797,-22.000000
798,0.000000
799,22.000000
800,-12.000000
801,10.000000
802,22.000000
803,0.000000
804,46.000000
805,18.000000
806,-8.000000
807,24.000000
808,-36.000000
809,8.000000
810,30.000000
811,-16.000000
812,16.000000
813,22.000000
814,12.000000
815,-6.000000
816,0.000000
817,-20.000000
818,-34.000000
819,-38.000000
820,26.000000
821,46.000000
822,6.000000
823,10.000000
824,-4.000000
825,-30.000000
826,-30.000000
827,-36.000000
828,-2.000000
829,-82.000000
830,-8.000000
831,-34.000000
832,-24.000000
833,6.000000
834,78.000000
835,-2.000000
836,22.000000
837,58.000000
838,18.000000
839,40.000000
840,22.000000
841,-56.000000
842,-16.000000
843,0.000000
844,-26.000000
845,10.000000
846,-26.000000
847,4.000000
848,8.000000
849,22.000000
850,20.000000
851,18.000000
852,-4.000000
853,-20.000000
854,34.000000
855,-34.000000
856,12.000000
857,-14.000000
858,12.000000
859,4.000000
860,6.000000
861,2.000000
862,8.000000
863,-18.000000
864,10.000000
865,-4.000000
866,-4.000000
867,-36.000000
868,-86.000000
869,-24.000000
870,-22.000000
871,-4.000000
872,24.000000
873,14.000000
874,-6.000000
875,-10.000000
876,-16.000000
877,-2.000000
878,-4.000000
879,-16.000000
880,-28.000000
881,-2.000000
882,14.000000
883,-16.000000
884,-12.000000
885,-6.000000
886,-12.000000
887,-30.000000
888,64.000000
889,14.000000
890,40.000000
891,10.000000
892,28.000000
893,0.000000
894,26.000000
895,2.000000
896,0.000000
897,58.000000
898,-12.000000
899,60.000000
900,-8.000000
901,-34.000000
902,-6.000000
903,28.000000
904,-30.000000
905,74.000000
906,-24.000000
907,58.000000
908,-8.000000
909,-46.000000
910,-8.000000
911,2.000000
912,12.000000
913,12.000000
914,14.000000
915,0.000000
916,24.000000
917,-22.000000
918,-30.000000
919,-48.000000
920,-12.000000
921,84.000000
922,-18.000000
923,2.000000
924,-50.000000
925,-18.000000
926,-22.000000
927,-58.000000
928,-12.000000
929,34.000000
930,-24.000000
931,0.000000
932,26.000000
933,-22.000000
934,-20.000000
935,14.000000
936,10.000000
937,-30.000000
938,-20.000000
939,2.000000
940,-74.000000
941,-12.000000
942,34.000000
943,24.000000
944,2.000000
945,2.000000
946,20.000000
947,26.000000
948,26.000000
949,-4.000000
950,-30.000000
951,-56.000000
952,-22.000000
953,8.000000
954,-22.000000
955,-4.000000
956,-32.000000
957,-30.000000
958,-16.000000
959,-16.000000
960,38.000000
961,16.000000
962,-8.000000
963,-44.000000
964,-52.000000
965,58.000000
966,40.000000
967,8.000000
968,-48.000000
969,-4.000000
970,8.000000
971,58.000000
972,4.000000
973,-4.000000
974,42.000000
975,24.000000
976,-2.000000
977,4.000000
978,24.000000
979,-36.000000
980,16.000000
981,-76.000000
982,18.000000
983,50.000000
984,-30.000000
985,26.000000
986,40.000000
987,-4.000000
988,84.000000
989,24.000000
990,-6.000000
991,8.000000
992,26.000000
993,-34.000000
994,0.000000
995,-26.000000
996,-6.000000
997,26.000000
998,-12.000000
999,64.000000
1000,-6.000000
1001,-18.000000
1002,4.000000
1003,-14.000000
1004,-4.000000
1005,-8.000000
1006,-8.000000
1007,12.000000
1008,-70.000000
1009,-6.000000
1010,-20.000000
1011,-14.000000
1012,-28.000000
1013,-72.000000
1014,-56.000000
1015,46.000000
1016,-18.000000
1017,4.000000
1018,0.000000
1019,-2.000000
1020,54.000000
1021,-16.000000
1022,-36.000000
1023,-38.000000
1024,-38.000000
1025,18.000000
1026,-36.000000
1027,-24.000000
1028,2.000000
1029,-44.000000
1030,-32.000000
1031,-16.000000
1032,-54.000000
1033,14.000000
1034,-8.000000
1035,-30.000000
1036,-8.000000
1037,24.000000
1038,-26.000000
1039,14.000000
1040,-4.000000
1041,20.000000
1042,62.000000
1043,46.000000
1044,-34.000000
1045,-16.000000
1046,68.000000
1047,10.000000
1048,-4.000000
1049,-38.000000
1050,2.000000
1051,-34.000000
1052,22.000000
1053,10.000000
1054,44.000000
1055,2.000000
1056,28.000000
1057,-22.000000
1058,-2.000000
1059,-14.000000
1060,10.000000
1061,-12.000000
1062,-20.000000
1063,36.000000
1064,32.000000
1065,20.000000
1066,-28.000000
1067,-22.000000
1068,-18.000000
1069,14.000000
1070,-18.000000
1071,-10.000000
1072,34.000000
1073,-4.000000
1074,-36.000000
1075,-40.000000
1076,-46.000000
1077,-24.000000
1078,-12.000000
1079,4.000000
1080,-2.000000
1081,16.000000
1082,16.000000
1083,0.000000
1084,36.000000
1085,38.000000
1086,-4.000000
1087,-12.000000
1088,-50.000000
1089,-16.000000
1090,4.000000
1091,20.000000
1092,-42.000000
1093,-4.000000
1094,-18.000000
1095,28.000000
1096,54.000000
1097,8.000000
1098,-48.000000
1099,22.000000
1100,22.000000
1101,6.000000
1102,-30.000000
1103,-32.000000
1104,14.000000
1105,-8.000000
1106,-4.000000
1107,-8.000000
1108,-4.000000
1109,-4.000000
1110,-4.000000
1111,-4.000000
1112,-4.000000
1113,-32.000000
1114,-32.000000
1115,-34.000000
1116,-34.000000
1117,-34.000000
1118,-34.000000
1119,-32.000000
1120,-32.000000
1121,-32.000000
1122,-32.000000
1123,-32.000000
1124,-32.000000
1125,-34.000000
1126,-34.000000
1127,-34.000000
1128,-34.000000
1129,-32.000000
1130,-32.000000
1131,-32.000000
1132,-32.000000
1133,-32.000000
1134,-32.000000
1135,-32.000000
1136,-32.000000
1137,-32.000000
1138,-32.000000
1139,-34.000000
1140,-34.000000
1141,-34.000000
1142,-34.000000
1143,-32.000000
1144,-32.000000
1145,-34.000000
1146,-34.000000
1147,-32.000000
1148,-32.000000
1149,-34.000000
1150,-34.000000
1151,-34.000000
1152,-34.000000
1153,-34.000000
1154,-34.000000
1155,-32.000000
1156,-32.000000
1157,-34.000000
1158,-34.000000
1159,-32.000000
1160,-32.000000
1161,-32.000000
1162,-32.000000
1163,-34.000000
1164,-34.000000
1165,-34.000000
1166,-34.000000
1167,-34.000000
1168,-34.000000
1169,-64.000000
1170,-26.000000
1171,26.000000
1172,-48.000000
1173,-2.000000
1174,-18.000000
1175,-8.000000
1176,-34.000000
1177,-2.000000
1178,40.000000
1179,10.000000
1180,14.000000
1181,4.000000
1182,2.000000
1183,-12.000000
1184,4.000000
1185,-20.000000
1186,60.000000
1187,-36.000000
1188,10.000000
1189,-4.000000
1190,-30.000000
1191,-24.000000
1192,-4.000000
1193,-40.000000
1194,-58.000000
1195,12.000000
1196,20.000000
1197,14.000000
1198,-8.000000
1199,58.000000
1200,8.000000
1201,-30.000000
1202,-8.000000
1203,-4.000000
1204,8.000000
1205,30.000000
1206,-6.000000
1207,-12.000000
1208,16.000000
1209,22.000000
1210,40.000000
1211,38.000000
1212,14.000000
1213,30.000000
1214,10.000000
1215,10.000000
1216,74.000000
1217,12.000000
1218,-18.000000
1219,-22.000000
1220,14.000000
1221,-4.000000
1222,50.000000
1223,-44.000000
1224,-26.000000
1225,16.000000
1226,-32.000000
1227,98.000000
1228,26.000000
1229,10.000000
1230,-4.000000
1231,-14.000000
1232,-22.000000
1233,-12.000000
1234,42.000000
1235,-26.000000
1236,26.000000
1237,-64.000000
1238,-22.000000
1239,2.000000
1240,4.000000
1241,38.000000
1242,0.000000
1243,0.000000
1244,8.000000
1245,-10.000000
1246,14.000000
1247,-4.000000
1248,-10.000000
1249,-76.000000
1250,-26.000000
1251,24.000000
1252,34.000000
1253,20.000000
1254,50.000000
1255,16.000000
1256,92.000000
1257,2.000000
1258,-32.000000
1259,-12.000000
1260,12.000000
1261,-20.000000
1262,32.000000
1263,-50.000000
1264,8.000000
1265,-8.000000
1266,-62.000000
1267,42.000000
1268,32.000000
1269,-12.000000
1270,16.000000
1271,2.000000
1272,-50.000000
1273,0.000000
1274,-4.000000
1275,-44.000000
1276,-12.000000
1277,58.000000
1278,38.000000
1279,16.000000
1280,-8.000000
1281,-14.000000
1282,-14.000000
1283,12.000000
1284,32.000000
1285,8.000000
1286,60.000000
1287,-36.000000
1288,-56.000000
1289,-14.000000
1290,-30.000000
1291,-12.000000
1292,10.000000
1293,-14.000000
1294,-16.000000
1295,-30.000000
1296,58.000000
1297,-12.000000
1298,46.000000
1299,-30.000000
1300,-16.000000
1301,68.000000
1302,-32.000000
1303,-44.000000
1304,6.000000
1305,-12.000000
1306,-14.000000
1307,-2.000000
1308,16.000000
1309,8.000000
1310,6.000000
1311,18.000000
1312,18.000000
1313,-26.000000
1314,-4.000000
1315,-36.000000
1316,-8.000000
1317,-10.000000
1318,-84.000000
1319,-14.000000
1320,8.000000
1321,34.000000
1322,-24.000000
1323,38.000000
1324,-36.000000
1325,40.000000
1326,2.000000
1327,-20.000000
1328,58.000000
1329,32.000000
1330,-16.000000
1331,6.000000
1332,-38.000000
1333,-14.000000
1334,-22.000000
1335,-26.000000
1336,-12.000000
1337,24.000000
1338,-14.000000
1339,-32.000000
1340,-12.000000
1341,-2.000000
1342,-12.000000
1343,20.000000
1344,-26.000000
1345,8.000000
1346,24.000000
1347,-2.000000
1348,2.000000
1349,30.000000
1350,28.000000
1351,8.000000
1352,-36.000000
1353,16.000000
1354,14.000000
1355,-44.000000
1356,-8.000000
1357,26.000000
1358,-28.000000
1359,6.000000
1360,44.000000
1361,46.000000
1362,38.000000
1363,-2.000000
1364,-44.000000
1365,18.000000
1366,14.000000
1367,-2.000000
