docs/evidence/raw/2026-09-07/data_20_009off.csv

Channel              :,CH1
Frequency            :,  ?
Period               :,  ?
PK-PK                :,276.0mV
Probe attenuation    :,1X
Voltage per ADC value:,0.250000mV
Time interval        :,100.00000us

index,CH1_Voltage(mV)
1,40.000000
2,40.000000
3,-20.000000
4,-24.000000
5,-28.000000
6,32.000000
7,-64.000000
8,-12.000000
9,-8.000000
10,28.000000
11,0.000000
12,0.000000
13,-8.000000
14,0.000000
15,0.000000
16,0.000000
17,-36.000000
18,4.000000
19,-4.000000
20,40.000000
21,24.000000
22,-8.000000
23,-20.000000
24,-52.000000
25,76.000000
26,4.000000
27,44.000000
28,-4.000000
29,-20.000000
30,8.000000
31,-8.000000
32,-28.000000
33,-16.000000
34,-4.000000
35,-16.000000
36,-44.000000
37,-12.000000
38,-16.000000
39,-12.000000
40,-8.000000
41,8.000000
42,4.000000
43,28.000000
44,-8.000000
45,-20.000000
46,-40.000000
47,0.000000
48,4.000000
49,-20.000000
50,-12.000000
51,0.000000
52,0.000000
53,-24.000000
54,-8.000000
55,-8.000000
56,-8.000000
57,-12.000000
58,-12.000000
59,4.000000
60,-8.000000
61,-12.000000
62,-12.000000
63,-64.000000
64,0.000000
65,20.000000
66,-20.000000
67,-24.000000
68,-8.000000
69,8.000000
70,64.000000
71,-12.000000
72,16.000000
73,-12.000000
74,0.000000
75,20.000000
76,-32.000000
77,-8.000000
78,-8.000000
79,-100.000000
80,0.000000
81,-4.000000
82,40.000000
83,-4.000000
84,0.000000
85,8.000000
86,20.000000
87,-24.000000
88,0.000000
89,-8.000000
90,8.000000
91,-12.000000
92,44.000000
93,-8.000000
94,0.000000
95,4.000000
96,-12.000000
97,-4.000000
98,-4.000000
99,-4.000000
100,-8.000000
101,-8.000000
102,-32.000000
103,-12.000000
104,-4.000000
105,-4.000000
106,0.000000
107,0.000000
108,4.000000
109,-28.000000
110,16.000000
111,-8.000000
112,4.000000
113,4.000000
114,-20.000000
115,-36.000000
116,4.000000
117,-20.000000
118,0.000000
119,0.000000
120,-20.000000
121,0.000000
122,0.000000
123,-60.000000
124,-24.000000
125,-16.000000
126,-16.000000
127,-8.000000
128,24.000000
129,-8.000000
130,-8.000000
131,-24.000000
132,-12.000000
133,-8.000000
134,-24.000000
135,16.000000
136,52.000000
137,-20.000000
138,-4.000000
139,-8.000000
140,24.000000
141,4.000000
142,-28.000000
143,12.000000
144,-32.000000
145,-8.000000
146,-8.000000
147,-20.000000
148,40.000000
149,-24.000000
150,-16.000000
151,-8.000000
152,-12.000000
153,0.000000
154,12.000000
155,-48.000000
156,60.000000
157,-24.000000
158,-12.000000
159,24.000000
160,-24.000000
161,-32.000000
162,28.000000
163,12.000000
164,0.000000
165,-20.000000
166,-8.000000
167,12.000000
168,-4.000000
169,-20.000000
170,16.000000
171,0.000000
172,60.000000
173,-8.000000
174,24.000000
175,0.000000
176,24.000000
177,0.000000
178,0.000000
179,16.000000
180,8.000000
181,-8.000000
182,12.000000
183,-8.000000
184,-8.000000
185,-8.000000
186,-28.000000
187,32.000000
188,-20.000000
189,-16.000000
190,12.000000
191,44.000000
192,-8.000000
193,0.000000
194,4.000000
195,64.000000
196,-16.000000
197,-52.000000
198,-8.000000
199,-8.000000
200,-8.000000
201,8.000000
202,-44.000000
203,16.000000
204,8.000000
205,24.000000
206,-8.000000
207,-20.000000
208,-28.000000
209,8.000000
210,12.000000
211,-24.000000
212,-24.000000
213,60.000000
214,52.000000
215,0.000000
216,0.000000
217,-8.000000
218,44.000000
219,72.000000
220,-16.000000
221,44.000000
222,24.000000
223,12.000000
224,-20.000000
225,28.000000
226,-24.000000
227,16.000000
228,0.000000
229,-4.000000
230,4.000000
231,8.000000
232,8.000000
233,12.000000
234,-4.000000
235,0.000000
236,12.000000
237,-8.000000
238,0.000000
239,-16.000000
240,28.000000
241,-36.000000
242,-12.000000
243,0.000000
244,-12.000000
245,12.000000
246,-16.000000
247,-8.000000
248,28.000000
249,-16.000000
250,-16.000000
251,-36.000000
252,-4.000000
253,-20.000000
254,-16.000000
255,20.000000
256,-24.000000
257,0.000000
258,-32.000000
259,24.000000
260,-8.000000
261,-28.000000
262,-32.000000
263,20.000000
264,44.000000
265,16.000000
266,16.000000
267,12.000000
268,-32.000000
269,-4.000000
270,-16.000000
271,-56.000000
272,0.000000
273,-4.000000
274,-12.000000
275,20.000000
276,4.000000
277,-4.000000
278,-32.000000
279,12.000000
280,-4.000000
281,16.000000
282,-32.000000
283,-20.000000
284,4.000000
285,-8.000000
286,-8.000000
287,0.000000
288,0.000000
289,-12.000000
290,-12.000000
291,-24.000000
292,-28.000000
293,-16.000000
294,-20.000000
295,-20.000000
296,-16.000000
297,28.000000
298,12.000000
299,-8.000000
300,-16.000000
301,-8.000000
302,-8.000000
303,-52.000000
304,-32.000000
305,-8.000000
306,16.000000
307,-8.000000
308,16.000000
309,0.000000
310,-8.000000
311,-16.000000
312,20.000000
313,20.000000
314,16.000000
315,16.000000
316,20.000000
317,8.000000
318,12.000000
319,28.000000
320,-8.000000
321,8.000000
322,-12.000000
323,12.000000
324,-16.000000
325,-60.000000
326,24.000000
327,-36.000000
328,4.000000
329,0.000000
330,24.000000
331,8.000000
332,-20.000000
333,0.000000
334,4.000000
335,60.000000
336,24.000000
337,-4.000000
338,0.000000
339,12.000000
340,-4.000000
341,-8.000000
342,4.000000
343,0.000000
344,8.000000
345,0.000000
346,24.000000
347,16.000000
348,16.000000
349,32.000000
350,8.000000
351,4.000000
352,-8.000000
353,16.000000
354,16.000000
355,-8.000000
356,0.000000
357,4.000000
358,-8.000000
359,0.000000
360,-44.000000
361,-28.000000
362,-8.000000
363,-4.000000
364,-28.000000
365,24.000000
366,-24.000000
367,40.000000
368,76.000000
369,0.000000
370,0.000000
371,-40.000000
372,60.000000
373,-16.000000
374,-20.000000
375,0.000000
376,16.000000
377,8.000000
378,-8.000000
379,-16.000000
380,0.000000
381,-8.000000
382,-36.000000
383,16.000000
384,44.000000
385,0.000000
386,16.000000
387,-8.000000
388,-8.000000
389,8.000000
390,-28.000000
391,44.000000
392,-8.000000
393,8.000000
394,-4.000000
395,12.000000
396,-16.000000
397,-60.000000
398,-20.000000
399,-4.000000
400,0.000000
401,20.000000
402,44.000000
403,-24.000000
404,-24.000000
405,4.000000
406,4.000000
407,-24.000000
408,-24.000000
409,8.000000
410,-20.000000
411,4.000000
412,-52.000000
413,16.000000
414,16.000000
415,-24.000000
416,44.000000
417,0.000000
418,4.000000
419,-24.000000
420,32.000000
421,-20.000000
422,0.000000
423,-12.000000
424,16.000000
425,-4.000000
426,-8.000000
427,32.000000
428,4.000000
429,20.000000
430,0.000000
431,68.000000
432,20.000000
433,-8.000000
434,-12.000000
435,-20.000000
436,20.000000
437,4.000000
438,60.000000
439,28.000000
440,16.000000
441,40.000000
442,0.000000
443,-4.000000
444,-8.000000
445,-40.000000
446,-20.000000
447,-8.000000
448,0.000000
449,-32.000000
450,44.000000
451,-8.000000
452,-16.000000
453,-24.000000
454,52.000000
455,24.000000
456,44.000000
457,-4.000000
458,-28.000000
459,-16.000000
460,0.000000
461,-40.000000
462,-56.000000
463,-12.000000
464,4.000000
465,-8.000000
466,4.000000
467,-12.000000
468,-12.000000
469,16.000000
470,-16.000000
471,-44.000000
472,0.000000
473,8.000000
474,0.000000
475,-16.000000
476,-8.000000
477,-8.000000
478,-8.000000
479,24.000000
480,-12.000000
481,-24.000000
482,16.000000
483,-4.000000
484,-12.000000
485,-132.000000
486,-20.000000
487,-40.000000
488,-16.000000
489,20.000000
490,0.000000
491,12.000000
492,-12.000000
493,-20.000000
494,12.000000
495,12.000000
496,12.000000
497,12.000000
498,-20.000000
499,4.000000
500,-36.000000
501,20.000000
502,-8.000000
503,40.000000
504,-8.000000
505,20.000000
506,24.000000
507,40.000000
508,-12.000000
509,20.000000
510,-60.000000
511,-8.000000
512,-8.000000
513,4.000000
514,-28.000000
515,0.000000
516,-36.000000
517,20.000000
518,-8.000000
519,-8.000000
520,28.000000
521,76.000000
522,28.000000
523,-40.000000
524,-52.000000
525,-4.000000
526,0.000000
527,-8.000000
528,-8.000000
529,-28.000000
530,0.000000
531,-28.000000
532,-8.000000
533,-32.000000
534,4.000000
535,4.000000
536,-24.000000
537,-24.000000
538,-8.000000
539,4.000000
540,-24.000000
541,-20.000000
542,12.000000
543,0.000000
544,20.000000
545,-8.000000
546,-24.000000
547,80.000000
548,-20.000000
549,-12.000000
550,16.000000
551,-12.000000
552,-52.000000
553,-4.000000
554,4.000000
555,-52.000000
556,-40.000000
557,16.000000
558,-28.000000
559,-8.000000
560,-12.000000
561,-4.000000
562,28.000000
563,-48.000000
564,-20.000000
565,-4.000000
566,-12.000000
567,0.000000
568,-12.000000
569,-32.000000
570,64.000000
571,-28.000000
572,-28.000000
573,-20.000000
574,8.000000
575,-8.000000
576,-8.000000
577,20.000000
578,-32.000000
579,-20.000000
580,28.000000
581,32.000000
582,-20.000000
583,-12.000000
584,0.000000
585,-8.000000
586,28.000000
587,64.000000
588,-24.000000
589,-20.000000
590,-8.000000
591,24.000000
592,24.000000
593,-8.000000
594,0.000000
595,-52.000000
596,4.000000
597,20.000000
598,-8.000000
599,-40.000000
600,-16.000000
601,-8.000000
602,-8.000000
603,8.000000
604,-28.000000
605,24.000000
606,0.000000
607,20.000000
608,-28.000000
609,-12.000000
610,-8.000000
611,-8.000000
612,20.000000
613,-16.000000
614,84.000000
615,8.000000
616,12.000000
617,0.000000
618,4.000000
619,-44.000000
620,0.000000
621,4.000000
622,4.000000
623,-12.000000
624,-36.000000
625,4.000000
626,-40.000000
627,16.000000
628,4.000000
629,-4.000000
630,-4.000000
631,20.000000
632,16.000000
633,-32.000000
634,-8.000000
635,-4.000000
636,-8.000000
637,4.000000
638,-24.000000
639,-8.000000
640,4.000000
641,16.000000
642,-60.000000
643,-16.000000
644,0.000000
645,-64.000000
646,-36.000000
647,-12.000000
648,44.000000
649,-16.000000
650,-8.000000
651,-16.000000
652,0.000000
653,12.000000
654,8.000000
655,-24.000000
656,-24.000000
657,-12.000000
658,-24.000000
659,-8.000000
660,-32.000000
661,20.000000
662,8.000000
663,-8.000000
664,-28.000000
665,-8.000000
666,-16.000000
667,-8.000000
668,4.000000
669,28.000000
670,-20.000000
671,0.000000
672,12.000000
673,-28.000000
674,-36.000000
675,-16.000000
676,-24.000000
677,-4.000000
678,4.000000
679,60.000000
680,44.000000
681,4.000000
682,-60.000000
683,-16.000000
684,0.000000
685,-28.000000
686,20.000000
687,-24.000000
688,76.000000
689,8.000000
690,-4.000000
691,4.000000
692,0.000000
693,64.000000
694,20.000000
695,-8.000000
696,-32.000000
697,0.000000
698,-16.000000
699,0.000000
700,60.000000
701,32.000000
702,-4.000000
703,28.000000
704,-8.000000
705,-36.000000
706,-28.000000
707,0.000000
708,0.000000
709,-28.000000
710,-28.000000
711,-24.000000
712,0.000000
713,12.000000
714,-12.000000
715,-20.000000
716,-8.000000
717,0.000000
718,-12.000000
719,4.000000
720,0.000000
721,56.000000
722,20.000000
723,4.000000
724,0.000000
725,-8.000000
726,76.000000
727,44.000000
728,32.000000
729,8.000000
730,4.000000
731,8.000000
732,0.000000
733,8.000000
734,88.000000
735,-8.000000
736,44.000000
737,52.000000
738,-44.000000
739,-12.000000
740,52.000000
741,-24.000000
742,4.000000
743,12.000000
744,-20.000000
745,40.000000
746,0.000000
747,-8.000000
748,-20.000000
749,-16.000000
750,-20.000000
751,64.000000
752,52.000000
753,12.000000
754,28.000000
755,40.000000
756,-4.000000
757,24.000000
758,16.000000
759,8.000000
760,4.000000
761,-32.000000
762,0.000000
763,12.000000
764,-32.000000
765,20.000000
766,-8.000000
767,0.000000
768,4.000000
769,-72.000000
770,-8.000000
771,-20.000000
772,-28.000000
773,4.000000
774,0.000000
775,-8.000000
776,44.000000
777,-20.000000
778,-36.000000
779,-36.000000
780,16.000000
781,-12.000000
782,-12.000000
783,60.000000
784,-16.000000
785,-48.000000
786,-12.000000
787,-24.000000
788,64.000000
789,16.000000
790,24.000000
791,8.000000
792,-44.000000
793,-16.000000
794,-16.000000
795,-44.000000
796,-16.000000
797,24.000000
798,-8.000000
799,8.000000
800,4.000000
801,0.000000
802,-56.000000
803,0.000000
804,24.000000
805,32.000000
806,0.000000
807,24.000000
808,-60.000000
809,4.000000
810,52.000000
811,-16.000000
812,20.000000
813,-12.000000
814,0.000000
815,60.000000
816,16.000000
817,0.000000
818,-32.000000
819,-28.000000
820,0.000000
821,0.000000
822,-4.000000
823,28.000000
824,-12.000000
825,8.000000
826,4.000000
827,-56.000000
828,-12.000000
829,12.000000
830,0.000000
831,-8.000000
832,0.000000
833,-16.000000
834,-16.000000
835,-8.000000
836,-28.000000
837,28.000000
838,-4.000000
839,-44.000000
840,12.000000
841,4.000000
842,-24.000000
843,-16.000000
844,-4.000000
845,-16.000000
846,-24.000000
847,28.000000
848,-8.000000
849,-8.000000
850,0.000000
851,-32.000000
852,0.000000
853,8.000000
854,-24.000000
855,0.000000
856,-8.000000
857,0.000000
858,-8.000000
859,0.000000
860,32.000000
861,-8.000000
862,-8.000000
863,-12.000000
864,52.000000
865,-8.000000
866,-4.000000
867,0.000000
868,-24.000000
869,4.000000
870,24.000000
871,-36.000000
872,0.000000
873,28.000000
874,-16.000000
875,-8.000000
876,-24.000000
877,-20.000000
878,-8.000000
879,0.000000
880,24.000000
881,12.000000
882,12.000000
883,-8.000000
884,-8.000000
885,-8.000000
886,-48.000000
887,-28.000000
888,-20.000000
889,0.000000
890,-8.000000
891,0.000000
892,4.000000
893,16.000000
894,40.000000
895,0.000000
896,28.000000
897,0.000000
898,4.000000
899,0.000000
900,16.000000
901,0.000000
902,0.000000
903,-16.000000
904,16.000000
905,-28.000000
906,20.000000
907,24.000000
908,16.000000
909,0.000000
910,0.000000
911,-16.000000
912,-4.000000
913,68.000000
914,-20.000000
915,-16.000000
916,-24.000000
917,-16.000000
918,-16.000000
919,-32.000000
920,20.000000
921,24.000000
922,-12.000000
923,40.000000
924,-8.000000
925,-28.000000
926,-8.000000
927,8.000000
928,-36.000000
929,44.000000
930,-4.000000
931,-20.000000
932,-36.000000
933,-8.000000
934,32.000000
935,-32.000000
936,12.000000
937,4.000000
938,-32.000000
939,-8.000000
940,-8.000000
941,52.000000
942,-8.000000
943,-12.000000
944,-16.000000
945,68.000000
946,-4.000000
947,-28.000000
948,-32.000000
949,64.000000
950,-12.000000
951,4.000000
952,52.000000
953,4.000000
954,12.000000
955,12.000000
956,-28.000000
957,-16.000000
958,-8.000000
959,-40.000000
960,-8.000000
961,-12.000000
962,-4.000000
963,-8.000000
964,-20.000000
965,32.000000
966,0.000000
967,-4.000000
968,40.000000
969,-24.000000
970,0.000000
971,-48.000000
972,-20.000000
973,52.000000
974,-8.000000
975,-12.000000
976,16.000000
977,0.000000
978,40.000000
979,-28.000000
980,-24.000000
981,-4.000000
982,112.000000
983,-16.000000
984,32.000000
985,12.000000
986,32.000000
987,-12.000000
988,0.000000
989,-48.000000
990,8.000000
991,-32.000000
992,-8.000000
993,16.000000
994,-92.000000
995,16.000000
996,20.000000
997,-16.000000
998,16.000000
999,52.000000
1000,-16.000000
1001,-36.000000
1002,-16.000000
1003,16.000000
1004,20.000000
1005,52.000000
1006,16.000000
1007,-4.000000
1008,52.000000
1009,4.000000
1010,0.000000
1011,4.000000
1012,32.000000
1013,16.000000
1014,-12.000000
1015,-12.000000
1016,40.000000
1017,-16.000000
1018,12.000000
1019,-8.000000
1020,8.000000
1021,-32.000000
1022,-44.000000
1023,16.000000
1024,-12.000000
1025,0.000000
1026,4.000000
1027,-12.000000
1028,-8.000000
1029,-24.000000
1030,24.000000
1031,20.000000
1032,20.000000
1033,44.000000
1034,4.000000
1035,-72.000000
1036,-8.000000
1037,-16.000000
1038,-16.000000
1039,0.000000
1040,12.000000
1041,-20.000000
1042,-8.000000
1043,-16.000000
1044,4.000000
1045,-12.000000
1046,-12.000000
1047,-16.000000
1048,-12.000000
1049,28.000000
1050,8.000000
1051,8.000000
1052,-8.000000
1053,-36.000000
1054,4.000000
1055,0.000000
1056,44.000000
1057,-20.000000
1058,-48.000000
1059,-24.000000
1060,44.000000
1061,12.000000
1062,-20.000000
1063,-32.000000
1064,-16.000000
1065,-8.000000
1066,-44.000000
1067,-16.000000
1068,0.000000
1069,-4.000000
1070,0.000000
1071,28.000000
1072,20.000000
1073,-16.000000
1074,-16.000000
1075,-36.000000
1076,-4.000000
1077,28.000000
1078,16.000000
1079,16.000000
1080,4.000000
1081,-20.000000
1082,-20.000000
1083,56.000000
1084,-24.000000
1085,-20.000000
1086,-16.000000
1087,-24.000000
1088,28.000000
1089,-28.000000
1090,8.000000
1091,-20.000000
1092,8.000000
1093,44.000000
1094,-4.000000
1095,-4.000000
1096,4.000000
1097,-8.000000
1098,52.000000
1099,52.000000
1100,-4.000000
1101,8.000000
1102,-12.000000
1103,16.000000
1104,-16.000000
1105,-4.000000
1106,-96.000000
1107,-20.000000
1108,-28.000000
1109,4.000000
1110,-16.000000
1111,16.000000
1112,20.000000
1113,24.000000
1114,16.000000
1115,20.000000
1116,-56.000000
1117,-12.000000
1118,-12.000000
1119,-52.000000
1120,8.000000
1121,4.000000
1122,-20.000000
1123,12.000000
1124,24.000000
1125,0.000000
1126,-12.000000
1127,-8.000000
1128,-8.000000
1129,0.000000
1130,-20.000000
1131,16.000000
1132,-4.000000
1133,60.000000
1134,-48.000000
1135,-40.000000
1136,-40.000000
1137,-8.000000
1138,-8.000000
1139,68.000000
1140,-12.000000
1141,0.000000
1142,8.000000
1143,-8.000000
1144,-12.000000
1145,-16.000000
1146,12.000000
1147,16.000000
1148,-4.000000
1149,4.000000
1150,-8.000000
1151,24.000000
1152,-8.000000
1153,-8.000000
1154,-8.000000
1155,24.000000
1156,-8.000000
1157,-60.000000
1158,-16.000000
1159,-8.000000
1160,16.000000
1161,4.000000
1162,-52.000000
1163,20.000000
1164,-8.000000
1165,24.000000
1166,-4.000000
1167,12.000000
1168,-16.000000
1169,-16.000000
1170,-16.000000
1171,0.000000
1172,52.000000
1173,-8.000000
1174,-64.000000
1175,-24.000000
1176,16.000000
1177,-4.000000
1178,-32.000000
1179,-8.000000
1180,4.000000
1181,-20.000000
1182,-20.000000
1183,0.000000
1184,-8.000000
1185,48.000000
1186,20.000000
1187,60.000000
1188,-4.000000
1189,-20.000000
1190,-20.000000
1191,-12.000000
1192,-8.000000
1193,-12.000000
1194,-8.000000
1195,-8.000000
1196,-8.000000
1197,-16.000000
1198,-24.000000
1199,-8.000000
1200,-8.000000
1201,16.000000
1202,24.000000
1203,-4.000000
1204,-12.000000
1205,-64.000000
1206,52.000000
1207,-8.000000
1208,-16.000000
1209,0.000000
1210,0.000000
1211,-16.000000
1212,0.000000
1213,-44.000000
1214,-8.000000
1215,-12.000000
1216,24.000000
1217,8.000000
1218,-16.000000
1219,16.000000
1220,-60.000000
1221,16.000000
1222,8.000000
1223,8.000000
1224,24.000000
1225,8.000000
1226,-12.000000
1227,0.000000
1228,-8.000000
1229,16.000000
1230,8.000000
1231,4.000000
1232,4.000000
1233,0.000000
1234,12.000000
1235,-24.000000
1236,52.000000
1237,-20.000000
1238,12.000000
1239,-24.000000
1240,0.000000
1241,0.000000
1242,8.000000
1243,-8.000000
1244,-4.000000
1245,16.000000
1246,0.000000
1247,-8.000000
1248,4.000000
1249,8.000000
1250,-12.000000
1251,0.000000
1252,16.000000
1253,8.000000
1254,-16.000000
1255,-16.000000
1256,8.000000
1257,-8.000000
1258,-12.000000
1259,0.000000
1260,16.000000
1261,-16.000000
1262,-16.000000
1263,-24.000000
1264,-28.000000
1265,-12.000000
1266,12.000000
1267,12.000000
1268,-20.000000
1269,20.000000
1270,-12.000000
1271,20.000000
1272,60.000000
1273,-4.000000
1274,0.000000
1275,20.000000
1276,0.000000
1277,-24.000000
1278,-8.000000
1279,-8.000000
1280,40.000000
1281,12.000000
1282,-4.000000
1283,-12.000000
1284,-32.000000
1285,16.000000
1286,-96.000000
1287,0.000000
1288,-8.000000
1289,12.000000
1290,8.000000
1291,-4.000000
1292,-4.000000
1293,-32.000000
1294,-4.000000
1295,24.000000
1296,-20.000000
1297,-4.000000
1298,-8.000000
1299,20.000000
1300,12.000000
1301,40.000000
1302,8.000000
1303,24.000000
1304,-20.000000
1305,0.000000
1306,-12.000000
1307,16.000000
1308,-28.000000
1309,8.000000
1310,16.000000
1311,-56.000000
1312,4.000000
1313,8.000000
1314,4.000000
1315,-4.000000
1316,24.000000
1317,16.000000
1318,-8.000000
1319,0.000000
1320,4.000000
1321,-24.000000
1322,44.000000
1323,-4.000000
1324,-16.000000
1325,-24.000000
1326,-8.000000
1327,68.000000
1328,-32.000000
1329,-28.000000
1330,-12.000000
1331,-60.000000
1332,24.000000
1333,12.000000
1334,72.000000
1335,-16.000000
1336,-12.000000
1337,76.000000
1338,-40.000000
1339,72.000000
1340,-48.000000
1341,-24.000000
1342,0.000000
1343,12.000000
1344,12.000000
1345,0.000000
1346,16.000000
1347,52.000000
1348,0.000000
1349,-8.000000
1350,28.000000
1351,-16.000000
1352,28.000000
1353,0.000000
1354,-4.000000
1355,0.000000
1356,0.000000
1357,40.000000
1358,-8.000000
1359,-4.000000
1360,-8.000000
1361,28.000000
1362,4.000000
1363,-36.000000
1364,0.000000
1365,76.000000
1366,-24.000000
1367,-4.000000
1368,32.000000
1369,0.000000
1370,-60.000000
1371,-8.000000
1372,-8.000000
1373,-36.000000
1374,-32.000000
1375,-12.000000
1376,-12.000000
1377,-28.000000
1378,-4.000000
1379,-24.000000
