docs/evidence/raw/2026-09-07/data_20_017-6v.csv

Channel              :,CH1
Frequency            :,  ?
Period               :,  ?
PK-PK                :,248.0mV
Probe attenuation    :,1X
Voltage per ADC value:,0.250000mV
Time interval        :,100.00000us

index,CH1_Voltage(mV)
1,44.000000
2,44.000000
3,-32.000000
4,-32.000000
5,16.000000
6,-16.000000
7,-24.000000
8,40.000000
9,-24.000000
10,-24.000000
11,-32.000000
12,76.000000
13,-8.000000
14,-8.000000
15,4.000000
16,-8.000000
17,4.000000
18,52.000000
19,8.000000
20,16.000000
21,0.000000
22,4.000000
23,0.000000
24,-12.000000
25,-24.000000
26,-8.000000
27,32.000000
28,-16.000000
29,4.000000
30,4.000000
31,20.000000
32,44.000000
33,8.000000
34,-52.000000
35,16.000000
36,12.000000
37,0.000000
38,-8.000000
39,32.000000
40,16.000000
41,32.000000
42,16.000000
43,20.000000
44,20.000000
45,0.000000
46,24.000000
47,40.000000
48,4.000000
49,20.000000
50,16.000000
51,0.000000
52,4.000000
53,4.000000
54,-20.000000
55,-8.000000
56,20.000000
57,-16.000000
58,-24.000000
59,-16.000000
60,-28.000000
61,-36.000000
62,-32.000000
63,0.000000
64,-16.000000
65,0.000000
66,-48.000000
67,16.000000
68,56.000000
69,-8.000000
70,-16.000000
71,-32.000000
72,8.000000
73,-40.000000
74,-28.000000
75,-44.000000
76,-48.000000
77,-8.000000
78,-8.000000
79,-16.000000
80,4.000000
81,-40.000000
82,-8.000000
83,-16.000000
84,-24.000000
85,-32.000000
86,-44.000000
87,-44.000000
88,-36.000000
89,0.000000
90,-32.000000
91,-28.000000
92,-32.000000
93,-8.000000
94,-16.000000
95,-24.000000
96,16.000000
97,-12.000000
98,-16.000000
99,-20.000000
100,-44.000000
101,-8.000000
102,28.000000
103,8.000000
104,40.000000
105,-44.000000
106,0.000000
107,16.000000
108,16.000000
109,-12.000000
110,8.000000
111,24.000000
112,-8.000000
113,44.000000
114,-4.000000
115,52.000000
116,-12.000000
117,-12.000000
118,-16.000000
119,16.000000
120,16.000000
121,20.000000
122,68.000000
123,-8.000000
124,-4.000000
125,16.000000
126,4.000000
127,0.000000
128,0.000000
129,44.000000
130,44.000000
131,-12.000000
132,8.000000
133,28.000000
134,44.000000
135,16.000000
136,20.000000
137,20.000000
138,-36.000000
139,-20.000000
140,-8.000000
141,-68.000000
142,-28.000000
143,-12.000000
144,-12.000000
145,-16.000000
146,44.000000
147,44.000000
148,-48.000000
149,40.000000
150,-16.000000
151,8.000000
152,-16.000000
153,-8.000000
154,-12.000000
155,20.000000
156,-12.000000
157,44.000000
158,12.000000
159,12.000000
160,-52.000000
161,-8.000000
162,-8.000000
163,0.000000
164,-8.000000
165,8.000000
166,-40.000000
167,-32.000000
168,-32.000000
169,-24.000000
170,-8.000000
171,0.000000
172,-8.000000
173,-8.000000
174,-12.000000
175,-24.000000
176,12.000000
177,8.000000
178,-24.000000
179,-12.000000
180,-8.000000
181,8.000000
182,28.000000
183,4.000000
184,0.000000
185,-12.000000
186,12.000000
187,-16.000000
188,-8.000000
189,4.000000
190,-60.000000
191,-8.000000
192,0.000000
193,-40.000000
194,0.000000
195,40.000000
196,8.000000
197,20.000000
198,-8.000000
199,0.000000
200,0.000000
201,-8.000000
202,16.000000
203,32.000000
204,-52.000000
205,36.000000
206,40.000000
207,4.000000
208,16.000000
209,-12.000000
210,48.000000
211,0.000000
212,-8.000000
213,-36.000000
214,12.000000
215,0.000000
216,32.000000
217,8.000000
218,8.000000
219,12.000000
220,-12.000000
221,-20.000000
222,-60.000000
223,12.000000
224,-28.000000
225,0.000000
226,-20.000000
227,-8.000000
228,-36.000000
229,4.000000
230,-28.000000
231,-24.000000
232,-16.000000
233,-32.000000
234,0.000000
235,-8.000000
236,-40.000000
237,-24.000000
238,-16.000000
239,-16.000000
240,-44.000000
241,64.000000
242,-20.000000
243,44.000000
244,12.000000
245,24.000000
246,-12.000000
247,-24.000000
248,-12.000000
249,-16.000000
250,0.000000
251,12.000000
252,24.000000
253,44.000000
254,-12.000000
255,-4.000000
256,-60.000000
257,0.000000
258,-8.000000
259,-28.000000
260,-20.000000
261,8.000000
262,12.000000
263,32.000000
264,24.000000
265,-36.000000
266,4.000000
267,16.000000
268,-4.000000
269,0.000000
270,48.000000
271,-36.000000
272,32.000000
273,0.000000
274,-8.000000
275,-12.000000
276,-8.000000
277,8.000000
278,8.000000
279,-36.000000
280,24.000000
281,-8.000000
282,24.000000
283,24.000000
284,24.000000
285,12.000000
286,0.000000
287,24.000000
288,-44.000000
289,4.000000
290,8.000000
291,-16.000000
292,-16.000000
293,0.000000
294,8.000000
295,8.000000
296,8.000000
297,28.000000
298,-16.000000
299,-16.000000
300,4.000000
301,-16.000000
302,8.000000
303,-8.000000
304,-24.000000
305,-12.000000
306,-60.000000
307,-8.000000
308,-28.000000
309,-4.000000
310,-24.000000
311,-24.000000
312,44.000000
313,-8.000000
314,-8.000000
315,-28.000000
316,-24.000000
317,-32.000000
318,-16.000000
319,20.000000
320,-20.000000
321,-8.000000
322,-24.000000
323,-40.000000
324,16.000000
325,-44.000000
326,20.000000
327,-24.000000
328,-8.000000
329,-20.000000
330,0.000000
331,-8.000000
332,-8.000000
333,-20.000000
334,52.000000
335,32.000000
336,-28.000000
337,-32.000000
338,32.000000
339,-24.000000
340,0.000000
341,20.000000
342,-8.000000
343,12.000000
344,24.000000
345,44.000000
346,-28.000000
347,-24.000000
348,16.000000
349,20.000000
350,-8.000000
351,24.000000
352,8.000000
353,-4.000000
354,52.000000
355,0.000000
356,4.000000
357,28.000000
358,-24.000000
359,16.000000
360,20.000000
361,28.000000
362,-12.000000
363,16.000000
364,8.000000
365,-8.000000
366,-8.000000
367,-56.000000
368,0.000000
369,-28.000000
370,-8.000000
371,28.000000
372,-24.000000
373,-48.000000
374,-24.000000
375,-32.000000
376,0.000000
377,-16.000000
378,-8.000000
379,0.000000
380,-20.000000
381,-60.000000
382,-8.000000
383,-40.000000
384,0.000000
385,-108.000000
386,-4.000000
387,16.000000
388,0.000000
389,-20.000000
390,-20.000000
391,20.000000
392,-8.000000
393,20.000000
394,-24.000000
395,4.000000
396,0.000000
397,44.000000
398,-16.000000
399,24.000000
400,-24.000000
401,-4.000000
402,36.000000
403,64.000000
404,-8.000000
405,56.000000
406,0.000000
407,0.000000
408,4.000000
409,12.000000
410,-24.000000
411,16.000000
412,-4.000000
413,-12.000000
414,0.000000
415,0.000000
416,20.000000
417,4.000000
418,4.000000
419,-28.000000
420,8.000000
421,12.000000
422,44.000000
423,4.000000
424,60.000000
425,0.000000
426,12.000000
427,-20.000000
428,-16.000000
429,12.000000
430,40.000000
431,-36.000000
432,-4.000000
433,-16.000000
434,-12.000000
435,-8.000000
436,20.000000
437,-8.000000
438,-48.000000
439,-20.000000
440,-12.000000
441,-4.000000
442,0.000000
443,-16.000000
444,52.000000
445,-24.000000
446,-24.000000
447,-24.000000
448,-44.000000
449,-16.000000
450,-16.000000
451,-12.000000
452,-40.000000
453,16.000000
454,-32.000000
455,-8.000000
456,52.000000
457,-44.000000
458,-28.000000
459,-16.000000
460,28.000000
461,-12.000000
462,-24.000000
463,72.000000
464,-36.000000
465,-4.000000
466,0.000000
467,-28.000000
468,-28.000000
469,-12.000000
470,44.000000
471,-48.000000
472,-12.000000
473,0.000000
474,-16.000000
475,16.000000
476,60.000000
477,0.000000
478,8.000000
479,8.000000
480,8.000000
481,4.000000
482,4.000000
483,-4.000000
484,-20.000000
485,64.000000
486,-20.000000
487,-36.000000
488,-8.000000
489,28.000000
490,24.000000
491,20.000000
492,52.000000
493,36.000000
494,96.000000
495,-52.000000
496,64.000000
497,52.000000
498,64.000000
499,4.000000
500,16.000000
501,32.000000
502,0.000000
503,-16.000000
504,12.000000
505,-8.000000
506,0.000000
507,8.000000
508,16.000000
509,20.000000
510,-24.000000
511,16.000000
512,16.000000
513,-8.000000
514,8.000000
515,-24.000000
516,12.000000
517,0.000000
518,-24.000000
519,-56.000000
520,-16.000000
521,-36.000000
522,-32.000000
523,-8.000000
524,16.000000
525,-24.000000
526,-20.000000
527,-32.000000
528,-28.000000
529,-4.000000
530,-8.000000
531,-24.000000
532,-20.000000
533,-48.000000
534,60.000000
535,-12.000000
536,-28.000000
537,-4.000000
538,-8.000000
539,-28.000000
540,-48.000000
541,0.000000
542,-40.000000
543,-16.000000
544,-24.000000
545,-16.000000
546,20.000000
547,24.000000
548,-4.000000
549,-4.000000
550,-52.000000
551,28.000000
552,-8.000000
553,-16.000000
554,-4.000000
555,12.000000
556,8.000000
557,-8.000000
558,12.000000
559,28.000000
560,-12.000000
561,-80.000000
562,4.000000
563,20.000000
564,-40.000000
565,20.000000
566,16.000000
567,0.000000
568,-32.000000
569,32.000000
570,-44.000000
571,4.000000
572,-4.000000
573,24.000000
574,40.000000
575,-12.000000
576,24.000000
577,-4.000000
578,44.000000
579,8.000000
580,16.000000
581,-8.000000
582,-40.000000
583,20.000000
584,20.000000
585,0.000000
586,0.000000
587,12.000000
588,20.000000
589,20.000000
590,-12.000000
591,24.000000
592,28.000000
593,-4.000000
594,-4.000000
595,-32.000000
596,-4.000000
597,-12.000000
598,-32.000000
599,0.000000
600,-60.000000
601,4.000000
602,4.000000
603,-8.000000
604,-32.000000
605,-20.000000
606,-20.000000
607,-20.000000
608,-20.000000
609,-8.000000
610,-8.000000
611,64.000000
612,-80.000000
613,-28.000000
614,-28.000000
615,-36.000000
616,-40.000000
617,0.000000
618,20.000000
619,-16.000000
620,52.000000
621,52.000000
622,-12.000000
623,32.000000
624,-52.000000
625,0.000000
626,32.000000
627,16.000000
628,-12.000000
629,24.000000
630,-24.000000
631,16.000000
632,40.000000
633,16.000000
634,12.000000
635,-32.000000
636,4.000000
637,20.000000
638,0.000000
639,4.000000
640,-24.000000
641,-20.000000
642,16.000000
643,-12.000000
644,-4.000000
645,48.000000
646,8.000000
647,32.000000
648,52.000000
649,-20.000000
650,-12.000000
651,20.000000
652,-8.000000
653,52.000000
654,44.000000
655,0.000000
656,-12.000000
657,36.000000
658,-16.000000
659,24.000000
660,24.000000
661,-8.000000
662,16.000000
663,52.000000
664,-16.000000
665,-36.000000
666,-8.000000
667,-100.000000
668,-4.000000
669,-68.000000
670,-8.000000
671,44.000000
672,16.000000
673,0.000000
674,8.000000
675,-8.000000
676,-24.000000
677,-24.000000
678,-28.000000
679,-32.000000
680,-72.000000
681,28.000000
682,-8.000000
683,-8.000000
684,-28.000000
685,-40.000000
686,-28.000000
687,-28.000000
688,-36.000000
689,-28.000000
690,-8.000000
691,-28.000000
692,-24.000000
693,-24.000000
694,-16.000000
695,-8.000000
696,-4.000000
697,16.000000
698,-28.000000
699,-12.000000
700,8.000000
701,-16.000000
702,68.000000
703,4.000000
704,-20.000000
705,4.000000
706,32.000000
707,20.000000
708,-20.000000
709,4.000000
710,-4.000000
711,-8.000000
712,-8.000000
713,12.000000
714,0.000000
715,36.000000
716,-12.000000
717,-28.000000
718,24.000000
719,-16.000000
720,-8.000000
721,12.000000
722,12.000000
723,-52.000000
724,-20.000000
725,4.000000
726,32.000000
727,-20.000000
728,0.000000
729,96.000000
730,-28.000000
731,-8.000000
732,-28.000000
733,24.000000
734,-32.000000
735,28.000000
736,-20.000000
737,-16.000000
738,-16.000000
739,-16.000000
740,-20.000000
741,20.000000
742,-8.000000
743,-24.000000
744,12.000000
745,-16.000000
746,12.000000
747,-32.000000
748,-28.000000
749,68.000000
750,-16.000000
751,-4.000000
752,60.000000
753,52.000000
754,-8.000000
755,-28.000000
756,-12.000000
757,16.000000
758,-4.000000
759,-24.000000
760,-40.000000
761,-32.000000
762,-8.000000
763,-24.000000
764,-8.000000
765,4.000000
766,-12.000000
767,-60.000000
768,24.000000
769,52.000000
770,44.000000
771,8.000000
772,-16.000000
773,-8.000000
774,-8.000000
775,-36.000000
776,-8.000000
777,-8.000000
778,-8.000000
779,-8.000000
780,12.000000
781,-4.000000
782,12.000000
783,0.000000
784,12.000000
785,8.000000
786,4.000000
787,16.000000
788,-32.000000
789,0.000000
790,28.000000
791,-16.000000
792,0.000000
793,20.000000
794,28.000000
795,36.000000
796,-4.000000
797,12.000000
798,-12.000000
799,-12.000000
800,16.000000
801,0.000000
802,8.000000
803,12.000000
804,8.000000
805,4.000000
806,-4.000000
807,-8.000000
808,-8.000000
809,-72.000000
810,8.000000
811,4.000000
812,52.000000
813,-28.000000
814,-40.000000
815,24.000000
816,12.000000
817,-56.000000
818,-16.000000
819,-8.000000
820,-24.000000
821,-28.000000
822,-32.000000
823,-44.000000
824,24.000000
825,-28.000000
826,20.000000
827,40.000000
828,-8.000000
829,-32.000000
830,-32.000000
831,-40.000000
832,-44.000000
833,-8.000000
834,120.000000
835,0.000000
836,-32.000000
837,-44.000000
838,4.000000
839,-28.000000
840,-32.000000
841,-8.000000
842,-32.000000
843,-8.000000
844,20.000000
845,-32.000000
846,-28.000000
847,-20.000000
848,16.000000
849,-24.000000
850,-20.000000
851,0.000000
852,12.000000
853,-16.000000
854,-12.000000
855,-8.000000
856,4.000000
857,-4.000000
858,-8.000000
859,-4.000000
860,-8.000000
861,12.000000
862,-16.000000
863,-28.000000
864,20.000000
865,32.000000
866,4.000000
867,0.000000
868,-16.000000
869,-8.000000
870,-32.000000
871,-12.000000
872,28.000000
873,-16.000000
874,16.000000
875,12.000000
876,12.000000
877,-8.000000
878,-24.000000
879,44.000000
880,12.000000
881,-4.000000
882,-12.000000
883,24.000000
884,0.000000
885,8.000000
886,12.000000
887,-8.000000
888,-8.000000
889,24.000000
890,-44.000000
891,-8.000000
892,24.000000
893,16.000000
894,-8.000000
895,-8.000000
896,-48.000000
897,-40.000000
898,-32.000000
899,-28.000000
900,0.000000
901,4.000000
902,-12.000000
903,-12.000000
904,16.000000
905,0.000000
906,-28.000000
907,52.000000
908,-32.000000
909,-24.000000
910,-24.000000
911,-12.000000
912,-40.000000
913,40.000000
914,0.000000
915,-12.000000
916,-40.000000
917,-24.000000
918,-24.000000
919,-24.000000
920,12.000000
921,-4.000000
922,-8.000000
923,-28.000000
924,72.000000
925,0.000000
926,-20.000000
927,52.000000
928,-28.000000
929,40.000000
930,0.000000
931,8.000000
932,0.000000
933,52.000000
934,-8.000000
935,36.000000
936,-20.000000
937,24.000000
938,-8.000000
939,-24.000000
940,-12.000000
941,-4.000000
942,0.000000
943,-8.000000
944,16.000000
945,20.000000
946,-28.000000
947,8.000000
948,8.000000
949,36.000000
950,-8.000000
951,16.000000
952,0.000000
953,-32.000000
954,44.000000
955,12.000000
956,32.000000
957,36.000000
958,20.000000
959,8.000000
960,8.000000
961,56.000000
962,8.000000
963,20.000000
964,44.000000
965,0.000000
966,4.000000
967,4.000000
968,-36.000000
969,0.000000
970,-72.000000
971,24.000000
972,-20.000000
973,-20.000000
974,0.000000
975,-20.000000
976,-24.000000
977,-4.000000
978,-48.000000
979,60.000000
980,-8.000000
981,-4.000000
982,-20.000000
983,-8.000000
984,-20.000000
985,-40.000000
986,-48.000000
987,-40.000000
988,-24.000000
989,12.000000
990,4.000000
991,-24.000000
992,-8.000000
993,-28.000000
994,-28.000000
995,-8.000000
996,-16.000000
997,-16.000000
998,24.000000
999,-32.000000
1000,-12.000000
1001,0.000000
1002,12.000000
1003,-52.000000
1004,16.000000
1005,44.000000
1006,-12.000000
1007,24.000000
1008,8.000000
1009,12.000000
1010,48.000000
1011,24.000000
1012,0.000000
1013,32.000000
1014,-20.000000
1015,4.000000
1016,24.000000
1017,-20.000000
1018,20.000000
1019,12.000000
1020,12.000000
1021,60.000000
1022,32.000000
1023,12.000000
1024,-8.000000
1025,32.000000
1026,4.000000
1027,-20.000000
1028,64.000000
1029,20.000000
1030,40.000000
1031,20.000000
1032,16.000000
1033,-8.000000
1034,24.000000
1035,-8.000000
1036,-4.000000
1037,8.000000
1038,-12.000000
1039,0.000000
1040,-8.000000
1041,-12.000000
1042,-8.000000
1043,-12.000000
1044,52.000000
1045,8.000000
1046,-24.000000
1047,-16.000000
1048,-40.000000
1049,-8.000000
1050,-8.000000
1051,20.000000
1052,-16.000000
1053,52.000000
1054,8.000000
1055,0.000000
1056,-12.000000
1057,-8.000000
1058,0.000000
1059,-36.000000
1060,-40.000000
1061,-28.000000
1062,-28.000000
1063,-48.000000
1064,-48.000000
1065,44.000000
1066,-32.000000
1067,8.000000
1068,0.000000
1069,-52.000000
1070,-12.000000
1071,4.000000
1072,24.000000
1073,12.000000
1074,76.000000
1075,-8.000000
1076,8.000000
1077,20.000000
1078,-24.000000
1079,44.000000
1080,12.000000
1081,0.000000
1082,-36.000000
1083,16.000000
1084,16.000000
1085,40.000000
1086,16.000000
1087,4.000000
1088,24.000000
1089,-12.000000
1090,4.000000
1091,4.000000
1092,-12.000000
1093,-8.000000
1094,16.000000
1095,32.000000
1096,-44.000000
1097,-8.000000
1098,0.000000
1099,64.000000
1100,48.000000
1101,44.000000
1102,16.000000
1103,68.000000
1104,16.000000
1105,48.000000
1106,8.000000
1107,8.000000
1108,-8.000000
1109,-12.000000
1110,40.000000
1111,-8.000000
1112,-12.000000
1113,-8.000000
1114,16.000000
1115,20.000000
1116,-12.000000
1117,-24.000000
1118,-16.000000
1119,4.000000
1120,16.000000
1121,44.000000
1122,24.000000
1123,-32.000000
1124,12.000000
1125,-16.000000
1126,-16.000000
1127,-20.000000
1128,0.000000
1129,-72.000000
1130,-4.000000
1131,0.000000
1132,-8.000000
1133,-28.000000
1134,-32.000000
1135,-28.000000
1136,-32.000000
1137,-44.000000
1138,-40.000000
1139,-40.000000
1140,-40.000000
1141,-40.000000
1142,-28.000000
1143,-20.000000
1144,-24.000000
1145,-20.000000
1146,-16.000000
1147,16.000000
1148,-28.000000
1149,16.000000
1150,-8.000000
1151,-24.000000
1152,28.000000
1153,52.000000
1154,-4.000000
1155,36.000000
1156,-8.000000
1157,4.000000
1158,0.000000
1159,0.000000
1160,16.000000
1161,0.000000
1162,-32.000000
1163,-12.000000
1164,0.000000
1165,-56.000000
1166,-12.000000
1167,60.000000
1168,-8.000000
1169,20.000000
1170,20.000000
1171,32.000000
1172,16.000000
1173,24.000000
1174,-52.000000
1175,12.000000
1176,24.000000
1177,8.000000
1178,8.000000
1179,16.000000
1180,0.000000
1181,-32.000000
1182,-8.000000
1183,0.000000
1184,8.000000
1185,36.000000
1186,24.000000
1187,-4.000000
1188,-12.000000
1189,-20.000000
1190,-20.000000
1191,-12.000000
1192,-8.000000
1193,4.000000
1194,-8.000000
1195,-16.000000
1196,-20.000000
1197,-32.000000
1198,-68.000000
1199,-36.000000
1200,-36.000000
1201,-28.000000
1202,-8.000000
1203,16.000000
1204,16.000000
1205,-60.000000
1206,4.000000
1207,-32.000000
1208,-8.000000
1209,-12.000000
1210,-8.000000
1211,-56.000000
1212,-4.000000
1213,20.000000
1214,-8.000000
1215,-36.000000
1216,-36.000000
1217,24.000000
1218,-12.000000
1219,-32.000000
1220,4.000000
1221,-24.000000
1222,4.000000
1223,4.000000
1224,0.000000
1225,20.000000
1226,28.000000
1227,0.000000
1228,24.000000
1229,-8.000000
1230,28.000000
1231,-4.000000
1232,8.000000
1233,64.000000
1234,-8.000000
1235,-28.000000
1236,12.000000
1237,-12.000000
1238,-12.000000
1239,16.000000
1240,16.000000
1241,-12.000000
1242,28.000000
1243,20.000000
1244,16.000000
1245,8.000000
1246,24.000000
1247,12.000000
1248,0.000000
1249,8.000000
1250,-12.000000
1251,-12.000000
1252,12.000000
1253,44.000000
1254,-4.000000
1255,0.000000
1256,20.000000
1257,24.000000
1258,20.000000
1259,-24.000000
1260,24.000000
1261,0.000000
1262,0.000000
1263,20.000000
1264,8.000000
1265,4.000000
1266,8.000000
1267,-24.000000
1268,-8.000000
1269,-64.000000
1270,-24.000000
1271,8.000000
1272,-40.000000
1273,-32.000000
1274,-24.000000
1275,-12.000000
1276,-12.000000
1277,-32.000000
1278,-28.000000
1279,-20.000000
1280,64.000000
1281,-28.000000
1282,20.000000
1283,-28.000000
1284,-16.000000
1285,-4.000000
1286,4.000000
1287,-12.000000
1288,-12.000000
1289,-20.000000
1290,-20.000000
1291,-76.000000
1292,-8.000000
1293,-8.000000
1294,-24.000000
1295,16.000000
1296,20.000000
1297,8.000000
1298,-24.000000
1299,0.000000
1300,-48.000000
1301,-8.000000
1302,20.000000
1303,-4.000000
1304,-12.000000
1305,-12.000000
1306,12.000000
1307,12.000000
1308,56.000000
1309,-12.000000
1310,20.000000
1311,-44.000000
1312,16.000000
1313,-4.000000
1314,-8.000000
1315,-60.000000
1316,-4.000000
1317,-8.000000
1318,4.000000
1319,44.000000
1320,4.000000
1321,16.000000
1322,8.000000
1323,32.000000
1324,8.000000
1325,44.000000
1326,12.000000
1327,24.000000
1328,-12.000000
1329,28.000000
1330,108.000000
1331,12.000000
1332,44.000000
1333,-36.000000
1334,12.000000
1335,8.000000
1336,-44.000000
1337,24.000000
1338,0.000000
1339,0.000000
1340,-24.000000
1341,-12.000000
1342,-60.000000
1343,-20.000000
1344,24.000000
1345,0.000000
1346,-12.000000
1347,-28.000000
1348,-28.000000
1349,-36.000000
1350,52.000000
1351,52.000000
1352,-8.000000
1353,-32.000000
1354,-32.000000
1355,0.000000
1356,-36.000000
1357,20.000000
1358,-32.000000
1359,16.000000
1360,-44.000000
1361,72.000000
1362,44.000000
1363,-36.000000
1364,-36.000000
1365,-32.000000
1366,0.000000
1367,-16.000000
1368,44.000000
1369,-20.000000
1370,44.000000
1371,-20.000000
1372,0.000000
