docs/evidence/raw/2026-09-07/data_21_005.csv

Channel              :,CH1
Frequency            :,  ?
Period               :,  ?
PK-PK                :,232.0mV
Probe attenuation    :,1X
Voltage per ADC value:,0.125000mV
Time interval        :,100.00000us

index,CH1_Voltage(mV)
1,54.000000
2,54.000000
3,4.000000
4,74.000000
5,-14.000000
6,22.000000
7,0.000000
8,-24.000000
9,56.000000
10,-54.000000
11,-26.000000
12,-8.000000
13,16.000000
14,-44.000000
15,-12.000000
16,4.000000
17,-34.000000
18,10.000000
19,22.000000
20,-34.000000
21,-26.000000
22,-10.000000
23,12.000000
24,30.000000
25,-2.000000
26,-10.000000
27,-32.000000
28,-32.000000
29,-12.000000
30,-14.000000
31,-28.000000
32,-12.000000
33,-8.000000
34,28.000000
35,30.000000
36,0.000000
37,-50.000000
38,-30.000000
39,24.000000
40,-16.000000
41,-14.000000
42,-14.000000
43,34.000000
44,-14.000000
45,42.000000
46,-20.000000
47,48.000000
48,-24.000000
49,-6.000000
50,-12.000000
51,14.000000
52,-40.000000
53,-4.000000
54,-20.000000
55,-28.000000
56,-36.000000
57,-16.000000
58,-30.000000
59,0.000000
60,8.000000
61,32.000000
62,6.000000
63,-44.000000
64,-20.000000
65,-6.000000
66,38.000000
67,-8.000000
68,8.000000
69,12.000000
70,-12.000000
71,-4.000000
72,14.000000
73,-4.000000
74,6.000000
75,38.000000
76,20.000000
77,76.000000
78,14.000000
79,46.000000
80,40.000000
81,14.000000
82,24.000000
83,38.000000
84,-6.000000
85,-16.000000
86,8.000000
87,0.000000
88,8.000000
89,32.000000
90,2.000000
91,-24.000000
92,-44.000000
93,86.000000
94,8.000000
95,22.000000
96,-4.000000
97,2.000000
98,2.000000
99,-10.000000
100,-20.000000
101,-36.000000
102,0.000000
103,0.000000
104,26.000000
105,-18.000000
106,-16.000000
107,-12.000000
108,46.000000
109,-10.000000
110,-34.000000
111,18.000000
112,-8.000000
113,2.000000
114,-10.000000
115,-68.000000
116,20.000000
117,8.000000
118,2.000000
119,-12.000000
120,-12.000000
121,24.000000
122,-20.000000
123,-20.000000
124,-20.000000
125,-16.000000
126,-20.000000
127,-36.000000
128,-20.000000
129,14.000000
130,32.000000
131,32.000000
132,32.000000
133,-8.000000
134,-30.000000
135,0.000000
136,-38.000000
137,-14.000000
138,-82.000000
139,-10.000000
140,-24.000000
141,-54.000000
142,30.000000
143,-4.000000
144,-56.000000
145,2.000000
146,-18.000000
147,-60.000000
148,54.000000
149,46.000000
150,-12.000000
151,6.000000
152,-4.000000
153,30.000000
154,26.000000
155,-18.000000
156,-64.000000
157,-22.000000
158,16.000000
159,-24.000000
160,54.000000
161,-60.000000
162,4.000000
163,-26.000000
164,-78.000000
165,6.000000
166,-4.000000
167,24.000000
168,-16.000000
169,-34.000000
170,-34.000000
171,-6.000000
172,2.000000
173,12.000000
174,48.000000
175,-8.000000
176,4.000000
177,-16.000000
178,12.000000
179,58.000000
180,58.000000
181,4.000000
182,-22.000000
183,-16.000000
184,0.000000
185,26.000000
186,24.000000
187,10.000000
188,10.000000
189,-34.000000
190,62.000000
191,-2.000000
192,6.000000
193,-16.000000
194,94.000000
195,14.000000
196,20.000000
197,-18.000000
198,6.000000
199,40.000000
200,-24.000000
201,14.000000
202,-2.000000
203,22.000000
204,-26.000000
205,2.000000
206,18.000000
207,-26.000000
208,-6.000000
209,50.000000
210,-40.000000
211,0.000000
212,44.000000
213,10.000000
214,-22.000000
215,-54.000000
216,2.000000
217,-44.000000
218,-58.000000
219,8.000000
220,26.000000
221,-60.000000
222,46.000000
223,-8.000000
224,-6.000000
225,-2.000000
226,6.000000
227,-46.000000
228,16.000000
229,16.000000
230,-22.000000
231,10.000000
232,-40.000000
233,30.000000
234,16.000000
235,-4.000000
236,4.000000
237,-16.000000
238,84.000000
239,32.000000
240,10.000000
241,-26.000000
242,-14.000000
243,54.000000
244,-26.000000
245,-18.000000
246,-34.000000
247,-22.000000
248,68.000000
249,54.000000
250,48.000000
251,-8.000000
252,-6.000000
253,40.000000
254,-14.000000
255,0.000000
256,16.000000
257,-44.000000
258,-44.000000
259,28.000000
260,12.000000
261,-12.000000
262,30.000000
263,-40.000000
264,-16.000000
265,-16.000000
266,4.000000
267,-10.000000
268,22.000000
269,30.000000
270,-64.000000
271,-18.000000
272,-14.000000
273,-64.000000
274,2.000000
275,-14.000000
276,14.000000
277,14.000000
278,2.000000
279,-26.000000
280,-30.000000
281,-30.000000
282,-14.000000
283,-4.000000
284,40.000000
285,-48.000000
286,-20.000000
287,8.000000
288,10.000000
289,-16.000000
290,-4.000000
291,-60.000000
292,72.000000
293,-2.000000
294,12.000000
295,6.000000
296,-24.000000
297,4.000000
298,-82.000000
299,14.000000
300,14.000000
301,-26.000000
302,-4.000000
303,18.000000
304,18.000000
305,108.000000
306,40.000000
307,46.000000
308,-12.000000
309,-14.000000
310,78.000000
311,10.000000
312,28.000000
313,2.000000
314,-18.000000
315,-16.000000
316,20.000000
317,-22.000000
318,4.000000
319,2.000000
320,34.000000
321,-2.000000
322,-6.000000
323,12.000000
324,32.000000
325,8.000000
326,6.000000
327,-18.000000
328,-8.000000
329,-2.000000
330,0.000000
331,-22.000000
332,-20.000000
333,2.000000
334,8.000000
335,-20.000000
336,-54.000000
337,-4.000000
338,-18.000000
339,-116.000000
340,6.000000
341,-16.000000
342,26.000000
343,-20.000000
344,-4.000000
345,-22.000000
346,-12.000000
347,-12.000000
348,-4.000000
349,14.000000
350,16.000000
351,38.000000
352,-6.000000
353,-22.000000
354,38.000000
355,28.000000
356,-8.000000
357,28.000000
358,6.000000
359,-72.000000
360,28.000000
361,-2.000000
362,68.000000
363,8.000000
364,14.000000
365,0.000000
366,-38.000000
367,8.000000
368,30.000000
369,-16.000000
370,-26.000000
371,14.000000
372,-30.000000
373,28.000000
374,-14.000000
375,42.000000
376,26.000000
377,68.000000
378,-24.000000
379,-74.000000
380,2.000000
381,12.000000
382,2.000000
383,26.000000
384,-14.000000
385,-60.000000
386,14.000000
387,46.000000
388,-4.000000
389,-12.000000
390,24.000000
391,-26.000000
392,46.000000
393,4.000000
394,86.000000
395,-52.000000
396,0.000000
397,6.000000
398,-22.000000
399,10.000000
400,24.000000
401,-20.000000
402,20.000000
403,-78.000000
404,-52.000000
405,14.000000
406,28.000000
407,-44.000000
408,-4.000000
409,-54.000000
410,-54.000000
411,6.000000
412,82.000000
413,-40.000000
414,-36.000000
415,10.000000
416,8.000000
417,34.000000
418,-54.000000
419,-36.000000
420,-30.000000
421,16.000000
422,-16.000000
423,8.000000
424,-16.000000
425,16.000000
426,50.000000
427,-26.000000
428,-26.000000
429,-12.000000
430,-12.000000
431,54.000000
432,-48.000000
433,34.000000
434,-20.000000
435,12.000000
436,-30.000000
437,10.000000
438,-58.000000
439,16.000000
440,-2.000000
441,2.000000
442,8.000000
443,4.000000
444,-22.000000
445,92.000000
446,2.000000
447,42.000000
448,-18.000000
449,-12.000000
450,-64.000000
451,8.000000
452,38.000000
453,54.000000
454,-6.000000
455,-46.000000
456,4.000000
457,-16.000000
458,-16.000000
459,26.000000
460,-8.000000
461,-4.000000
462,46.000000
463,32.000000
464,-6.000000
465,-12.000000
466,-14.000000
467,46.000000
468,-2.000000
469,2.000000
470,-24.000000
471,14.000000
472,20.000000
473,-8.000000
474,-10.000000
475,-6.000000
476,-26.000000
477,-2.000000
478,-8.000000
479,28.000000
480,18.000000
481,-12.000000
482,-20.000000
483,-44.000000
484,6.000000
485,-70.000000
486,8.000000
487,-44.000000
488,-8.000000
489,-6.000000
490,-4.000000
491,46.000000
492,0.000000
493,-4.000000
494,-30.000000
495,14.000000
496,10.000000
497,4.000000
498,-8.000000
499,-8.000000
500,-8.000000
501,-12.000000
502,54.000000
503,44.000000
504,-70.000000
505,34.000000
506,-24.000000
507,-14.000000
508,20.000000
509,36.000000
510,-16.000000
511,-34.000000
512,82.000000
513,22.000000
514,58.000000
515,34.000000
516,14.000000
517,-4.000000
518,-4.000000
519,-30.000000
520,26.000000
521,-2.000000
522,-26.000000
523,30.000000
524,44.000000
525,10.000000
526,2.000000
527,8.000000
528,-6.000000
529,24.000000
530,36.000000
531,26.000000
532,-70.000000
533,14.000000
534,54.000000
535,10.000000
536,0.000000
537,-16.000000
538,-16.000000
539,-20.000000
540,-22.000000
541,-26.000000
542,8.000000
543,24.000000
544,8.000000
545,-64.000000
546,-62.000000
547,14.000000
548,-38.000000
549,12.000000
550,22.000000
551,6.000000
552,-6.000000
553,20.000000
554,-4.000000
555,-26.000000
556,2.000000
557,-32.000000
558,-36.000000
559,-48.000000
560,50.000000
561,-4.000000
562,56.000000
563,0.000000
564,-60.000000
565,-22.000000
566,-44.000000
567,24.000000
568,-4.000000
569,10.000000
570,38.000000
571,-4.000000
572,4.000000
573,-6.000000
574,20.000000
575,2.000000
576,40.000000
577,22.000000
578,18.000000
579,-40.000000
580,-36.000000
581,-88.000000
582,-2.000000
583,-4.000000
584,-42.000000
585,-22.000000
586,-42.000000
587,22.000000
588,12.000000
589,4.000000
590,4.000000
591,-32.000000
592,40.000000
593,0.000000
594,12.000000
595,-12.000000
596,-58.000000
597,8.000000
598,-4.000000
599,68.000000
600,32.000000
601,8.000000
602,2.000000
603,20.000000
604,10.000000
605,8.000000
606,-2.000000
607,-32.000000
608,-72.000000
609,-40.000000
610,-36.000000
611,-30.000000
612,-18.000000
613,8.000000
614,-10.000000
615,-30.000000
616,10.000000
617,4.000000
618,26.000000
619,30.000000
620,30.000000
621,-10.000000
622,44.000000
623,36.000000
624,-16.000000
625,-2.000000
626,22.000000
627,26.000000
628,14.000000
629,-40.000000
630,-58.000000
631,-6.000000
632,-20.000000
633,-30.000000
634,0.000000
635,36.000000
636,30.000000
637,38.000000
638,-12.000000
639,12.000000
640,0.000000
641,-26.000000
642,2.000000
643,30.000000
644,-4.000000
645,46.000000
646,-2.000000
647,0.000000
648,0.000000
649,-76.000000
650,34.000000
651,-22.000000
652,64.000000
653,-16.000000
654,-16.000000
655,-20.000000
656,-14.000000
657,20.000000
658,12.000000
659,-78.000000
660,-112.000000
661,-68.000000
662,54.000000
663,-10.000000
664,2.000000
665,54.000000
666,30.000000
667,24.000000
668,-74.000000
669,-20.000000
670,2.000000
671,26.000000
672,8.000000
673,-48.000000
674,-30.000000
675,-30.000000
676,-16.000000
677,54.000000
678,-6.000000
679,-12.000000
680,-12.000000
681,-78.000000
682,-4.000000
683,-18.000000
684,-60.000000
685,10.000000
686,-6.000000
687,-12.000000
688,-2.000000
689,22.000000
690,-36.000000
691,-2.000000
692,-62.000000
693,2.000000
694,4.000000
695,-4.000000
696,42.000000
697,-16.000000
698,-8.000000
699,-42.000000
700,8.000000
701,-12.000000
702,34.000000
703,64.000000
704,-4.000000
705,-44.000000
706,-12.000000
707,20.000000
708,-2.000000
709,-6.000000
710,-2.000000
711,-8.000000
712,24.000000
713,20.000000
714,-64.000000
715,18.000000
716,-12.000000
717,-14.000000
718,82.000000
719,-40.000000
720,-44.000000
721,-34.000000
722,30.000000
723,30.000000
724,10.000000
725,-12.000000
726,-12.000000
727,24.000000
728,-18.000000
729,6.000000
730,-4.000000
731,40.000000
732,14.000000
733,-18.000000
734,-16.000000
735,48.000000
736,48.000000
737,22.000000
738,14.000000
739,-40.000000
740,-46.000000
741,32.000000
742,-78.000000
743,18.000000
744,8.000000
745,-70.000000
746,14.000000
747,38.000000
748,-12.000000
749,6.000000
750,28.000000
751,-2.000000
752,16.000000
753,48.000000
754,-4.000000
755,-64.000000
756,-22.000000
757,24.000000
758,-18.000000
759,-30.000000
760,-4.000000
761,2.000000
762,-44.000000
763,-20.000000
764,54.000000
765,-4.000000
766,32.000000
767,-14.000000
768,-54.000000
769,34.000000
770,-10.000000
771,22.000000
772,-12.000000
773,10.000000
774,-40.000000
775,-20.000000
776,-14.000000
777,0.000000
778,-20.000000
779,-6.000000
780,4.000000
781,16.000000
782,28.000000
783,6.000000
784,8.000000
785,-6.000000
786,-2.000000
787,26.000000
788,14.000000
789,-4.000000
790,-62.000000
791,-12.000000
792,-24.000000
793,-30.000000
794,-30.000000
795,8.000000
796,-18.000000
797,-18.000000
798,16.000000
799,-44.000000
800,10.000000
801,40.000000
802,54.000000
803,12.000000
804,-4.000000
805,26.000000
806,46.000000
807,-22.000000
808,16.000000
809,36.000000
810,0.000000
811,-16.000000
812,4.000000
813,4.000000
814,-4.000000
815,-40.000000
816,-10.000000
817,46.000000
818,-10.000000
819,-20.000000
820,-30.000000
821,44.000000
822,22.000000
823,86.000000
824,-26.000000
825,6.000000
826,22.000000
827,-30.000000
828,30.000000
829,34.000000
830,14.000000
831,18.000000
832,6.000000
833,18.000000
834,-56.000000
835,16.000000
836,-40.000000
837,-52.000000
838,72.000000
839,-18.000000
840,46.000000
841,-30.000000
842,20.000000
843,20.000000
844,-32.000000
845,12.000000
846,8.000000
847,-34.000000
848,-20.000000
849,-28.000000
850,-18.000000
851,2.000000
852,14.000000
853,8.000000
854,-22.000000
855,-8.000000
856,40.000000
857,-22.000000
858,-16.000000
859,-12.000000
860,4.000000
861,-10.000000
862,2.000000
863,-12.000000
864,-32.000000
865,2.000000
866,28.000000
867,-40.000000
868,24.000000
869,-6.000000
870,12.000000
871,8.000000
872,-12.000000
873,-16.000000
874,62.000000
875,-12.000000
876,2.000000
877,-14.000000
878,28.000000
879,2.000000
880,16.000000
881,42.000000
882,-38.000000
883,-4.000000
884,-22.000000
885,10.000000
886,-20.000000
887,6.000000
888,8.000000
889,-18.000000
890,-34.000000
891,10.000000
892,22.000000
893,30.000000
894,-12.000000
895,98.000000
896,60.000000
897,2.000000
898,4.000000
899,50.000000
900,24.000000
901,-56.000000
902,28.000000
903,-6.000000
904,-4.000000
905,38.000000
906,10.000000
907,0.000000
908,-44.000000
909,-54.000000
910,54.000000
911,-4.000000
912,10.000000
913,-32.000000
914,44.000000
915,-6.000000
916,10.000000
917,36.000000
918,20.000000
919,-16.000000
920,-36.000000
921,-30.000000
922,-18.000000
923,-36.000000
924,24.000000
925,-74.000000
926,38.000000
927,-20.000000
928,0.000000
929,-18.000000
930,-30.000000
931,-78.000000
932,-10.000000
933,34.000000
934,-30.000000
935,18.000000
936,-16.000000
937,0.000000
938,-40.000000
939,2.000000
940,46.000000
941,42.000000
942,16.000000
943,0.000000
944,50.000000
945,-32.000000
946,-58.000000
947,-78.000000
948,22.000000
949,-52.000000
950,86.000000
951,22.000000
952,-4.000000
953,20.000000
954,-10.000000
955,-58.000000
956,2.000000
957,20.000000
958,2.000000
959,-18.000000
960,14.000000
961,10.000000
962,-12.000000
963,-10.000000
964,-26.000000
965,6.000000
966,56.000000
967,24.000000
968,12.000000
969,50.000000
970,24.000000
971,2.000000
972,58.000000
973,28.000000
974,-14.000000
975,-26.000000
976,-98.000000
977,-38.000000
978,0.000000
979,-16.000000
980,-16.000000
981,-6.000000
982,-4.000000
983,-6.000000
984,24.000000
985,20.000000
986,22.000000
987,-22.000000
988,-4.000000
989,10.000000
990,12.000000
991,8.000000
992,0.000000
993,24.000000
994,44.000000
995,-68.000000
996,0.000000
997,-30.000000
998,6.000000
999,44.000000
1000,46.000000
1001,-12.000000
1002,-6.000000
1003,-12.000000
1004,-4.000000
1005,8.000000
1006,22.000000
1007,28.000000
1008,-54.000000
1009,-30.000000
1010,16.000000
1011,-48.000000
1012,34.000000
1013,-8.000000
1014,-70.000000
1015,18.000000
1016,-26.000000
1017,10.000000
1018,30.000000
1019,10.000000
1020,8.000000
1021,-2.000000
1022,18.000000
1023,-26.000000
1024,-16.000000
1025,-44.000000
1026,10.000000
1027,-24.000000
1028,20.000000
1029,2.000000
1030,10.000000
1031,20.000000
1032,34.000000
1033,-24.000000
1034,-10.000000
1035,-22.000000
1036,24.000000
1037,4.000000
1038,4.000000
1039,-78.000000
1040,0.000000
1041,-48.000000
1042,-2.000000
1043,54.000000
1044,6.000000
1045,-10.000000
1046,30.000000
1047,2.000000
1048,8.000000
1049,-58.000000
1050,-14.000000
1051,-6.000000
1052,-48.000000
1053,-8.000000
1054,-16.000000
1055,-36.000000
1056,34.000000
1057,-20.000000
1058,-14.000000
1059,-26.000000
1060,-32.000000
1061,26.000000
1062,-2.000000
1063,-6.000000
1064,-12.000000
1065,-10.000000
1066,-16.000000
1067,-34.000000
1068,-68.000000
1069,40.000000
1070,-20.000000
1071,16.000000
1072,-6.000000
1073,-8.000000
1074,-30.000000
1075,-8.000000
1076,10.000000
1077,6.000000
1078,-8.000000
1079,26.000000
1080,-74.000000
1081,0.000000
1082,-16.000000
1083,60.000000
1084,-18.000000
1085,-44.000000
1086,0.000000
1087,14.000000
1088,-4.000000
1089,-42.000000
1090,-50.000000
1091,-12.000000
1092,54.000000
1093,14.000000
1094,6.000000
1095,-16.000000
1096,-22.000000
1097,-18.000000
1098,-78.000000
1099,2.000000
1100,22.000000
1101,0.000000
1102,-6.000000
1103,0.000000
1104,-14.000000
1105,4.000000
1106,-62.000000
1107,4.000000
1108,0.000000
1109,32.000000
1110,-20.000000
1111,-4.000000
1112,50.000000
1113,2.000000
1114,22.000000
1115,4.000000
1116,0.000000
1117,-38.000000
1118,-24.000000
1119,-18.000000
1120,-14.000000
1121,6.000000
1122,6.000000
1123,24.000000
1124,54.000000
1125,28.000000
1126,-30.000000
1127,8.000000
1128,-38.000000
1129,-18.000000
1130,-8.000000
1131,34.000000
1132,20.000000
1133,8.000000
1134,-20.000000
1135,6.000000
1136,-24.000000
1137,8.000000
1138,8.000000
1139,4.000000
1140,14.000000
1141,10.000000
1142,0.000000
1143,6.000000
1144,-2.000000
1145,8.000000
1146,10.000000
1147,-14.000000
1148,-20.000000
1149,24.000000
1150,-44.000000
1151,0.000000
1152,46.000000
1153,8.000000
1154,2.000000
1155,-26.000000
1156,-4.000000
1157,-18.000000
1158,-30.000000
1159,-4.000000
1160,24.000000
1161,-4.000000
1162,10.000000
1163,8.000000
1164,20.000000
1165,22.000000
1166,-12.000000
1167,-40.000000
1168,28.000000
1169,-56.000000
1170,-10.000000
1171,14.000000
1172,14.000000
1173,-12.000000
1174,56.000000
1175,26.000000
1176,26.000000
1177,24.000000
1178,18.000000
1179,-24.000000
1180,-12.000000
1181,60.000000
1182,-22.000000
1183,-60.000000
1184,-8.000000
1185,38.000000
1186,-8.000000
1187,-16.000000
1188,-24.000000
1189,-12.000000
1190,12.000000
1191,16.000000
1192,-50.000000
1193,-4.000000
1194,50.000000
1195,24.000000
1196,22.000000
1197,-24.000000
1198,-16.000000
1199,-22.000000
1200,22.000000
1201,-44.000000
1202,50.000000
1203,-2.000000
1204,10.000000
1205,-20.000000
1206,30.000000
1207,20.000000
1208,8.000000
1209,16.000000
1210,-36.000000
1211,-18.000000
1212,-24.000000
1213,-14.000000
1214,26.000000
1215,-36.000000
1216,-18.000000
1217,34.000000
1218,-4.000000
1219,-28.000000
1220,32.000000
1221,92.000000
1222,-8.000000
1223,38.000000
1224,28.000000
1225,-16.000000
1226,-20.000000
1227,14.000000
1228,-8.000000
1229,10.000000
1230,-8.000000
1231,6.000000
1232,38.000000
1233,20.000000
1234,-24.000000
1235,8.000000
1236,-8.000000
1237,10.000000
1238,34.000000
1239,8.000000
1240,-54.000000
1241,34.000000
1242,-8.000000
1243,-18.000000
1244,-4.000000
1245,-2.000000
1246,2.000000
1247,20.000000
1248,58.000000
1249,10.000000
1250,8.000000
1251,64.000000
1252,-16.000000
1253,36.000000
1254,0.000000
1255,24.000000
1256,-58.000000
1257,-26.000000
1258,42.000000
1259,26.000000
1260,54.000000
1261,2.000000
1262,18.000000
1263,-6.000000
1264,28.000000
1265,-12.000000
1266,30.000000
1267,-8.000000
1268,10.000000
1269,-20.000000
1270,-6.000000
1271,-18.000000
1272,-40.000000
1273,-8.000000
1274,-12.000000
1275,-36.000000
1276,0.000000
1277,6.000000
1278,-26.000000
1279,-16.000000
1280,-16.000000
1281,108.000000
1282,22.000000
1283,-2.000000
1284,16.000000
1285,32.000000
1286,-2.000000
1287,20.000000
1288,88.000000
1289,-28.000000
1290,2.000000
1291,16.000000
1292,-4.000000
1293,50.000000
1294,72.000000
1295,4.000000
1296,-30.000000
1297,0.000000
1298,2.000000
1299,2.000000
1300,50.000000
1301,8.000000
1302,26.000000
1303,28.000000
1304,0.000000
1305,-68.000000
1306,-8.000000
1307,-12.000000
1308,-10.000000
1309,-40.000000
1310,36.000000
1311,12.000000
1312,12.000000
1313,4.000000
1314,8.000000
1315,8.000000
1316,2.000000
1317,0.000000
1318,-26.000000
1319,2.000000
1320,-2.000000
1321,20.000000
1322,-2.000000
1323,8.000000
1324,50.000000
1325,50.000000
1326,-8.000000
1327,-2.000000
1328,-30.000000
1329,0.000000
1330,8.000000
1331,2.000000
1332,-4.000000
1333,38.000000
1334,40.000000
1335,-8.000000
1336,-60.000000
1337,2.000000
1338,-26.000000
1339,0.000000
1340,44.000000
1341,-12.000000
1342,-4.000000
1343,8.000000
1344,8.000000
1345,56.000000
1346,44.000000
1347,-50.000000
1348,-26.000000
1349,-50.000000
1350,0.000000
1351,92.000000
1352,-6.000000
1353,0.000000
1354,0.000000
1355,0.000000
1356,12.000000
1357,8.000000
1358,-28.000000
1359,0.000000
1360,6.000000
1361,-18.000000
1362,12.000000
1363,58.000000
1364,-24.000000
1365,42.000000
1366,26.000000
1367,-8.000000
1368,-28.000000
1369,6.000000
1370,-12.000000
1371,4.000000
1372,22.000000
