docs/evidence/raw/2026-09-07/data_20_006.csv

Channel              :,CH1
Frequency            :,  ?
Period               :,  ?
PK-PK                :,2.720V
Probe attenuation    :,10X
Voltage per ADC value:,2.500000mV
Time interval        :,100.00000us

index,CH1_Voltage(mV)
1,400.000000
2,400.000000
3,-80.000000
4,120.000000
5,960.000000
6,80.000000
7,-200.000000
8,-280.000000
9,80.000000
10,40.000000
11,-80.000000
12,40.000000
13,80.000000
14,120.000000
15,-200.000000
16,-80.000000
17,120.000000
18,-40.000000
19,-80.000000
20,200.000000
21,200.000000
22,560.000000
23,240.000000
24,-240.000000
25,-40.000000
26,-200.000000
27,-400.000000
28,40.000000
29,-520.000000
30,0.000000
31,-200.000000
32,40.000000
33,80.000000
34,240.000000
35,0.000000
36,160.000000
37,-80.000000
38,-80.000000
39,40.000000
40,-120.000000
41,-160.000000
42,840.000000
43,40.000000
44,200.000000
45,0.000000
46,-160.000000
47,-120.000000
48,-320.000000
49,-600.000000
50,-40.000000
51,120.000000
52,120.000000
53,40.000000
54,-40.000000
55,0.000000
56,-320.000000
57,440.000000
58,-80.000000
59,-80.000000
60,-480.000000
61,-80.000000
62,-80.000000
63,-160.000000
64,-80.000000
65,-80.000000
66,-80.000000
67,-120.000000
68,80.000000
69,160.000000
70,80.000000
71,0.000000
72,120.000000
73,0.000000
74,0.000000
75,-120.000000
76,-80.000000
77,-40.000000
78,-120.000000
79,-600.000000
80,400.000000
81,-80.000000
82,80.000000
83,-200.000000
84,-120.000000
85,-80.000000
86,-400.000000
87,80.000000
88,160.000000
89,40.000000
90,-240.000000
91,-160.000000
92,-40.000000
93,-200.000000
94,760.000000
95,-120.000000
96,-120.000000
97,440.000000
98,-120.000000
99,0.000000
100,240.000000
101,-160.000000
102,-200.000000
103,0.000000
104,-520.000000
105,40.000000
106,40.000000
107,-200.000000
108,-120.000000
109,40.000000
110,-80.000000
111,-160.000000
112,-600.000000
113,-600.000000
114,0.000000
115,-360.000000
116,120.000000
117,-80.000000
118,840.000000
119,-120.000000
120,160.000000
121,0.000000
122,-560.000000
123,40.000000
124,-240.000000
125,160.000000
126,-160.000000
127,-40.000000
128,-160.000000
129,-80.000000
130,160.000000
131,-280.000000
132,-240.000000
133,120.000000
134,-480.000000
135,-280.000000
136,80.000000
137,-120.000000
138,0.000000
139,0.000000
140,160.000000
141,-120.000000
142,-200.000000
143,-240.000000
144,-320.000000
145,160.000000
146,-520.000000
147,-400.000000
148,40.000000
149,-120.000000
150,0.000000
151,760.000000
152,-40.000000
153,-80.000000
154,160.000000
155,160.000000
156,-160.000000
157,-440.000000
158,-40.000000
159,320.000000
160,-120.000000
161,-120.000000
162,120.000000
163,-120.000000
164,120.000000
165,0.000000
166,960.000000
167,-240.000000
168,320.000000
169,-240.000000
170,-240.000000
171,0.000000
172,-240.000000
173,160.000000
174,-80.000000
175,400.000000
176,-80.000000
177,200.000000
178,0.000000
179,-400.000000
180,40.000000
181,-280.000000
182,-200.000000
183,160.000000
184,760.000000
185,-640.000000
186,80.000000
187,-320.000000
188,-240.000000
189,-240.000000
190,-80.000000
191,200.000000
192,-280.000000
193,-160.000000
194,160.000000
195,-280.000000
196,-80.000000
197,-80.000000
198,-640.000000
199,-320.000000
200,-280.000000
201,-160.000000
202,-80.000000
203,-240.000000
204,-200.000000
205,-240.000000
206,-80.000000
207,40.000000
208,120.000000
209,-80.000000
210,-120.000000
211,-40.000000
212,240.000000
213,-40.000000
214,0.000000
215,120.000000
216,-80.000000
217,120.000000
218,-320.000000
219,-480.000000
220,-240.000000
221,-160.000000
222,200.000000
223,160.000000
224,0.000000
225,-160.000000
226,-520.000000
227,-80.000000
228,-120.000000
229,0.000000
230,-160.000000
231,160.000000
232,-240.000000
233,-120.000000
234,0.000000
235,-520.000000
236,-80.000000
237,160.000000
238,0.000000
239,-200.000000
240,520.000000
241,-80.000000
242,-320.000000
243,80.000000
244,-160.000000
245,-40.000000
246,240.000000
247,360.000000
248,-200.000000
249,-80.000000
250,40.000000
251,80.000000
252,0.000000
253,-80.000000
254,-80.000000
255,-160.000000
256,-40.000000
257,-40.000000
258,160.000000
259,160.000000
260,160.000000
261,-760.000000
262,-80.000000
263,0.000000
264,-160.000000
265,-40.000000
266,-80.000000
267,-80.000000
268,-80.000000
269,160.000000
270,-200.000000
271,-440.000000
272,-120.000000
273,120.000000
274,-240.000000
275,-120.000000
276,-80.000000
277,-80.000000
278,-120.000000
279,240.000000
280,160.000000
281,40.000000
282,280.000000
283,-160.000000
284,-160.000000
285,-320.000000
286,-280.000000
287,280.000000
288,0.000000
289,-40.000000
290,0.000000
291,-200.000000
292,-280.000000
293,-160.000000
294,-40.000000
295,0.000000
296,-120.000000
297,-120.000000
298,-200.000000
299,-480.000000
300,-240.000000
301,0.000000
302,-40.000000
303,-40.000000
304,80.000000
305,80.000000
306,120.000000
307,80.000000
308,-160.000000
309,-160.000000
310,40.000000
311,0.000000
312,240.000000
313,-120.000000
314,80.000000
315,-40.000000
316,40.000000
317,200.000000
318,0.000000
319,-80.000000
320,40.000000
321,-240.000000
322,-120.000000
323,-160.000000
324,0.000000
325,40.000000
326,0.000000
327,-80.000000
328,-80.000000
329,160.000000
330,520.000000
331,440.000000
332,-80.000000
333,-80.000000
334,40.000000
335,240.000000
336,-280.000000
337,80.000000
338,-40.000000
339,-80.000000
340,160.000000
341,360.000000
342,-120.000000
343,-240.000000
344,440.000000
345,240.000000
346,40.000000
347,0.000000
348,280.000000
349,-440.000000
350,-80.000000
351,-40.000000
352,120.000000
353,-120.000000
354,0.000000
355,160.000000
356,120.000000
357,-480.000000
358,-160.000000
359,40.000000
360,120.000000
361,80.000000
362,-160.000000
363,-280.000000
364,120.000000
365,160.000000
366,400.000000
367,-80.000000
368,280.000000
369,-280.000000
370,-280.000000
371,-560.000000
372,120.000000
373,0.000000
374,0.000000
375,400.000000
376,-120.000000
377,-40.000000
378,-40.000000
379,600.000000
380,440.000000
381,-120.000000
382,0.000000
383,-120.000000
384,0.000000
385,-40.000000
386,-80.000000
387,-240.000000
388,-80.000000
389,200.000000
390,440.000000
391,-80.000000
392,240.000000
393,40.000000
394,-440.000000
395,-120.000000
396,240.000000
397,-80.000000
398,-280.000000
399,0.000000
400,0.000000
401,-280.000000
402,-120.000000
403,-80.000000
404,160.000000
405,200.000000
406,-40.000000
407,-360.000000
408,40.000000
409,-200.000000
410,80.000000
411,-40.000000
412,320.000000
413,-360.000000
414,400.000000
415,-160.000000
416,0.000000
417,160.000000
418,40.000000
419,0.000000
420,160.000000
421,-80.000000
422,0.000000
423,0.000000
424,0.000000
425,0.000000
426,720.000000
427,-40.000000
428,-120.000000
429,120.000000
430,640.000000
431,320.000000
432,80.000000
433,160.000000
434,-440.000000
435,-40.000000
436,-40.000000
437,200.000000
438,280.000000
439,-320.000000
440,240.000000
441,-40.000000
442,160.000000
443,-160.000000
444,0.000000
445,-120.000000
446,-160.000000
447,40.000000
448,80.000000
449,400.000000
450,-360.000000
451,0.000000
452,-200.000000
453,80.000000
454,640.000000
455,-160.000000
456,-120.000000
457,80.000000
458,-200.000000
459,-240.000000
460,200.000000
461,200.000000
462,-320.000000
463,160.000000
464,-80.000000
465,-80.000000
466,760.000000
467,-80.000000
468,-520.000000
469,160.000000
470,-280.000000
471,-280.000000
472,-40.000000
473,-160.000000
474,-80.000000
475,-200.000000
476,-200.000000
477,0.000000
478,-40.000000
479,840.000000
480,-120.000000
481,40.000000
482,480.000000
483,-520.000000
484,520.000000
485,160.000000
486,-240.000000
487,0.000000
488,120.000000
489,80.000000
490,40.000000
491,-80.000000
492,-240.000000
493,-80.000000
494,-400.000000
495,-520.000000
496,0.000000
497,-280.000000
498,-360.000000
499,-200.000000
500,-360.000000
501,160.000000
502,-80.000000
503,40.000000
504,440.000000
505,40.000000
506,40.000000
507,0.000000
508,-400.000000
509,-120.000000
510,-440.000000
511,240.000000
512,-240.000000
513,160.000000
514,200.000000
515,-120.000000
516,-40.000000
517,-440.000000
518,-80.000000
519,120.000000
520,-360.000000
521,200.000000
522,-80.000000
523,-240.000000
524,120.000000
525,-240.000000
526,0.000000
527,0.000000
528,-120.000000
529,840.000000
530,80.000000
531,0.000000
532,-40.000000
533,-80.000000
534,400.000000
535,0.000000
536,-240.000000
537,200.000000
538,-80.000000
539,200.000000
540,-80.000000
541,-600.000000
542,-160.000000
543,-440.000000
544,120.000000
545,160.000000
546,0.000000
547,0.000000
548,200.000000
549,320.000000
550,-80.000000
551,-80.000000
552,40.000000
553,-200.000000
554,0.000000
555,-160.000000
556,40.000000
557,320.000000
558,40.000000
559,-80.000000
560,80.000000
561,-160.000000
562,0.000000
563,-360.000000
564,-80.000000
565,120.000000
566,-40.000000
567,80.000000
568,-80.000000
569,160.000000
570,120.000000
571,80.000000
572,-480.000000
573,-480.000000
574,-200.000000
575,-80.000000
576,-80.000000
577,-160.000000
578,0.000000
579,-320.000000
580,200.000000
581,80.000000
582,-80.000000
583,-80.000000
584,-240.000000
585,200.000000
586,240.000000
587,-280.000000
588,-120.000000
589,-40.000000
590,-80.000000
591,-160.000000
592,-160.000000
593,0.000000
594,0.000000
595,40.000000
596,-200.000000
597,120.000000
598,160.000000
599,-200.000000
600,200.000000
601,160.000000
602,160.000000
603,-400.000000
604,120.000000
605,-80.000000
606,-200.000000
607,-320.000000
608,-360.000000
609,200.000000
610,-160.000000
611,0.000000
612,160.000000
613,-80.000000
614,40.000000
615,-80.000000
616,-80.000000
617,-480.000000
618,40.000000
619,80.000000
620,-120.000000
621,0.000000
622,40.000000
623,-80.000000
624,-80.000000
625,-120.000000
626,40.000000
627,-240.000000
628,120.000000
629,120.000000
630,80.000000
631,120.000000
632,120.000000
633,-240.000000
634,-200.000000
635,-280.000000
636,-80.000000
637,520.000000
638,0.000000
639,-80.000000
640,-440.000000
641,40.000000
642,320.000000
643,-240.000000
644,-80.000000
645,-240.000000
646,-240.000000
647,-200.000000
648,-200.000000
649,280.000000
650,0.000000
651,520.000000
652,-400.000000
653,-360.000000
654,0.000000
655,440.000000
656,240.000000
657,-520.000000
658,160.000000
659,-40.000000
660,0.000000
661,0.000000
662,-200.000000
663,-240.000000
664,-160.000000
665,-40.000000
666,-120.000000
667,-40.000000
668,120.000000
669,-320.000000
670,520.000000
671,-80.000000
672,40.000000
673,0.000000
674,120.000000
675,0.000000
676,200.000000
677,-320.000000
678,80.000000
679,120.000000
680,-320.000000
681,0.000000
682,-240.000000
683,-80.000000
684,-280.000000
685,-40.000000
686,-560.000000
687,-80.000000
688,40.000000
689,-360.000000
690,120.000000
691,400.000000
692,-280.000000
693,-200.000000
694,240.000000
695,280.000000
696,-440.000000
697,-240.000000
698,80.000000
699,760.000000
700,-200.000000
701,-360.000000
702,-80.000000
703,120.000000
704,-80.000000
705,-80.000000
706,120.000000
707,120.000000
708,40.000000
709,-280.000000
710,-360.000000
711,0.000000
712,-280.000000
713,-440.000000
714,0.000000
715,-280.000000
716,160.000000
717,-160.000000
718,-200.000000
719,-120.000000
720,-80.000000
721,200.000000
722,160.000000
723,-160.000000
724,-40.000000
725,-80.000000
726,-120.000000
727,-80.000000
728,-80.000000
729,-120.000000
730,0.000000
731,160.000000
732,0.000000
733,-80.000000
734,680.000000
735,-320.000000
736,280.000000
737,-80.000000
738,-160.000000
739,-240.000000
740,240.000000
741,280.000000
742,-40.000000
743,-320.000000
744,0.000000
745,-40.000000
746,240.000000
747,280.000000
748,0.000000
749,-160.000000
750,-120.000000
751,0.000000
752,-120.000000
753,240.000000
754,160.000000
755,-280.000000
756,-120.000000
757,0.000000
758,-80.000000
759,-40.000000
760,0.000000
761,-240.000000
762,-240.000000
763,80.000000
764,-80.000000
765,-80.000000
766,-40.000000
767,-320.000000
768,-120.000000
769,200.000000
770,-80.000000
771,-320.000000
772,-80.000000
773,-120.000000
774,0.000000
775,280.000000
776,160.000000
777,0.000000
778,-320.000000
779,520.000000
780,280.000000
781,0.000000
782,320.000000
783,-360.000000
784,-40.000000
785,-80.000000
786,40.000000
787,40.000000
788,-200.000000
789,80.000000
790,-160.000000
791,-80.000000
792,-280.000000
793,-80.000000
794,80.000000
795,-440.000000
796,-80.000000
797,-200.000000
798,0.000000
799,-80.000000
800,-40.000000
801,200.000000
802,520.000000
803,0.000000
804,80.000000
805,80.000000
806,440.000000
807,400.000000
808,240.000000
809,-40.000000
810,240.000000
811,-320.000000
812,-40.000000
813,-80.000000
814,120.000000
815,240.000000
816,280.000000
817,-160.000000
818,-120.000000
819,-120.000000
820,160.000000
821,-320.000000
822,120.000000
823,-40.000000
824,40.000000
825,-1240.000000
826,-280.000000
827,160.000000
828,-280.000000
829,-80.000000
830,-320.000000
831,-160.000000
832,-240.000000
833,-160.000000
834,-320.000000
835,-80.000000
836,80.000000
837,-160.000000
838,0.000000
839,-240.000000
840,160.000000
841,560.000000
842,0.000000
843,-200.000000
844,320.000000
845,-360.000000
846,40.000000
847,0.000000
848,-120.000000
849,-480.000000
850,520.000000
851,-120.000000
852,-80.000000
853,-360.000000
854,0.000000
855,-240.000000
856,-160.000000
857,-120.000000
858,-200.000000
859,80.000000
860,-240.000000
861,-320.000000
862,40.000000
863,40.000000
864,120.000000
865,120.000000
866,0.000000
867,-40.000000
868,520.000000
869,520.000000
870,-120.000000
871,-480.000000
872,40.000000
873,0.000000
874,0.000000
875,0.000000
876,-40.000000
877,80.000000
878,440.000000
879,-80.000000
880,-440.000000
881,80.000000
882,-40.000000
883,-240.000000
884,120.000000
885,0.000000
886,-80.000000
887,-480.000000
888,0.000000
889,0.000000
890,80.000000
891,-80.000000
892,120.000000
893,-160.000000
894,80.000000
895,-80.000000
896,-40.000000
897,0.000000
898,640.000000
899,-80.000000
900,240.000000
901,240.000000
902,0.000000
903,0.000000
904,40.000000
905,-360.000000
906,-200.000000
907,160.000000
908,720.000000
909,560.000000
910,-520.000000
911,80.000000
912,240.000000
913,-160.000000
914,120.000000
915,0.000000
916,-80.000000
917,-120.000000
918,-160.000000
919,520.000000
920,-440.000000
921,-80.000000
922,40.000000
923,-160.000000
924,-80.000000
925,-40.000000
926,-200.000000
927,-320.000000
928,-80.000000
929,-80.000000
930,160.000000
931,-80.000000
932,840.000000
933,80.000000
934,-120.000000
935,-360.000000
936,-600.000000
937,80.000000
938,-80.000000
939,240.000000
940,-280.000000
941,-280.000000
942,-80.000000
943,-120.000000
944,40.000000
945,120.000000
946,160.000000
947,-40.000000
948,-80.000000
949,-200.000000
950,-120.000000
951,-520.000000
952,40.000000
953,240.000000
954,-720.000000
955,40.000000
956,-440.000000
957,240.000000
958,-320.000000
959,240.000000
960,-40.000000
961,400.000000
962,-160.000000
963,-160.000000
964,-80.000000
965,-120.000000
966,-40.000000
967,-40.000000
968,240.000000
969,80.000000
970,240.000000
971,-320.000000
972,600.000000
973,0.000000
974,120.000000
975,80.000000
976,-160.000000
977,160.000000
978,-120.000000
979,40.000000
980,0.000000
981,0.000000
982,-80.000000
983,240.000000
984,-320.000000
985,-200.000000
986,120.000000
987,0.000000
988,-160.000000
989,-80.000000
990,-200.000000
991,0.000000
992,-40.000000
993,0.000000
994,160.000000
995,-200.000000
996,0.000000
997,320.000000
998,760.000000
999,40.000000
1000,-120.000000
1001,280.000000
1002,-200.000000
1003,-440.000000
1004,-160.000000
1005,0.000000
1006,80.000000
1007,-640.000000
1008,-80.000000
1009,-400.000000
1010,-240.000000
1011,-80.000000
1012,40.000000
1013,0.000000
1014,80.000000
1015,40.000000
1016,0.000000
1017,-120.000000
1018,-120.000000
1019,-240.000000
1020,0.000000
1021,-160.000000
1022,-80.000000
1023,-400.000000
1024,0.000000
1025,-400.000000
1026,-120.000000
1027,80.000000
1028,0.000000
1029,-120.000000
1030,-240.000000
1031,-160.000000
1032,0.000000
1033,40.000000
1034,160.000000
1035,-360.000000
1036,-80.000000
1037,-40.000000
1038,-240.000000
1039,80.000000
1040,-160.000000
1041,0.000000
1042,-120.000000
1043,-200.000000
1044,0.000000
1045,-40.000000
1046,0.000000
1047,-440.000000
1048,80.000000
1049,-80.000000
1050,-280.000000
1051,-280.000000
1052,-200.000000
1053,0.000000
1054,280.000000
1055,0.000000
1056,200.000000
1057,-80.000000
1058,-160.000000
1059,-240.000000
1060,-200.000000
1061,-360.000000
1062,-240.000000
1063,-80.000000
1064,920.000000
1065,440.000000
1066,440.000000
1067,240.000000
1068,880.000000
1069,-80.000000
1070,0.000000
1071,200.000000
1072,0.000000
1073,-400.000000
1074,440.000000
1075,-80.000000
1076,40.000000
1077,40.000000
1078,-720.000000
1079,480.000000
1080,-40.000000
1081,0.000000
1082,760.000000
1083,280.000000
1084,-520.000000
1085,-40.000000
1086,-280.000000
1087,120.000000
1088,160.000000
1089,-40.000000
1090,0.000000
1091,-80.000000
1092,-520.000000
1093,80.000000
1094,0.000000
1095,40.000000
1096,0.000000
1097,0.000000
1098,-120.000000
1099,240.000000
1100,0.000000
1101,-160.000000
1102,440.000000
1103,-320.000000
1104,-720.000000
1105,160.000000
1106,80.000000
1107,520.000000
1108,0.000000
1109,-120.000000
1110,80.000000
1111,-160.000000
1112,160.000000
1113,1120.000000
1114,240.000000
1115,-80.000000
1116,-120.000000
1117,-200.000000
1118,240.000000
1119,-240.000000
1120,40.000000
1121,-200.000000
1122,-400.000000
1123,-160.000000
1124,-80.000000
1125,160.000000
1126,80.000000
1127,-600.000000
1128,-520.000000
1129,120.000000
1130,-520.000000
1131,0.000000
1132,40.000000
1133,-240.000000
1134,0.000000
1135,280.000000
1136,-280.000000
1137,0.000000
1138,-160.000000
1139,40.000000
1140,-160.000000
1141,120.000000
1142,120.000000
1143,80.000000
1144,-80.000000
1145,-80.000000
1146,120.000000
1147,-120.000000
1148,320.000000
1149,-120.000000
1150,440.000000
1151,-160.000000
1152,80.000000
1153,80.000000
1154,80.000000
1155,120.000000
1156,520.000000
1157,840.000000
1158,-120.000000
1159,640.000000
1160,0.000000
1161,160.000000
1162,-200.000000
1163,40.000000
1164,0.000000
1165,120.000000
1166,120.000000
1167,-80.000000
1168,440.000000
1169,440.000000
1170,-320.000000
1171,200.000000
1172,680.000000
1173,0.000000
1174,-160.000000
1175,-160.000000
1176,320.000000
1177,-280.000000
1178,-80.000000
1179,-40.000000
1180,440.000000
1181,-80.000000
1182,160.000000
1183,-80.000000
1184,-80.000000
1185,0.000000
1186,-320.000000
1187,-200.000000
1188,160.000000
1189,200.000000
1190,-280.000000
1191,160.000000
1192,-80.000000
1193,40.000000
1194,200.000000
1195,-320.000000
1196,-280.000000
1197,-120.000000
1198,120.000000
1199,80.000000
1200,0.000000
1201,160.000000
1202,40.000000
1203,-80.000000
1204,0.000000
1205,160.000000
1206,-120.000000
1207,0.000000
1208,-40.000000
1209,80.000000
1210,-160.000000
1211,0.000000
1212,-440.000000
1213,80.000000
1214,0.000000
1215,-120.000000
1216,-120.000000
1217,40.000000
1218,-80.000000
1219,240.000000
1220,-40.000000
1221,440.000000
1222,0.000000
1223,-320.000000
1224,40.000000
1225,80.000000
1226,80.000000
1227,320.000000
1228,-200.000000
1229,200.000000
1230,40.000000
1231,0.000000
1232,0.000000
1233,200.000000
1234,0.000000
1235,160.000000
1236,-120.000000
1237,-120.000000
1238,-80.000000
1239,-400.000000
1240,-360.000000
1241,40.000000
1242,200.000000
1243,0.000000
1244,-520.000000
1245,0.000000
1246,-240.000000
1247,0.000000
1248,560.000000
1249,-40.000000
1250,40.000000
1251,0.000000
1252,-280.000000
1253,40.000000
1254,-160.000000
1255,0.000000
1256,-280.000000
1257,640.000000
1258,320.000000
1259,240.000000
1260,40.000000
1261,160.000000
1262,80.000000
1263,80.000000
1264,160.000000
1265,-160.000000
1266,40.000000
1267,80.000000
1268,-80.000000
1269,-520.000000
1270,-160.000000
1271,-160.000000
1272,880.000000
1273,-160.000000
1274,-160.000000
1275,-280.000000
1276,0.000000
1277,-440.000000
1278,-40.000000
1279,0.000000
1280,40.000000
1281,40.000000
1282,-80.000000
1283,-120.000000
1284,-120.000000
1285,0.000000
1286,-400.000000
1287,-120.000000
1288,0.000000
1289,-200.000000
1290,-80.000000
1291,200.000000
1292,-440.000000
1293,0.000000
1294,160.000000
1295,160.000000
1296,120.000000
1297,-320.000000
1298,80.000000
1299,120.000000
1300,-160.000000
1301,40.000000
1302,-80.000000
1303,-40.000000
1304,440.000000
1305,0.000000
