docs/evidence/raw/2026-09-07/data_20_014on.csv

Channel              :,CH1
Frequency            :,  ?
Period               :,  ?
PK-PK                :,256.0mV
Probe attenuation    :,1X
Voltage per ADC value:,0.250000mV
Time interval        :,100.00000us

index,CH1_Voltage(mV)
1,-4.000000
2,-4.000000
3,44.000000
4,-4.000000
5,16.000000
6,16.000000
7,8.000000
8,-36.000000
9,0.000000
10,-40.000000
11,-12.000000
12,-12.000000
13,24.000000
14,-8.000000
15,24.000000
16,24.000000
17,16.000000
18,16.000000
19,-8.000000
20,4.000000
21,4.000000
22,-16.000000
23,-12.000000
24,20.000000
25,16.000000
26,-4.000000
27,8.000000
28,-20.000000
29,24.000000
30,-8.000000
31,16.000000
32,4.000000
33,-32.000000
34,-12.000000
35,48.000000
36,-20.000000
37,8.000000
38,28.000000
39,-8.000000
40,16.000000
41,-8.000000
42,-20.000000
43,12.000000
44,-16.000000
45,-32.000000
46,-28.000000
47,-36.000000
48,-8.000000
49,-8.000000
50,4.000000
51,4.000000
52,44.000000
53,-16.000000
54,-48.000000
55,0.000000
56,-8.000000
57,-12.000000
58,-16.000000
59,8.000000
60,-8.000000
61,-52.000000
62,-8.000000
63,0.000000
64,-108.000000
65,-28.000000
66,16.000000
67,4.000000
68,-40.000000
69,-20.000000
70,-20.000000
71,-28.000000
72,-60.000000
73,-60.000000
74,-28.000000
75,-28.000000
76,-28.000000
77,0.000000
78,-16.000000
79,52.000000
80,-32.000000
81,-28.000000
82,4.000000
83,4.000000
84,-32.000000
85,16.000000
86,-8.000000
87,0.000000
88,24.000000
89,-40.000000
90,0.000000
91,-24.000000
92,-20.000000
93,52.000000
94,28.000000
95,-32.000000
96,-12.000000
97,8.000000
98,12.000000
99,-24.000000
100,12.000000
101,-16.000000
102,-32.000000
103,-16.000000
104,0.000000
105,0.000000
106,-52.000000
107,-16.000000
108,12.000000
109,8.000000
110,4.000000
111,8.000000
112,8.000000
113,-36.000000
114,4.000000
115,-28.000000
116,8.000000
117,8.000000
118,8.000000
119,16.000000
120,4.000000
121,-12.000000
122,32.000000
123,16.000000
124,12.000000
125,32.000000
126,48.000000
127,-20.000000
128,0.000000
129,52.000000
130,-28.000000
131,28.000000
132,-4.000000
133,-8.000000
134,-4.000000
135,16.000000
136,104.000000
137,44.000000
138,36.000000
139,24.000000
140,-28.000000
141,-20.000000
142,12.000000
143,-8.000000
144,16.000000
145,0.000000
146,-60.000000
147,0.000000
148,0.000000
149,-36.000000
150,68.000000
151,-8.000000
152,44.000000
153,-8.000000
154,4.000000
155,-60.000000
156,-56.000000
157,-24.000000
158,28.000000
159,4.000000
160,-40.000000
161,-16.000000
162,-28.000000
163,0.000000
164,-16.000000
165,0.000000
166,-8.000000
167,-20.000000
168,-56.000000
169,-12.000000
170,-16.000000
171,-48.000000
172,20.000000
173,-28.000000
174,24.000000
175,4.000000
176,-16.000000
177,-24.000000
178,16.000000
179,-20.000000
180,-28.000000
181,0.000000
182,4.000000
183,44.000000
184,-4.000000
185,-16.000000
186,-8.000000
187,-112.000000
188,-8.000000
189,-16.000000
190,-8.000000
191,28.000000
192,-4.000000
193,52.000000
194,-28.000000
195,-40.000000
196,-44.000000
197,-24.000000
198,-20.000000
199,-20.000000
200,-16.000000
201,-12.000000
202,-12.000000
203,8.000000
204,16.000000
205,-20.000000
206,-28.000000
207,0.000000
208,-64.000000
209,4.000000
210,-44.000000
211,8.000000
212,0.000000
213,-8.000000
214,20.000000
215,0.000000
216,28.000000
217,8.000000
218,12.000000
219,4.000000
220,4.000000
221,-4.000000
222,-8.000000
223,-8.000000
224,8.000000
225,-24.000000
226,56.000000
227,20.000000
228,32.000000
229,4.000000
230,24.000000
231,8.000000
232,8.000000
233,0.000000
234,0.000000
235,-8.000000
236,-32.000000
237,0.000000
238,36.000000
239,-24.000000
240,-12.000000
241,-20.000000
242,0.000000
243,8.000000
244,-40.000000
245,52.000000
246,44.000000
247,-36.000000
248,32.000000
249,-32.000000
250,4.000000
251,-24.000000
252,12.000000
253,8.000000
254,12.000000
255,-4.000000
256,8.000000
257,0.000000
258,24.000000
259,-28.000000
260,-44.000000
261,4.000000
262,-24.000000
263,-24.000000
264,-8.000000
265,8.000000
266,12.000000
267,56.000000
268,28.000000
269,16.000000
270,-8.000000
271,0.000000
272,64.000000
273,8.000000
274,0.000000
275,8.000000
276,8.000000
277,0.000000
278,-12.000000
279,4.000000
280,0.000000
281,-24.000000
282,0.000000
283,-8.000000
284,-52.000000
285,8.000000
286,-8.000000
287,-40.000000
288,-12.000000
289,-4.000000
290,-44.000000
291,-32.000000
292,28.000000
293,12.000000
294,12.000000
295,-8.000000
296,-20.000000
297,28.000000
298,-16.000000
299,-8.000000
300,-48.000000
301,12.000000
302,60.000000
303,-20.000000
304,12.000000
305,-4.000000
306,0.000000
307,-16.000000
308,-8.000000
309,-20.000000
310,20.000000
311,20.000000
312,12.000000
313,-16.000000
314,-4.000000
315,-4.000000
316,16.000000
317,-24.000000
318,-4.000000
319,-20.000000
320,-36.000000
321,-8.000000
322,-28.000000
323,-16.000000
324,-4.000000
325,-44.000000
326,-28.000000
327,4.000000
328,-16.000000
329,8.000000
330,-8.000000
331,0.000000
332,-4.000000
333,8.000000
334,-32.000000
335,8.000000
336,0.000000
337,0.000000
338,-28.000000
339,12.000000
340,16.000000
341,-12.000000
342,-12.000000
343,-20.000000
344,40.000000
345,16.000000
346,-12.000000
347,-8.000000
348,-16.000000
349,0.000000
350,4.000000
351,0.000000
352,4.000000
353,16.000000
354,12.000000
355,76.000000
356,-4.000000
357,8.000000
358,-8.000000
359,-12.000000
360,-8.000000
361,-44.000000
362,8.000000
363,76.000000
364,16.000000
365,-12.000000
366,-48.000000
367,12.000000
368,52.000000
369,16.000000
370,-28.000000
371,-8.000000
372,0.000000
373,-20.000000
374,-16.000000
375,-20.000000
376,-12.000000
377,80.000000
378,16.000000
379,-24.000000
380,16.000000
381,-52.000000
382,24.000000
383,-16.000000
384,52.000000
385,4.000000
386,12.000000
387,16.000000
388,-8.000000
389,44.000000
390,-8.000000
391,8.000000
392,40.000000
393,-8.000000
394,0.000000
395,0.000000
396,16.000000
397,-8.000000
398,16.000000
399,-24.000000
400,4.000000
401,-8.000000
402,92.000000
403,-16.000000
404,28.000000
405,-8.000000
406,-12.000000
407,12.000000
408,44.000000
409,16.000000
410,20.000000
411,4.000000
412,-12.000000
413,-8.000000
414,0.000000
415,8.000000
416,12.000000
417,-12.000000
418,-16.000000
419,0.000000
420,8.000000
421,-16.000000
422,-16.000000
423,-32.000000
424,-32.000000
425,-8.000000
426,-12.000000
427,-12.000000
428,-16.000000
429,0.000000
430,16.000000
431,8.000000
432,-28.000000
433,-72.000000
434,-56.000000
435,-28.000000
436,-28.000000
437,-24.000000
438,4.000000
439,-52.000000
440,8.000000
441,-48.000000
442,-12.000000
443,-24.000000
444,-16.000000
445,-12.000000
446,-8.000000
447,16.000000
448,-8.000000
449,-8.000000
450,16.000000
451,16.000000
452,4.000000
453,-24.000000
454,-20.000000
455,24.000000
456,44.000000
457,-8.000000
458,12.000000
459,4.000000
460,0.000000
461,8.000000
462,-20.000000
463,-28.000000
464,32.000000
465,-8.000000
466,-48.000000
467,20.000000
468,-44.000000
469,0.000000
470,80.000000
471,-8.000000
472,52.000000
473,16.000000
474,-8.000000
475,12.000000
476,0.000000
477,20.000000
478,20.000000
479,4.000000
480,0.000000
481,4.000000
482,-64.000000
483,40.000000
484,0.000000
485,52.000000
486,8.000000
487,4.000000
488,-20.000000
489,-40.000000
490,36.000000
491,-8.000000
492,-4.000000
493,4.000000
494,40.000000
495,-16.000000
496,4.000000
497,-28.000000
498,0.000000
499,68.000000
500,68.000000
501,-52.000000
502,12.000000
503,-8.000000
504,-4.000000
505,0.000000
506,-20.000000
507,16.000000
508,8.000000
509,-4.000000
510,0.000000
511,32.000000
512,16.000000
513,-24.000000
514,-28.000000
515,-8.000000
516,-8.000000
517,-36.000000
518,8.000000
519,-8.000000
520,12.000000
521,-12.000000
522,-28.000000
523,-24.000000
524,-8.000000
525,0.000000
526,-8.000000
527,-8.000000
528,-8.000000
529,-8.000000
530,-8.000000
531,4.000000
532,0.000000
533,-16.000000
534,-8.000000
535,-8.000000
536,4.000000
537,-8.000000
538,-16.000000
539,-8.000000
540,-52.000000
541,24.000000
542,-16.000000
543,-12.000000
544,-12.000000
545,-4.000000
546,28.000000
547,-4.000000
548,-8.000000
549,112.000000
550,-8.000000
551,8.000000
552,-28.000000
553,16.000000
554,16.000000
555,-20.000000
556,-16.000000
557,-44.000000
558,-16.000000
559,0.000000
560,-4.000000
561,-32.000000
562,-8.000000
563,12.000000
564,4.000000
565,-12.000000
566,-20.000000
567,64.000000
568,-12.000000
569,-28.000000
570,24.000000
571,12.000000
572,24.000000
573,20.000000
574,-20.000000
575,-28.000000
576,-8.000000
577,16.000000
578,-16.000000
579,-8.000000
580,-8.000000
581,-16.000000
582,44.000000
583,24.000000
584,4.000000
585,4.000000
586,-24.000000
587,-36.000000
588,-8.000000
589,16.000000
590,-8.000000
591,-12.000000
592,-72.000000
593,28.000000
594,-16.000000
595,44.000000
596,-28.000000
597,-36.000000
598,-12.000000
599,44.000000
600,0.000000
601,-20.000000
602,-40.000000
603,40.000000
604,16.000000
605,-32.000000
606,-8.000000
607,0.000000
608,0.000000
609,20.000000
610,12.000000
611,-36.000000
612,-32.000000
613,-24.000000
614,8.000000
615,-12.000000
616,52.000000
617,-8.000000
618,20.000000
619,12.000000
620,-24.000000
621,-16.000000
622,-20.000000
623,-8.000000
624,8.000000
625,8.000000
626,12.000000
627,52.000000
628,-16.000000
629,16.000000
630,-24.000000
631,-4.000000
632,-8.000000
633,-24.000000
634,20.000000
635,-16.000000
636,44.000000
637,-32.000000
638,-4.000000
639,4.000000
640,4.000000
641,-4.000000
642,-32.000000
643,-8.000000
644,-4.000000
645,-40.000000
646,0.000000
647,-16.000000
648,-16.000000
649,24.000000
650,32.000000
651,24.000000
652,0.000000
653,24.000000
654,-8.000000
655,-8.000000
656,-16.000000
657,-12.000000
658,-40.000000
659,-8.000000
660,-12.000000
661,-8.000000
662,-8.000000
663,-52.000000
664,-24.000000
665,-28.000000
666,-28.000000
667,-24.000000
668,-24.000000
669,-20.000000
670,4.000000
671,0.000000
672,-12.000000
673,4.000000
674,12.000000
675,16.000000
676,0.000000
677,8.000000
678,12.000000
679,-24.000000
680,0.000000
681,-48.000000
682,-8.000000
683,-4.000000
684,0.000000
685,44.000000
686,-20.000000
687,-20.000000
688,-16.000000
689,-8.000000
690,-24.000000
691,-24.000000
692,-4.000000
693,4.000000
694,-64.000000
695,-8.000000
696,4.000000
697,4.000000
698,-52.000000
699,-8.000000
700,0.000000
701,-24.000000
702,-28.000000
703,0.000000
704,-20.000000
705,0.000000
706,0.000000
707,8.000000
708,60.000000
709,-16.000000
710,-16.000000
711,-8.000000
712,-4.000000
713,4.000000
714,-16.000000
715,0.000000
716,8.000000
717,-20.000000
718,0.000000
719,16.000000
720,0.000000
721,44.000000
722,-4.000000
723,-12.000000
724,32.000000
725,-4.000000
726,88.000000
727,20.000000
728,40.000000
729,8.000000
730,-20.000000
731,0.000000
732,-44.000000
733,-8.000000
734,24.000000
735,4.000000
736,-28.000000
737,-28.000000
738,-36.000000
739,8.000000
740,0.000000
741,-56.000000
742,0.000000
743,-8.000000
744,-28.000000
745,12.000000
746,12.000000
747,4.000000
748,-28.000000
749,16.000000
750,-36.000000
751,-32.000000
752,4.000000
753,0.000000
754,-12.000000
755,-8.000000
756,44.000000
757,-8.000000
758,-32.000000
759,-36.000000
760,-12.000000
761,-4.000000
762,-4.000000
763,24.000000
764,0.000000
765,-4.000000
766,-8.000000
767,-36.000000
768,4.000000
769,-16.000000
770,8.000000
771,4.000000
772,4.000000
773,-8.000000
774,-20.000000
775,-4.000000
776,-20.000000
777,-24.000000
778,-36.000000
779,-8.000000
780,-12.000000
781,-12.000000
782,-12.000000
783,16.000000
784,16.000000
785,-4.000000
786,-12.000000
787,-4.000000
788,-8.000000
789,-28.000000
790,-8.000000
791,32.000000
792,8.000000
793,4.000000
794,4.000000
795,-8.000000
796,-4.000000
797,0.000000
798,-28.000000
799,-12.000000
800,-8.000000
801,20.000000
802,-8.000000
803,52.000000
804,-16.000000
805,-8.000000
806,-32.000000
807,-8.000000
808,-16.000000
809,20.000000
810,-8.000000
811,8.000000
812,4.000000
813,-8.000000
814,0.000000
815,-24.000000
816,-8.000000
817,4.000000
818,12.000000
819,-20.000000
820,-12.000000
821,0.000000
822,24.000000
823,0.000000
824,16.000000
825,-8.000000
826,40.000000
827,24.000000
828,4.000000
829,-8.000000
830,-20.000000
831,-12.000000
832,0.000000
833,-20.000000
834,-36.000000
835,-16.000000
836,8.000000
837,-8.000000
838,4.000000
839,76.000000
840,-20.000000
841,-8.000000
842,8.000000
843,-20.000000
844,-16.000000
845,4.000000
846,-8.000000
847,-4.000000
848,4.000000
849,-52.000000
850,-12.000000
851,-28.000000
852,-16.000000
853,44.000000
854,24.000000
855,12.000000
856,16.000000
857,-8.000000
858,4.000000
859,4.000000
860,28.000000
861,0.000000
862,-12.000000
863,16.000000
864,0.000000
865,-28.000000
866,16.000000
867,-28.000000
868,0.000000
869,0.000000
870,-12.000000
871,72.000000
872,28.000000
873,20.000000
874,12.000000
875,-12.000000
876,32.000000
877,4.000000
878,48.000000
879,-8.000000
880,8.000000
881,8.000000
882,4.000000
883,-24.000000
884,24.000000
885,-40.000000
886,24.000000
887,-20.000000
888,28.000000
889,-8.000000
890,-16.000000
891,-20.000000
892,20.000000
893,-24.000000
894,-24.000000
895,4.000000
896,-8.000000
897,0.000000
898,0.000000
899,44.000000
900,-8.000000
901,-4.000000
902,-12.000000
903,-4.000000
904,-8.000000
905,-16.000000
906,-12.000000
907,-40.000000
908,-8.000000
909,-8.000000
910,-32.000000
911,88.000000
912,0.000000
913,0.000000
914,0.000000
915,-28.000000
916,-32.000000
917,-24.000000
918,24.000000
919,-28.000000
920,-32.000000
921,4.000000
922,-100.000000
923,-20.000000
924,-20.000000
925,68.000000
926,-16.000000
927,-16.000000
928,-32.000000
929,-8.000000
930,0.000000
931,0.000000
932,12.000000
933,0.000000
934,52.000000
935,-24.000000
936,28.000000
937,0.000000
938,0.000000
939,-4.000000
940,-8.000000
941,-8.000000
942,12.000000
943,20.000000
944,-8.000000
945,8.000000
946,-12.000000
947,-36.000000
948,-36.000000
949,12.000000
950,-60.000000
951,-24.000000
952,16.000000
953,-28.000000
954,-20.000000
955,0.000000
956,-8.000000
957,-8.000000
958,8.000000
959,-24.000000
960,0.000000
961,0.000000
962,-20.000000
963,52.000000
964,-16.000000
965,16.000000
966,-8.000000
967,12.000000
968,12.000000
969,0.000000
970,-4.000000
971,8.000000
972,-36.000000
973,16.000000
974,16.000000
975,12.000000
976,-24.000000
977,0.000000
978,0.000000
979,4.000000
980,-16.000000
981,-60.000000
982,40.000000
983,-84.000000
984,12.000000
985,-4.000000
986,-12.000000
987,-20.000000
988,-52.000000
989,28.000000
990,-8.000000
991,24.000000
992,8.000000
993,16.000000
994,-32.000000
995,8.000000
996,-20.000000
997,-20.000000
998,0.000000
999,4.000000
1000,-20.000000
1001,-16.000000
1002,-4.000000
1003,-4.000000
1004,0.000000
1005,4.000000
1006,-16.000000
1007,8.000000
1008,-8.000000
1009,4.000000
1010,-8.000000
1011,-44.000000
1012,0.000000
1013,4.000000
1014,-8.000000
1015,-12.000000
1016,32.000000
1017,0.000000
1018,64.000000
1019,4.000000
1020,-16.000000
1021,4.000000
1022,-12.000000
1023,24.000000
1024,-8.000000
1025,-60.000000
1026,-40.000000
1027,-36.000000
1028,-36.000000
1029,-20.000000
1030,16.000000
1031,-16.000000
1032,24.000000
1033,-16.000000
1034,-16.000000
1035,-44.000000
1036,-4.000000
1037,60.000000
1038,-24.000000
1039,-8.000000
1040,20.000000
1041,-32.000000
1042,0.000000
1043,0.000000
1044,0.000000
1045,-20.000000
1046,-8.000000
1047,-24.000000
1048,-48.000000
1049,0.000000
1050,16.000000
1051,-8.000000
1052,-8.000000
1053,-8.000000
1054,-16.000000
1055,-40.000000
1056,-16.000000
1057,-32.000000
1058,-40.000000
1059,-8.000000
1060,-36.000000
1061,-8.000000
1062,20.000000
1063,-4.000000
1064,-32.000000
1065,0.000000
1066,-24.000000
1067,-20.000000
1068,-24.000000
1069,-28.000000
1070,-28.000000
1071,-24.000000
1072,-24.000000
1073,-8.000000
1074,-24.000000
1075,-24.000000
1076,12.000000
1077,-56.000000
1078,0.000000
1079,-8.000000
1080,24.000000
1081,0.000000
1082,-32.000000
1083,-48.000000
1084,24.000000
1085,52.000000
1086,-36.000000
1087,0.000000
1088,8.000000
1089,24.000000
1090,-4.000000
1091,16.000000
1092,40.000000
1093,52.000000
1094,-12.000000
1095,0.000000
1096,8.000000
1097,-40.000000
1098,-8.000000
1099,4.000000
1100,44.000000
1101,-20.000000
1102,0.000000
1103,-16.000000
1104,24.000000
1105,-8.000000
1106,-24.000000
1107,40.000000
1108,8.000000
1109,28.000000
1110,16.000000
1111,44.000000
1112,48.000000
1113,12.000000
1114,16.000000
1115,8.000000
1116,-12.000000
1117,8.000000
1118,48.000000
1119,0.000000
1120,24.000000
1121,20.000000
1122,-52.000000
1123,0.000000
1124,24.000000
1125,-28.000000
1126,20.000000
1127,24.000000
1128,32.000000
1129,8.000000
1130,24.000000
1131,8.000000
1132,8.000000
1133,12.000000
1134,-8.000000
1135,20.000000
1136,-32.000000
1137,44.000000
1138,0.000000
1139,-4.000000
1140,-28.000000
1141,28.000000
1142,0.000000
1143,32.000000
1144,-8.000000
1145,4.000000
1146,-8.000000
1147,-20.000000
1148,0.000000
1149,0.000000
1150,52.000000
1151,52.000000
1152,-8.000000
1153,-8.000000
1154,-8.000000
1155,8.000000
1156,-16.000000
1157,-16.000000
1158,-32.000000
1159,-12.000000
1160,28.000000
1161,-20.000000
1162,-44.000000
1163,12.000000
1164,20.000000
1165,0.000000
1166,-28.000000
1167,-32.000000
1168,-8.000000
1169,16.000000
1170,16.000000
1171,-16.000000
1172,-8.000000
1173,-8.000000
1174,-12.000000
1175,-32.000000
1176,16.000000
1177,44.000000
1178,-4.000000
1179,0.000000
1180,-44.000000
1181,-24.000000
1182,-40.000000
1183,-8.000000
1184,-40.000000
1185,-40.000000
1186,-44.000000
1187,28.000000
1188,-12.000000
1189,0.000000
1190,0.000000
1191,4.000000
1192,-52.000000
1193,-32.000000
1194,-44.000000
1195,-8.000000
1196,-60.000000
1197,-8.000000
1198,-8.000000
1199,-32.000000
1200,20.000000
1201,4.000000
1202,-24.000000
1203,-28.000000
1204,-8.000000
1205,28.000000
1206,-56.000000
1207,-16.000000
1208,-32.000000
1209,4.000000
1210,-8.000000
1211,-96.000000
1212,-28.000000
1213,-8.000000
1214,0.000000
1215,0.000000
1216,-8.000000
1217,64.000000
1218,12.000000
1219,-12.000000
1220,-4.000000
1221,-8.000000
1222,0.000000
1223,12.000000
1224,-4.000000
1225,0.000000
1226,24.000000
1227,0.000000
1228,-12.000000
1229,16.000000
1230,4.000000
1231,4.000000
1232,4.000000
1233,0.000000
1234,-28.000000
1235,-8.000000
1236,16.000000
1237,16.000000
1238,-32.000000
1239,20.000000
1240,0.000000
1241,52.000000
1242,24.000000
1243,-16.000000
1244,40.000000
1245,16.000000
1246,-8.000000
1247,-40.000000
1248,16.000000
1249,44.000000
1250,24.000000
1251,52.000000
1252,8.000000
1253,52.000000
1254,-32.000000
1255,0.000000
1256,20.000000
1257,24.000000
1258,16.000000
1259,-28.000000
1260,-40.000000
1261,-8.000000
1262,44.000000
1263,4.000000
1264,4.000000
1265,24.000000
1266,-12.000000
1267,40.000000
1268,-36.000000
1269,-16.000000
1270,12.000000
1271,0.000000
1272,-4.000000
1273,-28.000000
1274,16.000000
1275,16.000000
1276,-8.000000
1277,-8.000000
1278,-20.000000
1279,-76.000000
1280,16.000000
1281,-24.000000
1282,16.000000
1283,-32.000000
1284,96.000000
1285,8.000000
1286,-8.000000
1287,8.000000
1288,-8.000000
1289,-8.000000
1290,0.000000
1291,-8.000000
1292,-48.000000
1293,-24.000000
1294,-12.000000
1295,0.000000
1296,-4.000000
1297,-20.000000
1298,-48.000000
1299,24.000000
1300,-12.000000
1301,-48.000000
1302,-16.000000
1303,-20.000000
1304,8.000000
1305,-44.000000
1306,-48.000000
1307,24.000000
1308,-8.000000
1309,-36.000000
1310,-36.000000
1311,-40.000000
1312,-20.000000
1313,-36.000000
1314,-32.000000
1315,-28.000000
1316,-16.000000
1317,0.000000
1318,20.000000
1319,16.000000
1320,-4.000000
1321,-12.000000
1322,-12.000000
1323,-8.000000
1324,-36.000000
1325,-24.000000
1326,20.000000
1327,28.000000
1328,-8.000000
1329,-44.000000
1330,0.000000
1331,-24.000000
1332,-24.000000
1333,-32.000000
1334,-32.000000
1335,-16.000000
1336,-24.000000
1337,-8.000000
1338,-8.000000
1339,-4.000000
1340,20.000000
1341,24.000000
1342,24.000000
1343,4.000000
1344,-20.000000
1345,-20.000000
1346,-36.000000
1347,44.000000
1348,-8.000000
1349,4.000000
1350,-12.000000
1351,-12.000000
1352,4.000000
1353,-8.000000
1354,24.000000
1355,-4.000000
1356,0.000000
1357,4.000000
1358,4.000000
1359,4.000000
1360,4.000000
1361,-8.000000
1362,24.000000
1363,-12.000000
1364,32.000000
1365,-28.000000
1366,-12.000000
1367,44.000000
1368,16.000000
1369,-8.000000
1370,4.000000
1371,52.000000
1372,-28.000000
1373,20.000000
1374,0.000000
1375,-28.000000
1376,4.000000
1377,24.000000
1378,24.000000
