docs/evidence/raw/2026-09-07/data_21_017.csv

Channel              :,CH1
Frequency            :,  ?
Period               :,  ?
PK-PK                :,250.0mV
Probe attenuation    :,1X
Voltage per ADC value:,0.125000mV
Time interval        :,100.00000us

index,CH1_Voltage(mV)
1,16.000000
2,16.000000
3,4.000000
4,50.000000
5,8.000000
6,-2.000000
7,-30.000000
8,-50.000000
9,6.000000
10,-52.000000
11,-18.000000
12,100.000000
13,-20.000000
14,0.000000
15,-20.000000
16,8.000000
17,-26.000000
18,2.000000
19,-30.000000
20,-38.000000
21,-34.000000
22,-4.000000
23,26.000000
24,-18.000000
25,-72.000000
26,-30.000000
27,8.000000
28,-22.000000
29,28.000000
30,-30.000000
31,2.000000
32,10.000000
33,-60.000000
34,2.000000
35,44.000000
36,14.000000
37,-36.000000
38,4.000000
39,28.000000
40,40.000000
41,60.000000
42,-2.000000
43,30.000000
44,-18.000000
45,50.000000
46,2.000000
47,-24.000000
48,8.000000
49,86.000000
50,-54.000000
51,-32.000000
52,-2.000000
53,-16.000000
54,-24.000000
55,2.000000
56,8.000000
57,-12.000000
58,4.000000
59,-10.000000
60,-28.000000
61,-2.000000
62,0.000000
63,-54.000000
64,-8.000000
65,20.000000
66,-6.000000
67,-20.000000
68,32.000000
69,2.000000
70,0.000000
71,-2.000000
72,-20.000000
73,-36.000000
74,-26.000000
75,-4.000000
76,-2.000000
77,34.000000
78,14.000000
79,24.000000
80,-14.000000
81,-8.000000
82,-14.000000
83,-36.000000
84,-40.000000
85,-8.000000
86,-36.000000
87,10.000000
88,-44.000000
89,10.000000
90,-68.000000
91,-12.000000
92,-34.000000
93,24.000000
94,2.000000
95,0.000000
96,26.000000
97,-12.000000
98,-48.000000
99,68.000000
100,-22.000000
101,24.000000
102,0.000000
103,12.000000
104,-2.000000
105,-12.000000
106,-2.000000
107,-12.000000
108,16.000000
109,10.000000
110,-30.000000
111,-4.000000
112,38.000000
113,-30.000000
114,28.000000
115,-22.000000
116,-8.000000
117,-16.000000
118,-16.000000
119,-12.000000
120,-32.000000
121,12.000000
122,-28.000000
123,-50.000000
124,16.000000
125,-62.000000
126,46.000000
127,-36.000000
128,22.000000
129,-52.000000
130,-14.000000
131,-36.000000
132,50.000000
133,-10.000000
134,36.000000
135,2.000000
136,8.000000
137,-14.000000
138,-2.000000
139,-8.000000
140,14.000000
141,-22.000000
142,8.000000
143,-12.000000
144,6.000000
145,-2.000000
146,18.000000
147,68.000000
148,60.000000
149,-48.000000
150,-36.000000
151,-2.000000
152,4.000000
153,12.000000
154,8.000000
155,-30.000000
156,-40.000000
157,-36.000000
158,32.000000
159,-22.000000
160,-62.000000
161,0.000000
162,2.000000
163,14.000000
164,-60.000000
165,-12.000000
166,-8.000000
167,-50.000000
168,-44.000000
169,0.000000
170,-8.000000
171,14.000000
172,-50.000000
173,-44.000000
174,14.000000
175,-82.000000
176,8.000000
177,0.000000
178,-4.000000
179,-8.000000
180,-16.000000
181,20.000000
182,-6.000000
183,4.000000
184,4.000000
185,16.000000
186,20.000000
187,36.000000
188,-26.000000
189,28.000000
190,8.000000
191,-12.000000
192,-6.000000
193,14.000000
194,12.000000
195,-18.000000
196,-4.000000
197,8.000000
198,-26.000000
199,-22.000000
200,20.000000
201,8.000000
202,-20.000000
203,32.000000
204,-72.000000
205,-8.000000
206,-18.000000
207,26.000000
208,12.000000
209,20.000000
210,32.000000
211,-2.000000
212,-4.000000
213,36.000000
214,-4.000000
215,32.000000
216,40.000000
217,-16.000000
218,28.000000
219,10.000000
220,6.000000
221,-24.000000
222,-20.000000
223,54.000000
224,-38.000000
225,-12.000000
226,10.000000
227,-30.000000
228,-28.000000
229,10.000000
230,16.000000
231,-50.000000
232,-8.000000
233,-16.000000
234,-4.000000
235,10.000000
236,-24.000000
237,-30.000000
238,26.000000
239,-14.000000
240,26.000000
241,54.000000
242,56.000000
243,54.000000
244,-22.000000
245,-36.000000
246,14.000000
247,12.000000
248,70.000000
249,26.000000
250,-4.000000
251,54.000000
252,-44.000000
253,-26.000000
254,2.000000
255,-68.000000
256,-12.000000
257,-12.000000
258,-18.000000
259,-16.000000
260,0.000000
261,8.000000
262,8.000000
263,24.000000
264,0.000000
265,-6.000000
266,-32.000000
267,-30.000000
268,-20.000000
269,-58.000000
270,-24.000000
271,-20.000000
272,-6.000000
273,20.000000
274,4.000000
275,12.000000
276,6.000000
277,-4.000000
278,2.000000
279,-14.000000
280,36.000000
281,-8.000000
282,-24.000000
283,-8.000000
284,60.000000
285,22.000000
286,78.000000
287,-22.000000
288,-62.000000
289,68.000000
290,-12.000000
291,0.000000
292,30.000000
293,8.000000
294,-12.000000
295,8.000000
296,-8.000000
297,-12.000000
298,0.000000
299,-4.000000
300,28.000000
301,82.000000
302,24.000000
303,-6.000000
304,10.000000
305,22.000000
306,68.000000
307,-2.000000
308,-62.000000
309,-34.000000
310,54.000000
311,30.000000
312,40.000000
313,22.000000
314,78.000000
315,44.000000
316,-4.000000
317,-26.000000
318,-58.000000
319,-4.000000
320,2.000000
321,-4.000000
322,-8.000000
323,-8.000000
324,4.000000
325,22.000000
326,-22.000000
327,2.000000
328,22.000000
329,32.000000
330,-2.000000
331,-52.000000
332,-2.000000
333,-20.000000
334,36.000000
335,0.000000
336,112.000000
337,6.000000
338,-16.000000
339,-4.000000
340,-30.000000
341,-22.000000
342,-32.000000
343,6.000000
344,4.000000
345,24.000000
346,-12.000000
347,-8.000000
348,70.000000
349,24.000000
350,54.000000
351,54.000000
352,10.000000
353,0.000000
354,-40.000000
355,-20.000000
356,-16.000000
357,10.000000
358,-8.000000
359,8.000000
360,-4.000000
361,10.000000
362,10.000000
363,8.000000
364,-40.000000
365,-26.000000
366,-18.000000
367,44.000000
368,86.000000
369,-32.000000
370,48.000000
371,-2.000000
372,10.000000
373,20.000000
374,22.000000
375,-32.000000
376,-4.000000
377,-26.000000
378,14.000000
379,-84.000000
380,20.000000
381,46.000000
382,-58.000000
383,10.000000
384,22.000000
385,12.000000
386,10.000000
387,-16.000000
388,12.000000
389,10.000000
390,-8.000000
391,-38.000000
392,32.000000
393,54.000000
394,40.000000
395,-44.000000
396,14.000000
397,8.000000
398,-20.000000
399,-2.000000
400,-20.000000
401,24.000000
402,26.000000
403,34.000000
404,-22.000000
405,64.000000
406,-4.000000
407,0.000000
408,14.000000
409,-74.000000
410,4.000000
411,54.000000
412,8.000000
413,68.000000
414,40.000000
415,-24.000000
416,2.000000
417,10.000000
418,-4.000000
419,38.000000
420,74.000000
421,2.000000
422,22.000000
423,6.000000
424,-52.000000
425,0.000000
426,-8.000000
427,-8.000000
428,-4.000000
429,-44.000000
430,-26.000000
431,0.000000
432,64.000000
433,-20.000000
434,-30.000000
435,24.000000
436,-52.000000
437,12.000000
438,-30.000000
439,8.000000
440,0.000000
441,16.000000
442,-32.000000
443,34.000000
444,30.000000
445,-30.000000
446,-12.000000
447,12.000000
448,-30.000000
449,16.000000
450,-8.000000
451,2.000000
452,-74.000000
453,24.000000
454,-4.000000
455,10.000000
456,18.000000
457,8.000000
458,18.000000
459,64.000000
460,18.000000
461,-6.000000
462,-20.000000
463,-16.000000
464,60.000000
465,18.000000
466,12.000000
467,-8.000000
468,2.000000
469,6.000000
470,-72.000000
471,32.000000
472,4.000000
473,30.000000
474,-16.000000
475,-16.000000
476,-22.000000
477,-34.000000
478,-4.000000
479,-4.000000
480,14.000000
481,-32.000000
482,-4.000000
483,14.000000
484,40.000000
485,20.000000
486,24.000000
487,-30.000000
488,-40.000000
489,56.000000
490,-48.000000
491,-30.000000
492,40.000000
493,2.000000
494,42.000000
495,-18.000000
496,-16.000000
497,8.000000
498,-16.000000
499,-40.000000
500,-26.000000
501,10.000000
502,-20.000000
503,8.000000
504,4.000000
505,-48.000000
506,12.000000
507,26.000000
508,-44.000000
509,-40.000000
510,-8.000000
511,40.000000
512,-56.000000
513,20.000000
514,-26.000000
515,48.000000
516,8.000000
517,-12.000000
518,-4.000000
519,-2.000000
520,-76.000000
521,-32.000000
522,-22.000000
523,-38.000000
524,22.000000
525,16.000000
526,-22.000000
527,-12.000000
528,14.000000
529,8.000000
530,-22.000000
531,2.000000
532,2.000000
533,-30.000000
534,-32.000000
535,22.000000
536,12.000000
537,8.000000
538,-6.000000
539,2.000000
540,14.000000
541,2.000000
542,14.000000
543,28.000000
544,-4.000000
545,-20.000000
546,30.000000
547,2.000000
548,-30.000000
549,-12.000000
550,10.000000
551,2.000000
552,-8.000000
553,2.000000
554,58.000000
555,-94.000000
556,10.000000
557,-12.000000
558,-46.000000
559,10.000000
560,12.000000
561,16.000000
562,18.000000
563,-8.000000
564,4.000000
565,-60.000000
566,44.000000
567,40.000000
568,-12.000000
569,-26.000000
570,78.000000
571,-44.000000
572,-82.000000
573,0.000000
574,2.000000
575,-34.000000
576,22.000000
577,14.000000
578,50.000000
579,-8.000000
580,-18.000000
581,14.000000
582,14.000000
583,-26.000000
584,6.000000
585,44.000000
586,-2.000000
587,-12.000000
588,-18.000000
589,-30.000000
590,16.000000
591,-44.000000
592,12.000000
593,-16.000000
594,68.000000
595,8.000000
596,2.000000
597,14.000000
598,32.000000
599,10.000000
600,-104.000000
601,-22.000000
602,4.000000
603,14.000000
604,-14.000000
605,30.000000
606,2.000000
607,4.000000
608,-4.000000
609,-58.000000
610,20.000000
611,-28.000000
612,16.000000
613,10.000000
614,18.000000
615,2.000000
616,26.000000
617,-24.000000
618,-24.000000
619,68.000000
620,-30.000000
621,6.000000
622,-4.000000
623,-14.000000
624,74.000000
625,54.000000
626,20.000000
627,14.000000
628,-2.000000
629,-18.000000
630,-20.000000
631,0.000000
632,-2.000000
633,-18.000000
634,-40.000000
635,-22.000000
636,30.000000
637,-66.000000
638,2.000000
639,-56.000000
640,26.000000
641,-60.000000
642,60.000000
643,-60.000000
644,-20.000000
645,-8.000000
646,0.000000
647,-16.000000
648,-26.000000
649,-8.000000
650,-20.000000
651,22.000000
652,22.000000
653,-40.000000
654,-2.000000
655,30.000000
656,-12.000000
657,58.000000
658,-6.000000
659,44.000000
660,-60.000000
661,2.000000
662,-32.000000
663,14.000000
664,-50.000000
665,0.000000
666,-20.000000
667,40.000000
668,-12.000000
669,-30.000000
670,0.000000
671,28.000000
672,-24.000000
673,2.000000
674,46.000000
675,-60.000000
676,22.000000
677,-4.000000
678,40.000000
679,32.000000
680,-20.000000
681,32.000000
682,26.000000
683,-60.000000
684,12.000000
685,-6.000000
686,14.000000
687,0.000000
688,-48.000000
689,54.000000
690,-22.000000
691,54.000000
692,46.000000
693,12.000000
694,26.000000
695,-16.000000
696,-48.000000
697,-4.000000
698,-6.000000
699,-16.000000
700,46.000000
701,-14.000000
702,2.000000
703,8.000000
704,34.000000
705,16.000000
706,-22.000000
707,-26.000000
708,50.000000
709,-68.000000
710,58.000000
711,-4.000000
712,-24.000000
713,62.000000
714,8.000000
715,74.000000
716,0.000000
717,-38.000000
718,-16.000000
719,-2.000000
720,-18.000000
721,-2.000000
722,2.000000
723,-2.000000
724,68.000000
725,36.000000
726,-20.000000
727,-80.000000
728,2.000000
729,0.000000
730,0.000000
731,24.000000
732,-2.000000
733,4.000000
734,16.000000
735,44.000000
736,-16.000000
737,-2.000000
738,4.000000
739,-18.000000
740,-12.000000
741,-2.000000
742,2.000000
743,-4.000000
744,-26.000000
745,-24.000000
746,-4.000000
747,10.000000
748,10.000000
749,14.000000
750,0.000000
751,74.000000
752,8.000000
753,14.000000
754,-8.000000
755,-4.000000
756,-4.000000
757,12.000000
758,10.000000
759,56.000000
760,-24.000000
761,54.000000
762,-26.000000
763,2.000000
764,8.000000
765,10.000000
766,-18.000000
767,28.000000
768,2.000000
769,-18.000000
770,10.000000
771,32.000000
772,-40.000000
773,-16.000000
774,-44.000000
775,-12.000000
776,-14.000000
777,-22.000000
778,-44.000000
779,60.000000
780,40.000000
781,16.000000
782,-44.000000
783,-34.000000
784,-12.000000
785,-6.000000
786,20.000000
787,14.000000
788,-52.000000
789,-66.000000
790,-28.000000
791,2.000000
792,-48.000000
793,0.000000
794,20.000000
795,30.000000
796,8.000000
797,92.000000
798,20.000000
799,-48.000000
800,-34.000000
801,8.000000
802,10.000000
803,-10.000000
804,-2.000000
805,26.000000
806,4.000000
807,36.000000
808,-8.000000
809,-34.000000
810,-68.000000
811,-26.000000
812,82.000000
813,-44.000000
814,-50.000000
815,-14.000000
816,14.000000
817,-16.000000
818,-38.000000
819,-52.000000
820,32.000000
821,-16.000000
822,20.000000
823,32.000000
824,-40.000000
825,-16.000000
826,24.000000
827,68.000000
828,-36.000000
829,-8.000000
830,-66.000000
831,2.000000
832,0.000000
833,-12.000000
834,50.000000
835,0.000000
836,-18.000000
837,58.000000
838,8.000000
839,-18.000000
840,8.000000
841,26.000000
842,-14.000000
843,0.000000
844,-24.000000
845,16.000000
846,-8.000000
847,-26.000000
848,-22.000000
849,14.000000
850,16.000000
851,-22.000000
852,-42.000000
853,-30.000000
854,-20.000000
855,-2.000000
856,-6.000000
857,-18.000000
858,-16.000000
859,10.000000
860,-14.000000
861,-44.000000
862,-28.000000
863,-8.000000
864,-6.000000
865,6.000000
866,-32.000000
867,26.000000
868,-20.000000
869,-12.000000
870,-12.000000
871,-20.000000
872,-4.000000
873,44.000000
874,-10.000000
875,6.000000
876,-4.000000
877,12.000000
878,58.000000
879,-6.000000
880,-4.000000
881,18.000000
882,-34.000000
883,2.000000
884,-20.000000
885,8.000000
886,-46.000000
887,-24.000000
888,6.000000
889,-20.000000
890,-2.000000
891,-6.000000
892,-6.000000
893,6.000000
894,-30.000000
895,26.000000
896,-4.000000
897,-4.000000
898,-44.000000
899,54.000000
900,-12.000000
901,-34.000000
902,-8.000000
903,-28.000000
904,8.000000
905,-26.000000
906,-24.000000
907,26.000000
908,12.000000
909,14.000000
910,-28.000000
911,-80.000000
912,-14.000000
913,24.000000
914,20.000000
915,-2.000000
916,16.000000
917,2.000000
918,-2.000000
919,10.000000
920,-72.000000
921,10.000000
922,-14.000000
923,12.000000
924,-20.000000
925,2.000000
926,16.000000
927,32.000000
928,46.000000
929,-8.000000
930,-30.000000
931,46.000000
932,0.000000
933,-16.000000
934,50.000000
935,38.000000
936,-54.000000
937,2.000000
938,2.000000
939,-8.000000
940,0.000000
941,-64.000000
942,-14.000000
943,74.000000
944,44.000000
945,-12.000000
946,6.000000
947,-114.000000
948,-20.000000
949,-64.000000
950,14.000000
951,26.000000
952,4.000000
953,24.000000
954,-68.000000
955,28.000000
956,2.000000
957,18.000000
958,16.000000
959,46.000000
960,2.000000
961,8.000000
962,18.000000
963,36.000000
964,-36.000000
965,-30.000000
966,-30.000000
967,4.000000
968,-4.000000
969,10.000000
970,-12.000000
971,-6.000000
972,10.000000
973,28.000000
974,52.000000
975,14.000000
976,-12.000000
977,86.000000
978,16.000000
979,-2.000000
980,10.000000
981,10.000000
982,36.000000
983,14.000000
984,2.000000
985,94.000000
986,12.000000
987,38.000000
988,16.000000
989,-64.000000
990,-12.000000
991,-64.000000
992,14.000000
993,4.000000
994,-26.000000
995,-22.000000
996,8.000000
997,-8.000000
998,72.000000
999,-12.000000
1000,26.000000
1001,10.000000
1002,74.000000
1003,-22.000000
1004,-8.000000
1005,8.000000
1006,2.000000
1007,-6.000000
1008,2.000000
1009,-10.000000
1010,-82.000000
1011,-4.000000
1012,-4.000000
1013,0.000000
1014,-68.000000
1015,-56.000000
1016,-40.000000
1017,16.000000
1018,-32.000000
1019,2.000000
1020,24.000000
1021,10.000000
1022,8.000000
1023,-28.000000
1024,-26.000000
1025,-12.000000
1026,54.000000
1027,-16.000000
1028,4.000000
1029,58.000000
1030,-2.000000
1031,14.000000
1032,14.000000
1033,-4.000000
1034,50.000000
1035,16.000000
1036,0.000000
1037,-10.000000
1038,50.000000
1039,8.000000
1040,-22.000000
1041,-8.000000
1042,2.000000
1043,-16.000000
1044,-18.000000
1045,46.000000
1046,4.000000
1047,20.000000
1048,34.000000
1049,10.000000
1050,12.000000
1051,-2.000000
1052,-12.000000
1053,-12.000000
1054,62.000000
1055,-40.000000
1056,-20.000000
1057,-14.000000
1058,56.000000
1059,12.000000
1060,-50.000000
1061,10.000000
1062,-26.000000
1063,50.000000
1064,0.000000
1065,-28.000000
1066,-2.000000
1067,38.000000
1068,-32.000000
1069,54.000000
1070,54.000000
1071,54.000000
1072,-36.000000
1073,2.000000
1074,-16.000000
1075,-18.000000
1076,72.000000
1077,10.000000
1078,-8.000000
1079,-68.000000
1080,-16.000000
1081,-12.000000
1082,70.000000
1083,46.000000
1084,0.000000
1085,6.000000
1086,-40.000000
1087,28.000000
1088,-14.000000
1089,-24.000000
1090,-26.000000
1091,42.000000
1092,-22.000000
1093,-18.000000
1094,44.000000
1095,-6.000000
1096,10.000000
1097,14.000000
1098,-64.000000
1099,-30.000000
1100,-2.000000
1101,-16.000000
1102,-40.000000
1103,-22.000000
1104,30.000000
1105,14.000000
1106,-44.000000
1107,62.000000
1108,-12.000000
1109,-8.000000
1110,58.000000
1111,14.000000
1112,-14.000000
1113,-6.000000
1114,-4.000000
1115,-18.000000
1116,0.000000
1117,-44.000000
1118,24.000000
1119,-76.000000
1120,50.000000
1121,-16.000000
1122,2.000000
1123,24.000000
1124,12.000000
1125,64.000000
1126,-52.000000
1127,4.000000
1128,-22.000000
1129,-68.000000
1130,-12.000000
1131,-26.000000
1132,-64.000000
1133,8.000000
1134,-12.000000
1135,-10.000000
1136,-10.000000
1137,44.000000
1138,2.000000
1139,-32.000000
1140,6.000000
1141,26.000000
1142,-2.000000
1143,-20.000000
1144,-6.000000
1145,8.000000
1146,-18.000000
1147,10.000000
1148,-30.000000
1149,4.000000
1150,-30.000000
1151,4.000000
1152,8.000000
1153,-16.000000
1154,58.000000
1155,42.000000
1156,16.000000
1157,8.000000
1158,6.000000
1159,-4.000000
1160,-12.000000
1161,6.000000
1162,-18.000000
1163,30.000000
1164,2.000000
1165,-54.000000
1166,-30.000000
1167,60.000000
1168,-8.000000
1169,-4.000000
1170,-4.000000
1171,8.000000
1172,20.000000
1173,-36.000000
1174,-4.000000
1175,-16.000000
1176,-36.000000
1177,46.000000
1178,22.000000
1179,36.000000
1180,-12.000000
1181,-12.000000
1182,-26.000000
1183,8.000000
1184,-32.000000
1185,92.000000
1186,26.000000
1187,-24.000000
1188,-40.000000
1189,-14.000000
1190,14.000000
1191,54.000000
1192,-14.000000
1193,30.000000
1194,-4.000000
1195,-12.000000
1196,0.000000
1197,56.000000
1198,22.000000
1199,16.000000
1200,-44.000000
1201,2.000000
1202,10.000000
1203,0.000000
1204,18.000000
1205,24.000000
1206,-4.000000
1207,-2.000000
1208,12.000000
1209,14.000000
1210,58.000000
1211,20.000000
1212,-4.000000
1213,58.000000
1214,70.000000
1215,10.000000
1216,16.000000
1217,-2.000000
1218,-8.000000
1219,16.000000
1220,-52.000000
1221,8.000000
1222,-22.000000
1223,44.000000
1224,-48.000000
1225,-4.000000
1226,16.000000
1227,-22.000000
1228,-8.000000
1229,36.000000
1230,8.000000
1231,-76.000000
1232,64.000000
1233,14.000000
1234,60.000000
1235,-4.000000
1236,-10.000000
1237,-18.000000
1238,-74.000000
1239,36.000000
1240,-12.000000
1241,12.000000
1242,8.000000
1243,-22.000000
1244,10.000000
1245,8.000000
1246,-18.000000
1247,-30.000000
1248,-50.000000
1249,58.000000
1250,38.000000
1251,26.000000
1252,24.000000
1253,14.000000
1254,14.000000
1255,-18.000000
1256,0.000000
1257,-20.000000
1258,8.000000
1259,0.000000
1260,48.000000
1261,40.000000
1262,-48.000000
1263,48.000000
1264,28.000000
1265,-34.000000
1266,62.000000
1267,-26.000000
1268,40.000000
1269,2.000000
1270,6.000000
1271,-2.000000
1272,-12.000000
1273,-16.000000
1274,46.000000
1275,8.000000
1276,-40.000000
1277,-54.000000
1278,-10.000000
1279,16.000000
1280,50.000000
1281,14.000000
1282,12.000000
1283,50.000000
1284,-12.000000
1285,2.000000
1286,-12.000000
1287,8.000000
1288,46.000000
1289,-38.000000
1290,34.000000
1291,50.000000
1292,-36.000000
1293,-12.000000
1294,60.000000
1295,8.000000
1296,8.000000
1297,10.000000
1298,10.000000
1299,-4.000000
1300,6.000000
1301,-12.000000
1302,60.000000
1303,-16.000000
1304,-4.000000
1305,-44.000000
1306,-4.000000
1307,-16.000000
1308,-50.000000
1309,40.000000
1310,-24.000000
1311,14.000000
1312,28.000000
1313,0.000000
1314,56.000000
1315,0.000000
1316,38.000000
1317,-20.000000
1318,-48.000000
1319,6.000000
1320,4.000000
1321,-26.000000
1322,-20.000000
1323,-6.000000
1324,-22.000000
1325,-26.000000
1326,-8.000000
1327,28.000000
1328,26.000000
1329,20.000000
1330,-16.000000
1331,2.000000
1332,-40.000000
1333,0.000000
1334,-20.000000
1335,-2.000000
1336,-20.000000
1337,-2.000000
1338,-4.000000
1339,64.000000
1340,4.000000
1341,14.000000
1342,8.000000
1343,-18.000000
1344,-18.000000
1345,-28.000000
1346,-8.000000
1347,-14.000000
1348,40.000000
1349,-54.000000
1350,-34.000000
1351,26.000000
1352,24.000000
1353,50.000000
1354,-20.000000
1355,-58.000000
1356,-46.000000
1357,62.000000
1358,46.000000
1359,82.000000
1360,32.000000
1361,-18.000000
1362,8.000000
1363,2.000000
1364,4.000000
1365,-18.000000
1366,6.000000
1367,-30.000000
1368,-34.000000
1369,12.000000
1370,-2.000000
1371,-12.000000
1372,-2.000000
