docs/evidence/raw/2026-09-07/data_20_013off.csv

Channel              :,CH1
Frequency            :,  ?
Period               :,  ?
PK-PK                :,280.0mV
Probe attenuation    :,1X
Voltage per ADC value:,0.250000mV
Time interval        :,100.00000us

index,CH1_Voltage(mV)
1,-28.000000
2,-28.000000
3,-12.000000
4,16.000000
5,0.000000
6,-64.000000
7,-36.000000
8,4.000000
9,-32.000000
10,0.000000
11,0.000000
12,24.000000
13,4.000000
14,-16.000000
15,-8.000000
16,16.000000
17,-36.000000
18,20.000000
19,-44.000000
20,-16.000000
21,0.000000
22,-4.000000
23,-20.000000
24,-8.000000
25,-8.000000
26,12.000000
27,-32.000000
28,-4.000000
29,-4.000000
30,4.000000
31,-40.000000
32,-20.000000
33,16.000000
34,60.000000
35,64.000000
36,20.000000
37,20.000000
38,-16.000000
39,12.000000
40,20.000000
41,0.000000
42,-4.000000
43,76.000000
44,24.000000
45,-36.000000
46,24.000000
47,8.000000
48,-8.000000
49,4.000000
50,-4.000000
51,4.000000
52,8.000000
53,0.000000
54,-16.000000
55,-20.000000
56,-40.000000
57,0.000000
58,60.000000
59,0.000000
60,-8.000000
61,-8.000000
62,-16.000000
63,-8.000000
64,-12.000000
65,-8.000000
66,-32.000000
67,-12.000000
68,12.000000
69,-12.000000
70,20.000000
71,40.000000
72,-24.000000
73,-8.000000
74,-4.000000
75,0.000000
76,-36.000000
77,-44.000000
78,16.000000
79,28.000000
80,-20.000000
81,16.000000
82,84.000000
83,44.000000
84,-20.000000
85,-16.000000
86,72.000000
87,12.000000
88,8.000000
89,16.000000
90,-16.000000
91,24.000000
92,-4.000000
93,60.000000
94,-8.000000
95,0.000000
96,-8.000000
97,16.000000
98,4.000000
99,-12.000000
100,0.000000
101,-28.000000
102,24.000000
103,-16.000000
104,-20.000000
105,4.000000
106,-60.000000
107,-28.000000
108,-8.000000
109,12.000000
110,-40.000000
111,16.000000
112,-8.000000
113,-20.000000
114,0.000000
115,-8.000000
116,-60.000000
117,-8.000000
118,12.000000
119,-8.000000
120,12.000000
121,-60.000000
122,20.000000
123,-4.000000
124,28.000000
125,4.000000
126,-8.000000
127,-8.000000
128,20.000000
129,-16.000000
130,-8.000000
131,-20.000000
132,-20.000000
133,-24.000000
134,-4.000000
135,-24.000000
136,4.000000
137,64.000000
138,-12.000000
139,12.000000
140,-8.000000
141,-12.000000
142,-28.000000
143,-28.000000
144,-8.000000
145,8.000000
146,0.000000
147,24.000000
148,-16.000000
149,44.000000
150,40.000000
151,-8.000000
152,28.000000
153,-16.000000
154,-20.000000
155,-8.000000
156,-12.000000
157,-8.000000
158,-32.000000
159,-12.000000
160,-8.000000
161,-12.000000
162,24.000000
163,0.000000
164,8.000000
165,-12.000000
166,-8.000000
167,0.000000
168,24.000000
169,-8.000000
170,4.000000
171,0.000000
172,16.000000
173,-12.000000
174,-40.000000
175,-8.000000
176,-4.000000
177,8.000000
178,-8.000000
179,0.000000
180,8.000000
181,56.000000
182,52.000000
183,-12.000000
184,-32.000000
185,-8.000000
186,-20.000000
187,-40.000000
188,28.000000
189,16.000000
190,-12.000000
191,-44.000000
192,8.000000
193,4.000000
194,28.000000
195,-8.000000
196,-12.000000
197,-8.000000
198,0.000000
199,44.000000
200,52.000000
201,-8.000000
202,24.000000
203,44.000000
204,-20.000000
205,-24.000000
206,-44.000000
207,24.000000
208,8.000000
209,8.000000
210,-8.000000
211,-20.000000
212,-32.000000
213,-8.000000
214,-8.000000
215,12.000000
216,4.000000
217,-44.000000
218,-28.000000
219,0.000000
220,0.000000
221,-28.000000
222,16.000000
223,16.000000
224,-16.000000
225,88.000000
226,-36.000000
227,0.000000
228,-68.000000
229,-8.000000
230,12.000000
231,-40.000000
232,0.000000
233,16.000000
234,-12.000000
235,0.000000
236,0.000000
237,60.000000
238,8.000000
239,12.000000
240,0.000000
241,8.000000
242,-20.000000
243,-40.000000
244,-8.000000
245,0.000000
246,12.000000
247,-44.000000
248,16.000000
249,-16.000000
250,44.000000
251,-48.000000
252,4.000000
253,52.000000
254,-8.000000
255,-12.000000
256,-36.000000
257,16.000000
258,0.000000
259,-8.000000
260,-4.000000
261,0.000000
262,56.000000
263,-12.000000
264,-60.000000
265,0.000000
266,12.000000
267,28.000000
268,-40.000000
269,-8.000000
270,24.000000
271,-16.000000
272,0.000000
273,-12.000000
274,68.000000
275,0.000000
276,-8.000000
277,-8.000000
278,64.000000
279,0.000000
280,-32.000000
281,-16.000000
282,-8.000000
283,56.000000
284,-24.000000
285,-4.000000
286,-44.000000
287,0.000000
288,0.000000
289,-36.000000
290,-8.000000
291,56.000000
292,-4.000000
293,0.000000
294,-8.000000
295,-4.000000
296,12.000000
297,-8.000000
298,0.000000
299,20.000000
300,-8.000000
301,-8.000000
302,-12.000000
303,0.000000
304,28.000000
305,-8.000000
306,-4.000000
307,-52.000000
308,16.000000
309,0.000000
310,-20.000000
311,-8.000000
312,8.000000
313,-20.000000
314,-12.000000
315,-16.000000
316,0.000000
317,16.000000
318,20.000000
319,-16.000000
320,0.000000
321,-32.000000
322,-4.000000
323,-40.000000
324,4.000000
325,0.000000
326,8.000000
327,0.000000
328,-12.000000
329,-12.000000
330,-12.000000
331,-12.000000
332,60.000000
333,-16.000000
334,-12.000000
335,0.000000
336,12.000000
337,4.000000
338,44.000000
339,28.000000
340,0.000000
341,0.000000
342,4.000000
343,0.000000
344,8.000000
345,36.000000
346,-4.000000
347,20.000000
348,-8.000000
349,-32.000000
350,-8.000000
351,20.000000
352,-20.000000
353,-16.000000
354,-8.000000
355,24.000000
356,52.000000
357,-16.000000
358,20.000000
359,-20.000000
360,-12.000000
361,0.000000
362,0.000000
363,-40.000000
364,0.000000
365,0.000000
366,-28.000000
367,0.000000
368,8.000000
369,4.000000
370,-84.000000
371,12.000000
372,-8.000000
373,-32.000000
374,-16.000000
375,-52.000000
376,-16.000000
377,-12.000000
378,-4.000000
379,-48.000000
380,44.000000
381,-8.000000
382,-8.000000
383,0.000000
384,-8.000000
385,4.000000
386,-16.000000
387,-4.000000
388,-24.000000
389,0.000000
390,12.000000
391,-32.000000
392,12.000000
393,16.000000
394,0.000000
395,0.000000
396,0.000000
397,-40.000000
398,-28.000000
399,24.000000
400,0.000000
401,16.000000
402,-24.000000
403,-52.000000
404,-8.000000
405,44.000000
406,56.000000
407,0.000000
408,4.000000
409,0.000000
410,4.000000
411,0.000000
412,-16.000000
413,12.000000
414,-72.000000
415,-44.000000
416,8.000000
417,32.000000
418,64.000000
419,-28.000000
420,-60.000000
421,-12.000000
422,0.000000
423,-8.000000
424,-8.000000
425,-8.000000
426,-8.000000
427,-28.000000
428,-12.000000
429,52.000000
430,0.000000
431,-4.000000
432,-20.000000
433,-40.000000
434,20.000000
435,0.000000
436,-28.000000
437,-28.000000
438,-32.000000
439,-12.000000
440,-16.000000
441,-48.000000
442,0.000000
443,-8.000000
444,-72.000000
445,-52.000000
446,-24.000000
447,-24.000000
448,44.000000
449,-40.000000
450,0.000000
451,-20.000000
452,0.000000
453,4.000000
454,-16.000000
455,84.000000
456,0.000000
457,0.000000
458,-4.000000
459,-40.000000
460,16.000000
461,0.000000
462,-20.000000
463,-16.000000
464,24.000000
465,4.000000
466,12.000000
467,-44.000000
468,16.000000
469,-8.000000
470,-12.000000
471,-32.000000
472,-32.000000
473,4.000000
474,-28.000000
475,16.000000
476,-44.000000
477,-20.000000
478,100.000000
479,24.000000
480,24.000000
481,-8.000000
482,40.000000
483,-20.000000
484,4.000000
485,-32.000000
486,-8.000000
487,-8.000000
488,-44.000000
489,8.000000
490,0.000000
491,0.000000
492,0.000000
493,44.000000
494,0.000000
495,-24.000000
496,32.000000
497,4.000000
498,16.000000
499,-36.000000
500,16.000000
501,-12.000000
502,24.000000
503,12.000000
504,-4.000000
505,-16.000000
506,-12.000000
507,-8.000000
508,20.000000
509,-12.000000
510,-8.000000
511,0.000000
512,-4.000000
513,-8.000000
514,-4.000000
515,4.000000
516,0.000000
517,-16.000000
518,-16.000000
519,-16.000000
520,0.000000
521,-8.000000
522,32.000000
523,-4.000000
524,44.000000
525,64.000000
526,-8.000000
527,40.000000
528,56.000000
529,-16.000000
530,-44.000000
531,32.000000
532,-20.000000
533,0.000000
534,0.000000
535,-36.000000
536,16.000000
537,-8.000000
538,64.000000
539,64.000000
540,-8.000000
541,-4.000000
542,4.000000
543,16.000000
544,16.000000
545,-24.000000
546,8.000000
547,-20.000000
548,-8.000000
549,-8.000000
550,44.000000
551,-8.000000
552,52.000000
553,-24.000000
554,0.000000
555,24.000000
556,-28.000000
557,8.000000
558,-8.000000
559,-28.000000
560,0.000000
561,-16.000000
562,-32.000000
563,-20.000000
564,44.000000
565,52.000000
566,-4.000000
567,-20.000000
568,-8.000000
569,4.000000
570,28.000000
571,-4.000000
572,-28.000000
573,44.000000
574,-12.000000
575,28.000000
576,52.000000
577,-52.000000
578,-12.000000
579,-4.000000
580,-48.000000
581,-4.000000
582,0.000000
583,-4.000000
584,12.000000
585,12.000000
586,24.000000
587,24.000000
588,-8.000000
589,-12.000000
590,-12.000000
591,-12.000000
592,-60.000000
593,-8.000000
594,-16.000000
595,-16.000000
596,-32.000000
597,0.000000
598,44.000000
599,24.000000
600,12.000000
601,-8.000000
602,-12.000000
603,-52.000000
604,4.000000
605,-24.000000
606,-8.000000
607,0.000000
608,-32.000000
609,-4.000000
610,-8.000000
611,-24.000000
612,-28.000000
613,0.000000
614,-4.000000
615,20.000000
616,12.000000
617,-24.000000
618,-4.000000
619,0.000000
620,-20.000000
621,-20.000000
622,-4.000000
623,0.000000
624,-8.000000
625,-8.000000
626,-8.000000
627,-8.000000
628,-12.000000
629,-12.000000
630,4.000000
631,-16.000000
632,-20.000000
633,-20.000000
634,-4.000000
635,52.000000
636,12.000000
637,8.000000
638,-28.000000
639,-8.000000
640,-24.000000
641,-28.000000
642,-44.000000
643,-12.000000
644,-16.000000
645,-12.000000
646,0.000000
647,0.000000
648,-8.000000
649,72.000000
650,-56.000000
651,4.000000
652,-8.000000
653,-24.000000
654,-52.000000
655,0.000000
656,-8.000000
657,-40.000000
658,-40.000000
659,16.000000
660,-4.000000
661,-12.000000
662,24.000000
663,12.000000
664,-28.000000
665,-4.000000
666,12.000000
667,16.000000
668,-52.000000
669,8.000000
670,-8.000000
671,16.000000
672,-32.000000
673,56.000000
674,-24.000000
675,-20.000000
676,12.000000
677,12.000000
678,52.000000
679,68.000000
680,0.000000
681,4.000000
682,-8.000000
683,0.000000
684,-32.000000
685,52.000000
686,-44.000000
687,56.000000
688,-16.000000
689,-32.000000
690,16.000000
691,-8.000000
692,28.000000
693,0.000000
694,8.000000
695,8.000000
696,-24.000000
697,-28.000000
698,-8.000000
699,16.000000
700,-32.000000
701,-12.000000
702,-8.000000
703,-4.000000
704,-8.000000
705,-20.000000
706,-12.000000
707,40.000000
708,-16.000000
709,0.000000
710,-12.000000
711,-12.000000
712,12.000000
713,-36.000000
714,8.000000
715,-12.000000
716,44.000000
717,24.000000
718,4.000000
719,12.000000
720,0.000000
721,44.000000
722,0.000000
723,16.000000
724,16.000000
725,-20.000000
726,4.000000
727,4.000000
728,-40.000000
729,12.000000
730,-60.000000
731,-16.000000
732,-8.000000
733,76.000000
734,-12.000000
735,48.000000
736,4.000000
737,4.000000
738,-8.000000
739,-4.000000
740,-12.000000
741,-52.000000
742,-8.000000
743,-36.000000
744,8.000000
745,16.000000
746,24.000000
747,-8.000000
748,0.000000
749,-20.000000
750,-20.000000
751,-8.000000
752,16.000000
753,12.000000
754,-52.000000
755,-40.000000
756,4.000000
757,-8.000000
758,-16.000000
759,12.000000
760,-24.000000
761,52.000000
762,16.000000
763,4.000000
764,-8.000000
765,112.000000
766,4.000000
767,-24.000000
768,-36.000000
769,-12.000000
770,-32.000000
771,-36.000000
772,-12.000000
773,8.000000
774,4.000000
775,-12.000000
776,0.000000
777,-32.000000
778,48.000000
779,8.000000
780,4.000000
781,-36.000000
782,-4.000000
783,-8.000000
784,0.000000
785,-108.000000
786,-24.000000
787,-20.000000
788,-16.000000
789,-12.000000
790,-20.000000
791,-4.000000
792,0.000000
793,0.000000
794,-4.000000
795,-8.000000
796,-28.000000
797,48.000000
798,-24.000000
799,4.000000
800,-12.000000
801,-12.000000
802,-20.000000
803,0.000000
804,16.000000
805,16.000000
806,-16.000000
807,-44.000000
808,4.000000
809,-100.000000
810,-8.000000
811,16.000000
812,-16.000000
813,16.000000
814,-12.000000
815,-100.000000
816,-8.000000
817,-24.000000
818,-48.000000
819,-8.000000
820,-48.000000
821,-8.000000
822,28.000000
823,4.000000
824,4.000000
825,20.000000
826,-12.000000
827,-52.000000
828,4.000000
829,4.000000
830,92.000000
831,0.000000
832,4.000000
833,-12.000000
834,16.000000
835,-24.000000
836,-8.000000
837,-12.000000
838,-8.000000
839,4.000000
840,52.000000
841,16.000000
842,-8.000000
843,44.000000
844,-24.000000
845,16.000000
846,-8.000000
847,-8.000000
848,-40.000000
849,-12.000000
850,24.000000
851,12.000000
852,-8.000000
853,-12.000000
854,-4.000000
855,-8.000000
856,-24.000000
857,-8.000000
858,-4.000000
859,0.000000
860,-4.000000
861,28.000000
862,-20.000000
863,-16.000000
864,-8.000000
865,16.000000
866,-28.000000
867,-36.000000
868,-8.000000
869,20.000000
870,-32.000000
871,-20.000000
872,-8.000000
873,-12.000000
874,52.000000
875,4.000000
876,-12.000000
877,-40.000000
878,-56.000000
879,-24.000000
880,-8.000000
881,-16.000000
882,4.000000
883,-20.000000
884,12.000000
885,-20.000000
886,-12.000000
887,64.000000
888,0.000000
889,-24.000000
890,-36.000000
891,-36.000000
892,-8.000000
893,20.000000
894,0.000000
895,-4.000000
896,-8.000000
897,4.000000
898,-20.000000
899,-12.000000
900,20.000000
901,-8.000000
902,52.000000
903,-8.000000
904,0.000000
905,-44.000000
906,20.000000
907,-12.000000
908,0.000000
909,-12.000000
910,-16.000000
911,-24.000000
912,-24.000000
913,-44.000000
914,-24.000000
915,16.000000
916,12.000000
917,24.000000
918,-12.000000
919,-32.000000
920,0.000000
921,-20.000000
922,-20.000000
923,-8.000000
924,-28.000000
925,-28.000000
926,20.000000
927,0.000000
928,0.000000
929,-8.000000
930,-60.000000
931,0.000000
932,0.000000
933,4.000000
934,-8.000000
935,4.000000
936,-4.000000
937,16.000000
938,-24.000000
939,16.000000
940,44.000000
941,-16.000000
942,-8.000000
943,4.000000
944,-4.000000
945,20.000000
946,0.000000
947,-40.000000
948,4.000000
949,8.000000
950,4.000000
951,-8.000000
952,8.000000
953,8.000000
954,40.000000
955,-20.000000
956,-28.000000
957,-12.000000
958,-8.000000
959,-16.000000
960,-8.000000
961,-8.000000
962,44.000000
963,4.000000
964,60.000000
965,12.000000
966,0.000000
967,0.000000
968,-28.000000
969,0.000000
970,-8.000000
971,20.000000
972,68.000000
973,8.000000
974,24.000000
975,-24.000000
976,0.000000
977,-8.000000
978,-4.000000
979,20.000000
980,-8.000000
981,-8.000000
982,0.000000
983,4.000000
984,-24.000000
985,-24.000000
986,24.000000
987,-8.000000
988,0.000000
989,-44.000000
990,28.000000
991,28.000000
992,-8.000000
993,24.000000
994,-16.000000
995,-16.000000
996,-8.000000
997,52.000000
998,-84.000000
999,0.000000
1000,-28.000000
1001,12.000000
1002,-8.000000
1003,-20.000000
1004,-8.000000
1005,8.000000
1006,20.000000
1007,16.000000
1008,0.000000
1009,8.000000
1010,-8.000000
1011,0.000000
1012,-8.000000
1013,32.000000
1014,-12.000000
1015,-8.000000
1016,-40.000000
1017,16.000000
1018,-32.000000
1019,-4.000000
1020,-4.000000
1021,-12.000000
1022,20.000000
1023,40.000000
1024,0.000000
1025,0.000000
1026,0.000000
1027,-52.000000
1028,0.000000
1029,-8.000000
1030,12.000000
1031,0.000000
1032,0.000000
1033,-16.000000
1034,-12.000000
1035,24.000000
1036,0.000000
1037,-40.000000
1038,24.000000
1039,-16.000000
1040,-28.000000
1041,52.000000
1042,-24.000000
1043,40.000000
1044,16.000000
1045,-8.000000
1046,-12.000000
1047,-12.000000
1048,4.000000
1049,-4.000000
1050,-8.000000
1051,-36.000000
1052,-32.000000
1053,-16.000000
1054,12.000000
1055,24.000000
1056,0.000000
1057,12.000000
1058,20.000000
1059,-44.000000
1060,0.000000
1061,-32.000000
1062,-8.000000
1063,-12.000000
1064,-12.000000
1065,-24.000000
1066,-32.000000
1067,0.000000
1068,-8.000000
1069,-20.000000
1070,8.000000
1071,-44.000000
1072,12.000000
1073,4.000000
1074,4.000000
1075,-24.000000
1076,-40.000000
1077,12.000000
1078,0.000000
1079,-16.000000
1080,8.000000
1081,8.000000
1082,28.000000
1083,-36.000000
1084,8.000000
1085,124.000000
1086,-72.000000
1087,12.000000
1088,16.000000
1089,-12.000000
1090,16.000000
1091,44.000000
1092,16.000000
1093,24.000000
1094,0.000000
1095,0.000000
1096,-20.000000
1097,16.000000
1098,8.000000
1099,4.000000
1100,0.000000
1101,52.000000
1102,-8.000000
1103,-4.000000
1104,4.000000
1105,-28.000000
1106,-12.000000
1107,24.000000
1108,0.000000
1109,-4.000000
1110,-20.000000
1111,-16.000000
1112,16.000000
1113,0.000000
1114,16.000000
1115,-36.000000
1116,16.000000
1117,24.000000
1118,8.000000
1119,16.000000
1120,0.000000
1121,-20.000000
1122,-8.000000
1123,16.000000
1124,0.000000
1125,12.000000
1126,0.000000
1127,0.000000
1128,-8.000000
1129,-8.000000
1130,-8.000000
1131,-8.000000
1132,-24.000000
1133,-40.000000
1134,-12.000000
1135,-8.000000
1136,0.000000
1137,-48.000000
1138,-24.000000
1139,-24.000000
1140,8.000000
1141,-24.000000
1142,-16.000000
1143,-8.000000
1144,0.000000
1145,4.000000
1146,-8.000000
1147,0.000000
1148,-24.000000
1149,-8.000000
1150,-44.000000
1151,-12.000000
1152,4.000000
1153,-20.000000
1154,84.000000
1155,40.000000
1156,-20.000000
1157,-44.000000
1158,44.000000
1159,-12.000000
1160,-8.000000
1161,-32.000000
1162,-8.000000
1163,-8.000000
1164,0.000000
1165,-16.000000
1166,-8.000000
1167,-12.000000
1168,-40.000000
1169,16.000000
1170,16.000000
1171,-8.000000
1172,16.000000
1173,-28.000000
1174,-52.000000
1175,16.000000
1176,16.000000
1177,16.000000
1178,88.000000
1179,0.000000
1180,-12.000000
1181,-8.000000
1182,-8.000000
1183,-8.000000
1184,-40.000000
1185,-24.000000
1186,-16.000000
1187,8.000000
1188,24.000000
1189,0.000000
1190,20.000000
1191,12.000000
1192,44.000000
1193,8.000000
1194,0.000000
1195,28.000000
1196,56.000000
1197,0.000000
1198,-44.000000
1199,8.000000
1200,32.000000
1201,16.000000
1202,-4.000000
1203,-12.000000
1204,8.000000
1205,28.000000
1206,4.000000
1207,8.000000
1208,8.000000
1209,20.000000
1210,12.000000
1211,-20.000000
1212,12.000000
1213,8.000000
1214,4.000000
1215,-8.000000
1216,8.000000
1217,20.000000
1218,-32.000000
1219,-20.000000
1220,0.000000
1221,-36.000000
1222,68.000000
1223,52.000000
1224,-24.000000
1225,-48.000000
1226,4.000000
1227,-24.000000
1228,-12.000000
1229,0.000000
1230,24.000000
1231,-36.000000
1232,0.000000
1233,-20.000000
1234,16.000000
1235,-12.000000
1236,-8.000000
1237,-40.000000
1238,40.000000
1239,-16.000000
1240,-8.000000
1241,-8.000000
1242,4.000000
1243,4.000000
1244,-16.000000
1245,4.000000
1246,4.000000
1247,16.000000
1248,24.000000
1249,-44.000000
1250,-32.000000
1251,20.000000
1252,-20.000000
1253,28.000000
1254,16.000000
1255,-8.000000
1256,-4.000000
1257,-24.000000
1258,-32.000000
1259,-12.000000
1260,56.000000
1261,28.000000
1262,0.000000
1263,0.000000
1264,-16.000000
1265,-20.000000
1266,-8.000000
1267,52.000000
1268,0.000000
1269,4.000000
1270,0.000000
1271,-12.000000
1272,-52.000000
1273,4.000000
1274,4.000000
1275,40.000000
1276,0.000000
1277,4.000000
1278,-20.000000
1279,-20.000000
1280,4.000000
1281,0.000000
1282,-8.000000
1283,-52.000000
1284,-24.000000
1285,-24.000000
1286,56.000000
1287,0.000000
1288,4.000000
1289,-44.000000
1290,4.000000
1291,16.000000
1292,0.000000
1293,-24.000000
1294,-12.000000
1295,44.000000
1296,52.000000
1297,20.000000
1298,-16.000000
1299,4.000000
1300,-16.000000
1301,4.000000
1302,28.000000
1303,-4.000000
1304,-52.000000
1305,0.000000
1306,8.000000
1307,-44.000000
1308,4.000000
1309,8.000000
1310,8.000000
1311,0.000000
1312,-8.000000
1313,-12.000000
1314,-4.000000
1315,0.000000
1316,-24.000000
1317,12.000000
1318,-20.000000
1319,-24.000000
1320,-12.000000
1321,4.000000
1322,0.000000
1323,52.000000
1324,-20.000000
1325,0.000000
1326,-16.000000
1327,4.000000
1328,-8.000000
1329,-8.000000
1330,-20.000000
1331,20.000000
1332,-4.000000
1333,-12.000000
1334,-12.000000
1335,32.000000
1336,44.000000
1337,4.000000
1338,0.000000
1339,24.000000
1340,44.000000
1341,-16.000000
1342,0.000000
1343,4.000000
1344,16.000000
1345,40.000000
1346,16.000000
1347,72.000000
1348,40.000000
1349,-12.000000
1350,-4.000000
1351,0.000000
1352,20.000000
1353,0.000000
1354,-16.000000
1355,0.000000
1356,12.000000
1357,-16.000000
1358,24.000000
1359,0.000000
1360,4.000000
1361,-16.000000
1362,-12.000000
1363,-12.000000
1364,28.000000
1365,36.000000
1366,-40.000000
1367,-4.000000
1368,4.000000
1369,-8.000000
1370,-72.000000
1371,8.000000
1372,-28.000000
1373,-16.000000
1374,0.000000
1375,-20.000000
1376,0.000000
1377,-32.000000
1378,-48.000000
1379,0.000000
1380,64.000000
