docs/evidence/raw/2026-09-07/data_21_016.csv

Channel              :,CH1
Frequency            :,  ?
Period               :,  ?
PK-PK                :,206.0mV
Probe attenuation    :,1X
Voltage per ADC value:,0.125000mV
Time interval        :,100.00000us

index,CH1_Voltage(mV)
1,14.000000
2,14.000000
3,16.000000
4,-22.000000
5,-48.000000
6,-24.000000
7,20.000000
8,-4.000000
9,46.000000
10,12.000000
11,68.000000
12,-8.000000
13,32.000000
14,-40.000000
15,-12.000000
16,-12.000000
17,-8.000000
18,-26.000000
19,8.000000
20,-4.000000
21,-16.000000
22,-20.000000
23,-12.000000
24,24.000000
25,-28.000000
26,8.000000
27,20.000000
28,28.000000
29,40.000000
30,-12.000000
31,6.000000
32,2.000000
33,16.000000
34,-22.000000
35,62.000000
36,0.000000
37,-48.000000
38,-46.000000
39,-4.000000
40,-30.000000
41,-6.000000
42,-16.000000
43,26.000000
44,26.000000
45,-30.000000
46,2.000000
47,32.000000
48,28.000000
49,-30.000000
50,26.000000
51,32.000000
52,22.000000
53,2.000000
54,-10.000000
55,20.000000
56,24.000000
57,-14.000000
58,-26.000000
59,-44.000000
60,40.000000
61,2.000000
62,46.000000
63,2.000000
64,72.000000
65,22.000000
66,24.000000
67,8.000000
68,28.000000
69,-8.000000
70,-12.000000
71,-24.000000
72,-8.000000
73,10.000000
74,24.000000
75,-16.000000
76,-6.000000
77,-16.000000
78,2.000000
79,30.000000
80,2.000000
81,10.000000
82,-26.000000
83,6.000000
84,-40.000000
85,-22.000000
86,-46.000000
87,6.000000
88,-22.000000
89,-20.000000
90,14.000000
91,-8.000000
92,-12.000000
93,-60.000000
94,40.000000
95,-8.000000
96,-40.000000
97,6.000000
98,-30.000000
99,2.000000
100,54.000000
101,-14.000000
102,-24.000000
103,54.000000
104,-8.000000
105,-34.000000
106,76.000000
107,2.000000
108,6.000000
109,2.000000
110,-4.000000
111,-12.000000
112,-8.000000
113,-6.000000
114,-12.000000
115,30.000000
116,12.000000
117,40.000000
118,0.000000
119,-44.000000
120,-18.000000
121,-82.000000
122,-12.000000
123,44.000000
124,-14.000000
125,26.000000
126,18.000000
127,-16.000000
128,-54.000000
129,54.000000
130,30.000000
131,-24.000000
132,-22.000000
133,4.000000
134,12.000000
135,-16.000000
136,-4.000000
137,2.000000
138,-8.000000
139,-6.000000
140,0.000000
141,-2.000000
142,2.000000
143,-8.000000
144,-10.000000
145,-10.000000
146,26.000000
147,0.000000
148,10.000000
149,-34.000000
150,32.000000
151,-10.000000
152,-16.000000
153,-16.000000
154,-66.000000
155,-2.000000
156,30.000000
157,-12.000000
158,14.000000
159,42.000000
160,42.000000
161,78.000000
162,-22.000000
163,-18.000000
164,22.000000
165,40.000000
166,-42.000000
167,22.000000
168,38.000000
169,-14.000000
170,2.000000
171,-16.000000
172,-14.000000
173,-44.000000
174,-20.000000
175,-26.000000
176,-44.000000
177,70.000000
178,-4.000000
179,2.000000
180,14.000000
181,14.000000
182,-20.000000
183,10.000000
184,16.000000
185,28.000000
186,-14.000000
187,26.000000
188,-2.000000
189,78.000000
190,6.000000
191,54.000000
192,-4.000000
193,0.000000
194,-12.000000
195,-8.000000
196,-34.000000
197,-8.000000
198,-12.000000
199,-56.000000
200,14.000000
201,6.000000
202,-4.000000
203,-18.000000
204,-20.000000
205,12.000000
206,0.000000
207,78.000000
208,-22.000000
209,-2.000000
210,-52.000000
211,-12.000000
212,-6.000000
213,-4.000000
214,-64.000000
215,30.000000
216,16.000000
217,-4.000000
218,-26.000000
219,10.000000
220,-22.000000
221,-4.000000
222,-14.000000
223,-8.000000
224,34.000000
225,4.000000
226,-18.000000
227,10.000000
228,4.000000
229,-4.000000
230,8.000000
231,10.000000
232,12.000000
233,-64.000000
234,8.000000
235,-6.000000
236,2.000000
237,2.000000
238,16.000000
239,-56.000000
240,-72.000000
241,26.000000
242,-10.000000
243,-24.000000
244,2.000000
245,14.000000
246,20.000000
247,-6.000000
248,-4.000000
249,14.000000
250,-4.000000
251,14.000000
252,-4.000000
253,-28.000000
254,0.000000
255,4.000000
256,20.000000
257,-18.000000
258,-22.000000
259,-18.000000
260,54.000000
261,-8.000000
262,4.000000
263,-4.000000
264,-10.000000
265,-6.000000
266,-4.000000
267,-22.000000
268,-40.000000
269,-8.000000
270,78.000000
271,-12.000000
272,4.000000
273,8.000000
274,-2.000000
275,-2.000000
276,10.000000
277,-30.000000
278,-54.000000
279,0.000000
280,46.000000
281,14.000000
282,8.000000
283,-90.000000
284,-18.000000
285,-20.000000
286,-16.000000
287,-12.000000
288,38.000000
289,-64.000000
290,58.000000
291,-2.000000
292,34.000000
293,36.000000
294,-18.000000
295,24.000000
296,-18.000000
297,14.000000
298,-22.000000
299,30.000000
300,12.000000
301,-30.000000
302,60.000000
303,16.000000
304,-22.000000
305,16.000000
306,-6.000000
307,16.000000
308,-2.000000
309,58.000000
310,54.000000
311,28.000000
312,14.000000
313,-4.000000
314,-8.000000
315,2.000000
316,-2.000000
317,-16.000000
318,56.000000
319,14.000000
320,44.000000
321,-24.000000
322,-36.000000
323,0.000000
324,-4.000000
325,-20.000000
326,-28.000000
327,24.000000
328,20.000000
329,-2.000000
330,-78.000000
331,8.000000
332,-12.000000
333,6.000000
334,-26.000000
335,-30.000000
336,-34.000000
337,-12.000000
338,0.000000
339,-14.000000
340,16.000000
341,6.000000
342,-14.000000
343,-66.000000
344,26.000000
345,8.000000
346,50.000000
347,-40.000000
348,-10.000000
349,40.000000
350,-4.000000
351,8.000000
352,-32.000000
353,0.000000
354,-6.000000
355,-22.000000
356,-8.000000
357,-26.000000
358,2.000000
359,2.000000
360,-4.000000
361,10.000000
362,-2.000000
363,68.000000
364,32.000000
365,54.000000
366,-20.000000
367,74.000000
368,-6.000000
369,12.000000
370,26.000000
371,26.000000
372,-50.000000
373,-12.000000
374,-10.000000
375,-10.000000
376,22.000000
377,60.000000
378,-40.000000
379,68.000000
380,-2.000000
381,-2.000000
382,-12.000000
383,-16.000000
384,-4.000000
385,32.000000
386,-4.000000
387,30.000000
388,-8.000000
389,-8.000000
390,-18.000000
391,-16.000000
392,0.000000
393,-60.000000
394,86.000000
395,14.000000
396,-10.000000
397,30.000000
398,2.000000
399,60.000000
400,-30.000000
401,-14.000000
402,-8.000000
403,-48.000000
404,-20.000000
405,12.000000
406,60.000000
407,20.000000
408,12.000000
409,10.000000
410,-2.000000
411,2.000000
412,-24.000000
413,68.000000
414,-20.000000
415,-20.000000
416,-60.000000
417,-26.000000
418,28.000000
419,-8.000000
420,-26.000000
421,-6.000000
422,-22.000000
423,-32.000000
424,-26.000000
425,32.000000
426,10.000000
427,16.000000
428,2.000000
429,34.000000
430,22.000000
431,-36.000000
432,-36.000000
433,4.000000
434,68.000000
435,-22.000000
436,-14.000000
437,-4.000000
438,-22.000000
439,-8.000000
440,2.000000
441,42.000000
442,-8.000000
443,0.000000
444,-22.000000
445,10.000000
446,2.000000
447,24.000000
448,-28.000000
449,-50.000000
450,-20.000000
451,72.000000
452,32.000000
453,50.000000
454,-22.000000
455,-30.000000
456,-30.000000
457,8.000000
458,-2.000000
459,-36.000000
460,0.000000
461,4.000000
462,6.000000
463,-20.000000
464,-60.000000
465,18.000000
466,-6.000000
467,-20.000000
468,-4.000000
469,26.000000
470,8.000000
471,-34.000000
472,6.000000
473,8.000000
474,14.000000
475,-12.000000
476,28.000000
477,22.000000
478,8.000000
479,0.000000
480,0.000000
481,-4.000000
482,0.000000
483,-16.000000
484,-28.000000
485,-12.000000
486,-2.000000
487,74.000000
488,-6.000000
489,-64.000000
490,-14.000000
491,-4.000000
492,-8.000000
493,16.000000
494,-2.000000
495,-2.000000
496,28.000000
497,-4.000000
498,20.000000
499,-12.000000
500,34.000000
501,-16.000000
502,24.000000
503,-28.000000
504,78.000000
505,-14.000000
506,-4.000000
507,-26.000000
508,-2.000000
509,12.000000
510,14.000000
511,12.000000
512,-82.000000
513,-46.000000
514,-34.000000
515,-6.000000
516,28.000000
517,14.000000
518,0.000000
519,2.000000
520,40.000000
521,-6.000000
522,-50.000000
523,28.000000
524,-22.000000
525,-66.000000
526,-4.000000
527,-10.000000
528,2.000000
529,-4.000000
530,-44.000000
531,2.000000
532,6.000000
533,6.000000
534,-8.000000
535,0.000000
536,6.000000
537,-14.000000
538,-4.000000
539,-12.000000
540,-4.000000
541,20.000000
542,-38.000000
543,-34.000000
544,-6.000000
545,48.000000
546,8.000000
547,0.000000
548,-4.000000
549,0.000000
550,12.000000
551,-36.000000
552,20.000000
553,-40.000000
554,-50.000000
555,-4.000000
556,-8.000000
557,8.000000
558,-2.000000
559,-24.000000
560,-60.000000
561,14.000000
562,-8.000000
563,14.000000
564,-26.000000
565,-26.000000
566,-30.000000
567,-18.000000
568,26.000000
569,-12.000000
570,36.000000
571,22.000000
572,-20.000000
573,2.000000
574,-22.000000
575,-20.000000
576,60.000000
577,2.000000
578,2.000000
579,20.000000
580,18.000000
581,-18.000000
582,-16.000000
583,-62.000000
584,50.000000
585,50.000000
586,-8.000000
587,-16.000000
588,14.000000
589,-8.000000
590,0.000000
591,6.000000
592,-12.000000
593,50.000000
594,-6.000000
595,20.000000
596,-4.000000
597,-28.000000
598,-4.000000
599,42.000000
600,-50.000000
601,4.000000
602,-48.000000
603,18.000000
604,-4.000000
605,4.000000
606,6.000000
607,-10.000000
608,-32.000000
609,6.000000
610,44.000000
611,8.000000
612,-50.000000
613,12.000000
614,8.000000
615,-44.000000
616,-14.000000
617,-4.000000
618,40.000000
619,24.000000
620,-34.000000
621,-12.000000
622,-20.000000
623,-12.000000
624,-8.000000
625,14.000000
626,70.000000
627,4.000000
628,8.000000
629,82.000000
630,6.000000
631,8.000000
632,-4.000000
633,14.000000
634,-18.000000
635,24.000000
636,32.000000
637,14.000000
638,-22.000000
639,-22.000000
640,24.000000
641,54.000000
642,2.000000
643,-22.000000
644,-4.000000
645,14.000000
646,10.000000
647,20.000000
648,24.000000
649,2.000000
650,-18.000000
651,-18.000000
652,-16.000000
653,38.000000
654,68.000000
655,-30.000000
656,-6.000000
657,-62.000000
658,-34.000000
659,16.000000
660,-68.000000
661,-56.000000
662,-36.000000
663,-4.000000
664,-44.000000
665,2.000000
666,-4.000000
667,32.000000
668,2.000000
669,32.000000
670,36.000000
671,-16.000000
672,0.000000
673,-40.000000
674,14.000000
675,-8.000000
676,-22.000000
677,8.000000
678,6.000000
679,0.000000
680,-12.000000
681,-4.000000
682,36.000000
683,-36.000000
684,-4.000000
685,-12.000000
686,8.000000
687,24.000000
688,8.000000
689,14.000000
690,6.000000
691,-4.000000
692,-6.000000
693,22.000000
694,36.000000
695,10.000000
696,-4.000000
697,16.000000
698,-76.000000
699,-6.000000
700,8.000000
701,-28.000000
702,34.000000
703,44.000000
704,-40.000000
705,12.000000
706,18.000000
707,-2.000000
708,-24.000000
709,8.000000
710,-8.000000
711,12.000000
712,-36.000000
713,10.000000
714,-30.000000
715,2.000000
716,0.000000
717,-26.000000
718,50.000000
719,14.000000
720,26.000000
721,34.000000
722,-14.000000
723,8.000000
724,24.000000
725,86.000000
726,-36.000000
727,-26.000000
728,14.000000
729,60.000000
730,-34.000000
731,-44.000000
732,28.000000
733,-20.000000
734,20.000000
735,-4.000000
736,8.000000
737,24.000000
738,-18.000000
739,18.000000
740,14.000000
741,-8.000000
742,6.000000
743,-30.000000
744,-48.000000
745,24.000000
746,12.000000
747,18.000000
748,-26.000000
749,-30.000000
750,-2.000000
751,2.000000
752,-26.000000
753,-14.000000
754,-30.000000
755,-8.000000
756,-44.000000
757,-38.000000
758,16.000000
759,-36.000000
760,20.000000
761,-14.000000
762,-12.000000
763,-44.000000
764,-44.000000
765,68.000000
766,0.000000
767,-4.000000
768,-26.000000
769,38.000000
770,8.000000
771,-4.000000
772,46.000000
773,-4.000000
774,10.000000
775,16.000000
776,26.000000
777,78.000000
778,8.000000
779,-2.000000
780,14.000000
781,-8.000000
782,-24.000000
783,-22.000000
784,-28.000000
785,46.000000
786,22.000000
787,44.000000
788,-8.000000
789,10.000000
790,-8.000000
791,-8.000000
792,-4.000000
793,20.000000
794,40.000000
795,-24.000000
796,-44.000000
797,-6.000000
798,0.000000
799,6.000000
800,14.000000
801,-34.000000
802,-34.000000
803,-8.000000
804,-2.000000
805,-30.000000
806,-12.000000
807,22.000000
808,-10.000000
809,-30.000000
810,-6.000000
811,-20.000000
812,-26.000000
813,10.000000
814,0.000000
815,-48.000000
816,-4.000000
817,34.000000
818,40.000000
819,-20.000000
820,40.000000
821,8.000000
822,54.000000
823,-18.000000
824,50.000000
825,2.000000
826,-6.000000
827,-6.000000
828,-12.000000
829,-44.000000
830,-8.000000
831,-34.000000
832,20.000000
833,22.000000
834,-24.000000
835,-22.000000
836,28.000000
837,38.000000
838,20.000000
839,-16.000000
840,8.000000
841,46.000000
842,-4.000000
843,-8.000000
844,-18.000000
845,10.000000
846,8.000000
847,-2.000000
848,2.000000
849,-4.000000
850,-12.000000
851,40.000000
852,-22.000000
853,82.000000
854,-34.000000
855,10.000000
856,74.000000
857,16.000000
858,38.000000
859,12.000000
860,-14.000000
861,-32.000000
862,20.000000
863,2.000000
864,-22.000000
865,-20.000000
866,8.000000
867,32.000000
868,-4.000000
869,38.000000
870,-22.000000
871,36.000000
872,-20.000000
873,0.000000
874,32.000000
875,-64.000000
876,14.000000
877,-26.000000
878,8.000000
879,-10.000000
880,-26.000000
881,38.000000
882,2.000000
883,-18.000000
884,8.000000
885,-66.000000
886,8.000000
887,-16.000000
888,2.000000
889,4.000000
890,-16.000000
891,-40.000000
892,-10.000000
893,68.000000
894,-4.000000
895,50.000000
896,12.000000
897,40.000000
898,26.000000
899,60.000000
900,6.000000
901,6.000000
902,0.000000
903,-8.000000
904,-54.000000
905,-4.000000
906,-40.000000
907,-16.000000
908,10.000000
909,44.000000
910,-18.000000
911,6.000000
912,18.000000
913,-18.000000
914,4.000000
915,2.000000
916,-18.000000
917,10.000000
918,-4.000000
919,-20.000000
920,-2.000000
921,-22.000000
922,-52.000000
923,-44.000000
924,46.000000
925,6.000000
926,2.000000
927,-44.000000
928,6.000000
929,58.000000
930,-12.000000
931,-12.000000
932,-24.000000
933,-20.000000
934,32.000000
935,8.000000
936,-38.000000
937,34.000000
938,-4.000000
939,-56.000000
940,-50.000000
941,-34.000000
942,-4.000000
943,-66.000000
944,22.000000
945,28.000000
946,-16.000000
947,24.000000
948,14.000000
949,-58.000000
950,46.000000
951,0.000000
952,-14.000000
953,-26.000000
954,-20.000000
955,-18.000000
956,50.000000
957,-22.000000
958,22.000000
959,2.000000
960,0.000000
961,14.000000
962,60.000000
963,-40.000000
964,0.000000
965,8.000000
966,72.000000
967,-12.000000
968,-4.000000
969,22.000000
970,-76.000000
971,-2.000000
972,-30.000000
973,40.000000
974,8.000000
975,-10.000000
976,88.000000
977,20.000000
978,10.000000
979,-4.000000
980,-8.000000
981,-4.000000
982,-16.000000
983,-46.000000
984,-22.000000
985,-8.000000
986,58.000000
987,2.000000
988,-50.000000
989,36.000000
990,-12.000000
991,4.000000
992,-4.000000
993,44.000000
994,4.000000
995,2.000000
996,-26.000000
997,-16.000000
998,16.000000
999,22.000000
1000,2.000000
1001,-6.000000
1002,-2.000000
1003,60.000000
1004,-30.000000
1005,-2.000000
1006,-4.000000
1007,14.000000
1008,22.000000
1009,-38.000000
1010,14.000000
1011,2.000000
1012,-38.000000
1013,54.000000
1014,-32.000000
1015,-14.000000
1016,90.000000
1017,40.000000
1018,-26.000000
1019,-26.000000
1020,34.000000
1021,-16.000000
1022,-30.000000
1023,-8.000000
1024,-18.000000
1025,-32.000000
1026,46.000000
1027,16.000000
1028,38.000000
1029,-38.000000
1030,26.000000
1031,-16.000000
1032,-14.000000
1033,28.000000
1034,-14.000000
1035,-20.000000
1036,4.000000
1037,42.000000
1038,18.000000
1039,12.000000
1040,32.000000
1041,-12.000000
1042,4.000000
1043,-8.000000
1044,36.000000
1045,-68.000000
1046,62.000000
1047,-14.000000
1048,24.000000
1049,-12.000000
1050,36.000000
1051,36.000000
1052,-60.000000
1053,6.000000
1054,46.000000
1055,0.000000
1056,-8.000000
1057,26.000000
1058,2.000000
1059,0.000000
1060,-64.000000
1061,6.000000
1062,-2.000000
1063,-10.000000
1064,64.000000
1065,-16.000000
1066,68.000000
1067,-68.000000
1068,-8.000000
1069,-14.000000
1070,-36.000000
1071,-26.000000
1072,8.000000
1073,-14.000000
1074,-8.000000
1075,-10.000000
1076,-4.000000
1077,68.000000
1078,0.000000
1079,-8.000000
1080,-28.000000
1081,-2.000000
1082,6.000000
1083,-16.000000
1084,-10.000000
1085,2.000000
1086,-14.000000
1087,32.000000
1088,-2.000000
1089,-4.000000
1090,-22.000000
1091,68.000000
1092,-12.000000
1093,2.000000
1094,-38.000000
1095,20.000000
1096,-4.000000
1097,-4.000000
1098,4.000000
1099,4.000000
1100,-16.000000
1101,38.000000
1102,-8.000000
1103,-6.000000
1104,20.000000
1105,40.000000
1106,-16.000000
1107,-30.000000
1108,22.000000
1109,6.000000
1110,40.000000
1111,-42.000000
1112,42.000000
1113,42.000000
1114,-24.000000
1115,28.000000
1116,10.000000
1117,98.000000
1118,24.000000
1119,-70.000000
1120,-20.000000
1121,16.000000
1122,2.000000
1123,18.000000
1124,32.000000
1125,20.000000
1126,-20.000000
1127,46.000000
1128,46.000000
1129,40.000000
1130,-8.000000
1131,-8.000000
1132,-54.000000
1133,-10.000000
1134,12.000000
1135,12.000000
1136,2.000000
1137,0.000000
1138,-4.000000
1139,-12.000000
1140,10.000000
1141,10.000000
1142,14.000000
1143,-2.000000
1144,-44.000000
1145,-24.000000
1146,58.000000
1147,-10.000000
1148,-12.000000
1149,10.000000
1150,-22.000000
1151,32.000000
1152,-8.000000
1153,0.000000
1154,22.000000
1155,6.000000
1156,2.000000
1157,26.000000
1158,4.000000
1159,2.000000
1160,12.000000
1161,36.000000
1162,-6.000000
1163,-12.000000
1164,14.000000
1165,-4.000000
1166,14.000000
1167,-16.000000
1168,-26.000000
1169,-36.000000
1170,6.000000
1171,-34.000000
1172,6.000000
1173,-16.000000
1174,-16.000000
1175,26.000000
1176,28.000000
1177,-30.000000
1178,6.000000
1179,8.000000
1180,14.000000
1181,-18.000000
1182,-4.000000
1183,-62.000000
1184,-12.000000
1185,-34.000000
1186,-22.000000
1187,-4.000000
1188,62.000000
1189,24.000000
1190,8.000000
1191,-48.000000
1192,0.000000
1193,-4.000000
1194,22.000000
1195,-20.000000
1196,14.000000
1197,10.000000
1198,14.000000
1199,-2.000000
1200,-4.000000
1201,16.000000
1202,-8.000000
1203,68.000000
1204,-26.000000
1205,18.000000
1206,-16.000000
1207,50.000000
1208,-16.000000
1209,14.000000
1210,36.000000
1211,-38.000000
1212,-4.000000
1213,-14.000000
1214,-40.000000
1215,8.000000
1216,40.000000
1217,10.000000
1218,62.000000
1219,6.000000
1220,-40.000000
1221,-32.000000
1222,-4.000000
1223,10.000000
1224,36.000000
1225,-4.000000
1226,0.000000
1227,40.000000
1228,-12.000000
1229,40.000000
1230,24.000000
1231,0.000000
1232,-12.000000
1233,20.000000
1234,-28.000000
1235,-60.000000
1236,46.000000
1237,-30.000000
1238,12.000000
1239,-4.000000
1240,-64.000000
1241,-46.000000
1242,-26.000000
1243,-26.000000
1244,-16.000000
1245,-18.000000
1246,26.000000
1247,26.000000
1248,-12.000000
1249,4.000000
1250,-6.000000
1251,-64.000000
1252,-12.000000
1253,28.000000
1254,2.000000
1255,74.000000
1256,4.000000
1257,6.000000
1258,14.000000
1259,4.000000
1260,-12.000000
1261,68.000000
1262,-4.000000
1263,92.000000
1264,-22.000000
1265,-36.000000
1266,14.000000
1267,-6.000000
1268,-6.000000
1269,-2.000000
1270,-2.000000
1271,2.000000
1272,50.000000
1273,8.000000
1274,-22.000000
1275,64.000000
1276,-6.000000
1277,-48.000000
1278,16.000000
1279,12.000000
1280,-6.000000
1281,54.000000
1282,2.000000
1283,-54.000000
1284,-46.000000
1285,-4.000000
1286,10.000000
1287,-8.000000
1288,54.000000
1289,-10.000000
1290,-8.000000
1291,20.000000
1292,-8.000000
1293,-30.000000
1294,14.000000
1295,6.000000
1296,2.000000
1297,-16.000000
1298,10.000000
1299,-12.000000
1300,2.000000
1301,-6.000000
1302,-30.000000
1303,-16.000000
1304,24.000000
1305,2.000000
1306,12.000000
1307,-16.000000
1308,-28.000000
1309,16.000000
1310,28.000000
1311,-12.000000
1312,-30.000000
1313,-28.000000
1314,-22.000000
1315,-36.000000
1316,24.000000
1317,10.000000
1318,-10.000000
1319,46.000000
1320,-26.000000
1321,-8.000000
1322,0.000000
1323,-8.000000
1324,0.000000
1325,-78.000000
1326,40.000000
1327,12.000000
1328,6.000000
1329,32.000000
1330,-58.000000
1331,8.000000
1332,-6.000000
1333,30.000000
1334,-48.000000
1335,-44.000000
1336,-30.000000
1337,14.000000
1338,2.000000
1339,-22.000000
1340,64.000000
1341,-30.000000
1342,-2.000000
1343,96.000000
1344,16.000000
1345,-8.000000
1346,-20.000000
1347,-12.000000
1348,-14.000000
1349,-16.000000
1350,0.000000
1351,-10.000000
1352,0.000000
1353,-6.000000
1354,8.000000
1355,20.000000
1356,2.000000
1357,8.000000
1358,-22.000000
1359,-10.000000
1360,-22.000000
1361,32.000000
1362,28.000000
1363,44.000000
1364,-14.000000
1365,-16.000000
1366,2.000000
1367,-12.000000
1368,-26.000000
1369,-18.000000
1370,-18.000000
1371,-2.000000
1372,-10.000000
1373,-30.000000
