docs/evidence/raw/2026-09-07/data_20_016-5v.csv

Channel              :,CH1
Frequency            :,  ?
Period               :,  ?
PK-PK                :,264.0mV
Probe attenuation    :,1X
Voltage per ADC value:,0.250000mV
Time interval        :,100.00000us

index,CH1_Voltage(mV)
1,0.000000
2,0.000000
3,-8.000000
4,8.000000
5,-16.000000
6,-16.000000
7,16.000000
8,0.000000
9,4.000000
10,12.000000
11,-12.000000
12,4.000000
13,-24.000000
14,16.000000
15,-36.000000
16,8.000000
17,-24.000000
18,24.000000
19,-16.000000
20,-16.000000
21,28.000000
22,-8.000000
23,12.000000
24,44.000000
25,20.000000
26,44.000000
27,8.000000
28,4.000000
29,-16.000000
30,20.000000
31,-32.000000
32,20.000000
33,-8.000000
34,-20.000000
35,-20.000000
36,-20.000000
37,-12.000000
38,-20.000000
39,12.000000
40,4.000000
41,-8.000000
42,-48.000000
43,-24.000000
44,-32.000000
45,-32.000000
46,0.000000
47,-8.000000
48,-24.000000
49,20.000000
50,-28.000000
51,-24.000000
52,0.000000
53,4.000000
54,12.000000
55,12.000000
56,8.000000
57,-12.000000
58,-32.000000
59,-12.000000
60,-8.000000
61,-40.000000
62,-28.000000
63,0.000000
64,-52.000000
65,-8.000000
66,0.000000
67,-24.000000
68,-24.000000
69,-12.000000
70,64.000000
71,56.000000
72,20.000000
73,48.000000
74,16.000000
75,72.000000
76,24.000000
77,4.000000
78,-20.000000
79,4.000000
80,-36.000000
81,16.000000
82,-20.000000
83,-12.000000
84,16.000000
85,-28.000000
86,-12.000000
87,0.000000
88,-8.000000
89,16.000000
90,8.000000
91,-20.000000
92,-20.000000
93,4.000000
94,20.000000
95,-20.000000
96,8.000000
97,-28.000000
98,-28.000000
99,20.000000
100,28.000000
101,-36.000000
102,8.000000
103,4.000000
104,52.000000
105,-24.000000
106,-32.000000
107,0.000000
108,-4.000000
109,24.000000
110,-8.000000
111,-20.000000
112,-16.000000
113,-36.000000
114,-36.000000
115,0.000000
116,-16.000000
117,-36.000000
118,0.000000
119,0.000000
120,0.000000
121,-8.000000
122,-8.000000
123,-24.000000
124,-40.000000
125,-4.000000
126,-28.000000
127,-28.000000
128,-8.000000
129,-28.000000
130,-36.000000
131,-40.000000
132,-40.000000
133,-28.000000
134,28.000000
135,28.000000
136,-32.000000
137,-16.000000
138,0.000000
139,-24.000000
140,-28.000000
141,-8.000000
142,-16.000000
143,20.000000
144,20.000000
145,-40.000000
146,40.000000
147,-8.000000
148,-20.000000
149,24.000000
150,12.000000
151,-24.000000
152,44.000000
153,8.000000
154,12.000000
155,-8.000000
156,-12.000000
157,-12.000000
158,-60.000000
159,28.000000
160,-16.000000
161,-12.000000
162,-8.000000
163,0.000000
164,32.000000
165,12.000000
166,12.000000
167,12.000000
168,-16.000000
169,12.000000
170,12.000000
171,-20.000000
172,-24.000000
173,8.000000
174,-8.000000
175,24.000000
176,-8.000000
177,24.000000
178,0.000000
179,12.000000
180,12.000000
181,-44.000000
182,16.000000
183,24.000000
184,0.000000
185,24.000000
186,0.000000
187,-40.000000
188,8.000000
189,4.000000
190,-8.000000
191,44.000000
192,-4.000000
193,76.000000
194,20.000000
195,-44.000000
196,8.000000
197,-36.000000
198,-8.000000
199,-48.000000
200,-16.000000
201,60.000000
202,-28.000000
203,-4.000000
204,28.000000
205,-8.000000
206,-8.000000
207,-32.000000
208,-48.000000
209,-40.000000
210,-28.000000
211,-8.000000
212,-40.000000
213,-32.000000
214,-48.000000
215,-20.000000
216,16.000000
217,-20.000000
218,0.000000
219,-16.000000
220,-12.000000
221,-24.000000
222,-24.000000
223,-24.000000
224,-40.000000
225,16.000000
226,16.000000
227,0.000000
228,52.000000
229,-8.000000
230,-8.000000
231,-8.000000
232,-40.000000
233,-36.000000
234,16.000000
235,0.000000
236,52.000000
237,12.000000
238,-4.000000
239,-52.000000
240,-24.000000
241,4.000000
242,8.000000
243,-8.000000
244,28.000000
245,16.000000
246,12.000000
247,-4.000000
248,0.000000
249,-8.000000
250,40.000000
251,12.000000
252,0.000000
253,-40.000000
254,36.000000
255,-64.000000
256,20.000000
257,24.000000
258,-44.000000
259,40.000000
260,4.000000
261,44.000000
262,-8.000000
263,-24.000000
264,16.000000
265,-36.000000
266,8.000000
267,12.000000
268,4.000000
269,12.000000
270,4.000000
271,0.000000
272,8.000000
273,12.000000
274,-4.000000
275,-12.000000
276,4.000000
277,-12.000000
278,12.000000
279,12.000000
280,12.000000
281,16.000000
282,56.000000
283,20.000000
284,32.000000
285,-32.000000
286,0.000000
287,12.000000
288,8.000000
289,-8.000000
290,-28.000000
291,8.000000
292,-40.000000
293,-16.000000
294,-16.000000
295,-40.000000
296,8.000000
297,12.000000
298,-20.000000
299,24.000000
300,-8.000000
301,-64.000000
302,-8.000000
303,-20.000000
304,84.000000
305,0.000000
306,-24.000000
307,-32.000000
308,-20.000000
309,-32.000000
310,-36.000000
311,-12.000000
312,-8.000000
313,4.000000
314,-32.000000
315,-44.000000
316,-8.000000
317,-8.000000
318,8.000000
319,-36.000000
320,8.000000
321,60.000000
322,28.000000
323,-28.000000
324,16.000000
325,28.000000
326,-28.000000
327,-16.000000
328,20.000000
329,-8.000000
330,16.000000
331,16.000000
332,-4.000000
333,20.000000
334,-16.000000
335,-12.000000
336,-12.000000
337,-32.000000
338,-40.000000
339,16.000000
340,-44.000000
341,0.000000
342,-4.000000
343,12.000000
344,12.000000
345,52.000000
346,-8.000000
347,56.000000
348,-20.000000
349,32.000000
350,8.000000
351,-20.000000
352,28.000000
353,16.000000
354,4.000000
355,8.000000
356,12.000000
357,16.000000
358,48.000000
359,-12.000000
360,16.000000
361,28.000000
362,28.000000
363,56.000000
364,20.000000
365,40.000000
366,8.000000
367,28.000000
368,-8.000000
369,0.000000
370,0.000000
371,32.000000
372,24.000000
373,-36.000000
374,-8.000000
375,12.000000
376,8.000000
377,0.000000
378,16.000000
379,20.000000
380,16.000000
381,32.000000
382,-28.000000
383,-4.000000
384,16.000000
385,4.000000
386,-56.000000
387,0.000000
388,-32.000000
389,-4.000000
390,-16.000000
391,28.000000
392,-20.000000
393,-20.000000
394,16.000000
395,60.000000
396,-8.000000
397,-24.000000
398,16.000000
399,-48.000000
400,-28.000000
401,-28.000000
402,-28.000000
403,-36.000000
404,-44.000000
405,8.000000
406,-8.000000
407,68.000000
408,-28.000000
409,0.000000
410,-24.000000
411,-32.000000
412,0.000000
413,-28.000000
414,8.000000
415,-28.000000
416,24.000000
417,0.000000
418,0.000000
419,0.000000
420,8.000000
421,-16.000000
422,-56.000000
423,-12.000000
424,-8.000000
425,52.000000
426,-24.000000
427,-64.000000
428,24.000000
429,0.000000
430,8.000000
431,-72.000000
432,16.000000
433,44.000000
434,16.000000
435,20.000000
436,-44.000000
437,12.000000
438,-32.000000
439,16.000000
440,16.000000
441,12.000000
442,-28.000000
443,0.000000
444,8.000000
445,44.000000
446,32.000000
447,-16.000000
448,40.000000
449,-20.000000
450,16.000000
451,-8.000000
452,32.000000
453,20.000000
454,24.000000
455,16.000000
456,0.000000
457,40.000000
458,32.000000
459,-20.000000
460,24.000000
461,-8.000000
462,-48.000000
463,-8.000000
464,-12.000000
465,16.000000
466,20.000000
467,-36.000000
468,-52.000000
469,52.000000
470,16.000000
471,12.000000
472,-12.000000
473,-16.000000
474,-24.000000
475,0.000000
476,-52.000000
477,-28.000000
478,8.000000
479,4.000000
480,0.000000
481,4.000000
482,44.000000
483,-24.000000
484,-8.000000
485,44.000000
486,16.000000
487,-16.000000
488,-16.000000
489,-24.000000
490,16.000000
491,0.000000
492,-16.000000
493,-36.000000
494,-4.000000
495,-4.000000
496,20.000000
497,44.000000
498,0.000000
499,44.000000
500,16.000000
501,-16.000000
502,-12.000000
503,-16.000000
504,-4.000000
505,-20.000000
506,-8.000000
507,-32.000000
508,-60.000000
509,-32.000000
510,4.000000
511,68.000000
512,-8.000000
513,-12.000000
514,-8.000000
515,-16.000000
516,20.000000
517,-24.000000
518,-28.000000
519,-4.000000
520,-24.000000
521,0.000000
522,20.000000
523,4.000000
524,-20.000000
525,-32.000000
526,-24.000000
527,0.000000
528,-4.000000
529,-8.000000
530,-12.000000
531,8.000000
532,-16.000000
533,32.000000
534,16.000000
535,8.000000
536,-4.000000
537,-8.000000
538,24.000000
539,24.000000
540,48.000000
541,4.000000
542,-12.000000
543,24.000000
544,24.000000
545,-8.000000
546,-12.000000
547,-8.000000
548,-28.000000
549,-60.000000
550,-16.000000
551,24.000000
552,4.000000
553,-8.000000
554,12.000000
555,24.000000
556,12.000000
557,40.000000
558,8.000000
559,28.000000
560,-8.000000
561,-8.000000
562,12.000000
563,12.000000
564,12.000000
565,16.000000
566,16.000000
567,-20.000000
568,-60.000000
569,-16.000000
570,24.000000
571,8.000000
572,16.000000
573,0.000000
574,-12.000000
575,-16.000000
576,-60.000000
577,-8.000000
578,-16.000000
579,12.000000
580,-20.000000
581,-8.000000
582,-8.000000
583,-16.000000
584,-32.000000
585,-8.000000
586,-8.000000
587,-8.000000
588,0.000000
589,-24.000000
590,-4.000000
591,-60.000000
592,-16.000000
593,-32.000000
594,44.000000
595,24.000000
596,-24.000000
597,-60.000000
598,-32.000000
599,-12.000000
600,-48.000000
601,-32.000000
602,0.000000
603,-8.000000
604,4.000000
605,-32.000000
606,-12.000000
607,0.000000
608,16.000000
609,-20.000000
610,-8.000000
611,24.000000
612,16.000000
613,-8.000000
614,-12.000000
615,-20.000000
616,52.000000
617,8.000000
618,4.000000
619,0.000000
620,0.000000
621,4.000000
622,-8.000000
623,40.000000
624,64.000000
625,-24.000000
626,16.000000
627,0.000000
628,20.000000
629,-16.000000
630,16.000000
631,-12.000000
632,24.000000
633,0.000000
634,4.000000
635,16.000000
636,12.000000
637,100.000000
638,-8.000000
639,20.000000
640,-4.000000
641,28.000000
642,24.000000
643,32.000000
644,24.000000
645,16.000000
646,12.000000
647,16.000000
648,12.000000
649,12.000000
650,24.000000
651,20.000000
652,0.000000
653,-12.000000
654,0.000000
655,-12.000000
656,0.000000
657,64.000000
658,-4.000000
659,0.000000
660,0.000000
661,-36.000000
662,-60.000000
663,-8.000000
664,-24.000000
665,-20.000000
666,-8.000000
667,44.000000
668,-20.000000
669,-16.000000
670,-8.000000
671,-52.000000
672,-20.000000
673,-48.000000
674,4.000000
675,-28.000000
676,-4.000000
677,-20.000000
678,-32.000000
679,8.000000
680,-20.000000
681,-28.000000
682,-24.000000
683,-12.000000
684,20.000000
685,-20.000000
686,-16.000000
687,44.000000
688,-16.000000
689,4.000000
690,-20.000000
691,-36.000000
692,16.000000
693,52.000000
694,-28.000000
695,28.000000
696,-44.000000
697,-24.000000
698,-28.000000
699,24.000000
700,-8.000000
701,-4.000000
702,-24.000000
703,-40.000000
704,-44.000000
705,-24.000000
706,-20.000000
707,-8.000000
708,52.000000
709,-32.000000
710,44.000000
711,-8.000000
712,-56.000000
713,8.000000
714,-24.000000
715,12.000000
716,-8.000000
717,16.000000
718,-4.000000
719,4.000000
720,-20.000000
721,-8.000000
722,0.000000
723,24.000000
724,24.000000
725,44.000000
726,-8.000000
727,0.000000
728,20.000000
729,0.000000
730,28.000000
731,32.000000
732,8.000000
733,-8.000000
734,0.000000
735,8.000000
736,8.000000
737,-8.000000
738,12.000000
739,0.000000
740,-92.000000
741,-28.000000
742,0.000000
743,20.000000
744,32.000000
745,40.000000
746,-8.000000
747,8.000000
748,-4.000000
749,32.000000
750,24.000000
751,4.000000
752,-12.000000
753,16.000000
754,8.000000
755,-8.000000
756,52.000000
757,-4.000000
758,4.000000
759,16.000000
760,-36.000000
761,-8.000000
762,12.000000
763,16.000000
764,28.000000
765,-16.000000
766,-8.000000
767,-16.000000
768,20.000000
769,0.000000
770,-8.000000
771,-8.000000
772,-8.000000
773,16.000000
774,-8.000000
775,4.000000
776,-20.000000
777,-44.000000
778,-44.000000
779,-20.000000
780,20.000000
781,0.000000
782,40.000000
783,-96.000000
784,20.000000
785,-16.000000
786,0.000000
787,-16.000000
788,4.000000
789,8.000000
790,8.000000
791,-12.000000
792,0.000000
793,4.000000
794,20.000000
795,-16.000000
796,0.000000
797,-20.000000
798,-20.000000
799,-20.000000
800,-16.000000
801,-48.000000
802,-20.000000
803,20.000000
804,4.000000
805,-12.000000
806,-8.000000
807,-4.000000
808,-4.000000
809,20.000000
810,16.000000
811,-28.000000
812,-28.000000
813,16.000000
814,20.000000
815,32.000000
816,-4.000000
817,16.000000
818,-20.000000
819,-44.000000
820,12.000000
821,12.000000
822,-32.000000
823,-20.000000
824,-24.000000
825,-12.000000
826,12.000000
827,24.000000
828,20.000000
829,32.000000
830,8.000000
831,32.000000
832,-28.000000
833,0.000000
834,28.000000
835,-8.000000
836,-8.000000
837,40.000000
838,-12.000000
839,12.000000
840,4.000000
841,-4.000000
842,24.000000
843,-24.000000
844,-4.000000
845,-20.000000
846,0.000000
847,4.000000
848,0.000000
849,28.000000
850,-12.000000
851,0.000000
852,24.000000
853,-4.000000
854,24.000000
855,-12.000000
856,12.000000
857,12.000000
858,-52.000000
859,-8.000000
860,-24.000000
861,-20.000000
862,-28.000000
863,-20.000000
864,-24.000000
865,0.000000
866,-36.000000
867,8.000000
868,12.000000
869,60.000000
870,-20.000000
871,-20.000000
872,-8.000000
873,-8.000000
874,-12.000000
875,-8.000000
876,-8.000000
877,-20.000000
878,-20.000000
879,-8.000000
880,-40.000000
881,-40.000000
882,-28.000000
883,4.000000
884,-40.000000
885,8.000000
886,-44.000000
887,-20.000000
888,-20.000000
889,0.000000
890,-20.000000
891,0.000000
892,-100.000000
893,-24.000000
894,-8.000000
895,-8.000000
896,52.000000
897,20.000000
898,-8.000000
899,36.000000
900,0.000000
901,-8.000000
902,-20.000000
903,8.000000
904,-28.000000
905,32.000000
906,16.000000
907,-8.000000
908,12.000000
909,4.000000
910,4.000000
911,0.000000
912,4.000000
913,-40.000000
914,16.000000
915,24.000000
916,16.000000
917,-8.000000
918,24.000000
919,-8.000000
920,32.000000
921,-4.000000
922,20.000000
923,-8.000000
924,24.000000
925,116.000000
926,16.000000
927,32.000000
928,16.000000
929,16.000000
930,0.000000
931,4.000000
932,-20.000000
933,-28.000000
934,0.000000
935,16.000000
936,-16.000000
937,-40.000000
938,-60.000000
939,0.000000
940,56.000000
941,-4.000000
942,-8.000000
943,-4.000000
944,24.000000
945,12.000000
946,16.000000
947,20.000000
948,-12.000000
949,-8.000000
950,-4.000000
951,52.000000
952,-20.000000
953,-8.000000
954,-8.000000
955,-32.000000
956,-8.000000
957,-12.000000
958,-16.000000
959,-32.000000
960,64.000000
961,-16.000000
962,-32.000000
963,-32.000000
964,-32.000000
965,-8.000000
966,-8.000000
967,-28.000000
968,-4.000000
969,-28.000000
970,-8.000000
971,-20.000000
972,0.000000
973,0.000000
974,28.000000
975,-24.000000
976,40.000000
977,-16.000000
978,-8.000000
979,-36.000000
980,4.000000
981,-24.000000
982,4.000000
983,-32.000000
984,-20.000000
985,8.000000
986,-32.000000
987,4.000000
988,-40.000000
989,-20.000000
990,20.000000
991,16.000000
992,44.000000
993,-16.000000
994,-16.000000
995,-8.000000
996,0.000000
997,-20.000000
998,20.000000
999,-36.000000
1000,4.000000
1001,0.000000
1002,-12.000000
1003,-8.000000
1004,8.000000
1005,8.000000
1006,16.000000
1007,24.000000
1008,28.000000
1009,-12.000000
1010,0.000000
1011,4.000000
1012,-24.000000
1013,4.000000
1014,-44.000000
1015,-44.000000
1016,-52.000000
1017,0.000000
1018,16.000000
1019,-8.000000
1020,4.000000
1021,0.000000
1022,20.000000
1023,-4.000000
1024,40.000000
1025,-28.000000
1026,40.000000
1027,12.000000
1028,16.000000
1029,-36.000000
1030,8.000000
1031,8.000000
1032,8.000000
1033,-32.000000
1034,20.000000
1035,44.000000
1036,16.000000
1037,56.000000
1038,24.000000
1039,-28.000000
1040,24.000000
1041,-16.000000
1042,16.000000
1043,-8.000000
1044,-4.000000
1045,-36.000000
1046,-36.000000
1047,0.000000
1048,-8.000000
1049,20.000000
1050,28.000000
1051,-52.000000
1052,-40.000000
1053,-28.000000
1054,-28.000000
1055,-8.000000
1056,16.000000
1057,-16.000000
1058,-20.000000
1059,-12.000000
1060,-16.000000
1061,-8.000000
1062,-28.000000
1063,-28.000000
1064,-20.000000
1065,0.000000
1066,-12.000000
1067,12.000000
1068,0.000000
1069,20.000000
1070,-48.000000
1071,-8.000000
1072,-36.000000
1073,16.000000
1074,-40.000000
1075,-8.000000
1076,-8.000000
1077,-16.000000
1078,-16.000000
1079,60.000000
1080,-8.000000
1081,20.000000
1082,4.000000
1083,12.000000
1084,12.000000
1085,-12.000000
1086,44.000000
1087,-32.000000
1088,-4.000000
1089,-16.000000
1090,-12.000000
1091,4.000000
1092,0.000000
1093,-32.000000
1094,0.000000
1095,8.000000
1096,0.000000
1097,-16.000000
1098,-12.000000
1099,-8.000000
1100,64.000000
1101,16.000000
1102,4.000000
1103,24.000000
1104,40.000000
1105,0.000000
1106,56.000000
1107,28.000000
1108,-8.000000
1109,16.000000
1110,16.000000
1111,-12.000000
1112,32.000000
1113,-12.000000
1114,8.000000
1115,-8.000000
1116,16.000000
1117,24.000000
1118,-52.000000
1119,8.000000
1120,-20.000000
1121,-48.000000
1122,-8.000000
1123,-12.000000
1124,-52.000000
1125,-24.000000
1126,-8.000000
1127,0.000000
1128,-24.000000
1129,-12.000000
1130,-16.000000
1131,-28.000000
1132,4.000000
1133,0.000000
1134,44.000000
1135,4.000000
1136,0.000000
1137,-40.000000
1138,24.000000
1139,-32.000000
1140,-32.000000
1141,8.000000
1142,12.000000
1143,-44.000000
1144,-32.000000
1145,-16.000000
1146,-20.000000
1147,0.000000
1148,8.000000
1149,-8.000000
1150,-4.000000
1151,-12.000000
1152,16.000000
1153,28.000000
1154,-36.000000
1155,12.000000
1156,-28.000000
1157,0.000000
1158,-4.000000
1159,24.000000
1160,-28.000000
1161,0.000000
1162,-32.000000
1163,-24.000000
1164,24.000000
1165,-16.000000
1166,-8.000000
1167,-12.000000
1168,-12.000000
1169,-4.000000
1170,-12.000000
1171,-84.000000
1172,-4.000000
1173,-12.000000
1174,0.000000
1175,-8.000000
1176,4.000000
1177,12.000000
1178,12.000000
1179,4.000000
1180,4.000000
1181,4.000000
1182,0.000000
1183,44.000000
1184,-20.000000
1185,28.000000
1186,28.000000
1187,8.000000
1188,8.000000
1189,8.000000
1190,0.000000
1191,32.000000
1192,48.000000
1193,8.000000
1194,8.000000
1195,4.000000
1196,4.000000
1197,-16.000000
1198,24.000000
1199,68.000000
1200,12.000000
1201,16.000000
1202,-12.000000
1203,44.000000
1204,40.000000
1205,20.000000
1206,20.000000
1207,8.000000
1208,12.000000
1209,4.000000
1210,-20.000000
1211,-12.000000
1212,0.000000
1213,4.000000
1214,12.000000
1215,8.000000
1216,-8.000000
1217,-44.000000
1218,20.000000
1219,-8.000000
1220,24.000000
1221,4.000000
1222,8.000000
1223,8.000000
1224,4.000000
1225,8.000000
1226,24.000000
1227,-8.000000
1228,8.000000
1229,68.000000
1230,28.000000
1231,12.000000
1232,-4.000000
1233,-16.000000
1234,-8.000000
1235,48.000000
1236,0.000000
1237,-32.000000
1238,20.000000
1239,-36.000000
1240,-8.000000
1241,16.000000
1242,-40.000000
1243,0.000000
1244,12.000000
1245,-20.000000
1246,-20.000000
1247,-20.000000
1248,-32.000000
1249,-24.000000
1250,12.000000
1251,0.000000
1252,-28.000000
1253,-28.000000
1254,20.000000
1255,12.000000
1256,4.000000
1257,-16.000000
1258,-24.000000
1259,-36.000000
1260,-40.000000
1261,-8.000000
1262,-20.000000
1263,-8.000000
1264,-32.000000
1265,-24.000000
1266,-8.000000
1267,0.000000
1268,-8.000000
1269,-44.000000
1270,12.000000
1271,24.000000
1272,0.000000
1273,-40.000000
1274,16.000000
1275,4.000000
1276,0.000000
1277,-8.000000
1278,44.000000
1279,-12.000000
1280,64.000000
1281,0.000000
1282,32.000000
1283,44.000000
1284,0.000000
1285,24.000000
1286,4.000000
1287,20.000000
1288,0.000000
1289,-8.000000
1290,-4.000000
1291,0.000000
1292,-20.000000
1293,-12.000000
1294,-12.000000
1295,24.000000
1296,8.000000
1297,16.000000
1298,16.000000
1299,0.000000
1300,-8.000000
1301,0.000000
1302,-4.000000
1303,44.000000
1304,20.000000
1305,-20.000000
1306,20.000000
1307,44.000000
1308,16.000000
1309,-12.000000
1310,-28.000000
1311,20.000000
1312,32.000000
1313,20.000000
1314,20.000000
1315,20.000000
1316,0.000000
1317,24.000000
1318,-52.000000
1319,-24.000000
1320,24.000000
1321,-8.000000
1322,24.000000
1323,-48.000000
1324,-24.000000
1325,0.000000
1326,-40.000000
1327,0.000000
1328,-8.000000
1329,-8.000000
1330,-12.000000
1331,-64.000000
1332,-8.000000
1333,-28.000000
1334,12.000000
1335,-20.000000
1336,-60.000000
1337,4.000000
1338,-60.000000
1339,-8.000000
1340,40.000000
1341,40.000000
1342,-12.000000
1343,-32.000000
1344,28.000000
1345,-56.000000
1346,-16.000000
1347,-20.000000
1348,-20.000000
1349,-48.000000
1350,-24.000000
1351,-32.000000
1352,-32.000000
1353,-4.000000
1354,84.000000
1355,-20.000000
1356,-16.000000
1357,-32.000000
1358,-8.000000
1359,-12.000000
1360,8.000000
1361,-24.000000
1362,-8.000000
1363,-8.000000
1364,4.000000
1365,0.000000
1366,4.000000
1367,-12.000000
1368,0.000000
1369,20.000000
1370,0.000000
1371,40.000000
1372,24.000000
1373,20.000000
1374,-52.000000
1375,24.000000
1376,68.000000
