docs/evidence/raw/2026-09-07/data_21_012.csv

Channel              :,CH1
Frequency            :,  ?
Period               :,  ?
PK-PK                :,86.00mV
Probe attenuation    :,1X
Voltage per ADC value:,0.125000mV
Time interval        :,100.00000us

index,CH1_Voltage(mV)
1,10.000000
2,10.000000
3,4.000000
4,4.000000
5,0.000000
6,4.000000
7,2.000000
8,2.000000
9,0.000000
10,0.000000
11,4.000000
12,4.000000
13,2.000000
14,2.000000
15,4.000000
16,6.000000
17,4.000000
18,4.000000
19,-2.000000
20,6.000000
21,4.000000
22,4.000000
23,2.000000
24,2.000000
25,6.000000
26,4.000000
27,4.000000
28,4.000000
29,0.000000
30,10.000000
31,10.000000
32,10.000000
33,-14.000000
34,-12.000000
35,-4.000000
36,-4.000000
37,-4.000000
38,-4.000000
39,-4.000000
40,-14.000000
41,2.000000
42,-4.000000
43,2.000000
44,-14.000000
45,-14.000000
46,-4.000000
47,-4.000000
48,-4.000000
49,-4.000000
50,-10.000000
51,-14.000000
52,-12.000000
53,-8.000000
54,-4.000000
55,-14.000000
56,-4.000000
57,-4.000000
58,-4.000000
59,0.000000
60,0.000000
61,-4.000000
62,-4.000000
63,-4.000000
64,-4.000000
65,0.000000
66,0.000000
67,-4.000000
68,-4.000000
69,-4.000000
70,-2.000000
71,-4.000000
72,-4.000000
73,0.000000
74,0.000000
75,2.000000
76,0.000000
77,0.000000
78,0.000000
79,0.000000
80,0.000000
81,0.000000
82,0.000000
83,0.000000
84,0.000000
85,-4.000000
86,-4.000000
87,-4.000000
88,-4.000000
89,-2.000000
90,-4.000000
91,0.000000
92,0.000000
93,0.000000
94,0.000000
95,-2.000000
96,-4.000000
97,-4.000000
98,-4.000000
99,-14.000000
100,-4.000000
101,-4.000000
102,-4.000000
103,-4.000000
104,-4.000000
105,-4.000000
106,-4.000000
107,-4.000000
108,-14.000000
109,-4.000000
110,-4.000000
111,-8.000000
112,-4.000000
113,-4.000000
114,-4.000000
115,-4.000000
116,-4.000000
117,-4.000000
118,-4.000000
119,-8.000000
120,-4.000000
121,-8.000000
122,-4.000000
123,-12.000000
124,-8.000000
125,-4.000000
126,-4.000000
127,-4.000000
128,-4.000000
129,-4.000000
130,-4.000000
131,0.000000
132,2.000000
133,-14.000000
134,-4.000000
135,-4.000000
136,-4.000000
137,-12.000000
138,-4.000000
139,-4.000000
140,-4.000000
141,-8.000000
142,-10.000000
143,-8.000000
144,2.000000
145,-4.000000
146,-4.000000
147,-8.000000
148,-4.000000
149,-8.000000
150,-4.000000
151,-4.000000
152,-4.000000
153,-4.000000
154,-4.000000
155,6.000000
156,-4.000000
157,-4.000000
158,-2.000000
159,0.000000
160,0.000000
161,-4.000000
162,-4.000000
163,0.000000
164,0.000000
165,-4.000000
166,-4.000000
167,-4.000000
168,-2.000000
169,0.000000
170,0.000000
171,-4.000000
172,-4.000000
173,0.000000
174,0.000000
175,-4.000000
176,-4.000000
177,-2.000000
178,-4.000000
179,0.000000
180,2.000000
181,0.000000
182,0.000000
183,-2.000000
184,0.000000
185,0.000000
186,0.000000
187,-4.000000
188,-4.000000
189,-2.000000
190,-2.000000
191,0.000000
192,0.000000
193,-4.000000
194,-4.000000
195,0.000000
196,0.000000
197,4.000000
198,4.000000
199,4.000000
200,4.000000
201,2.000000
202,2.000000
203,10.000000
204,10.000000
205,4.000000
206,4.000000
207,0.000000
208,2.000000
209,4.000000
210,4.000000
211,0.000000
212,0.000000
213,4.000000
214,4.000000
215,4.000000
216,4.000000
217,2.000000
218,2.000000
219,10.000000
220,10.000000
221,4.000000
222,4.000000
223,4.000000
224,4.000000
225,10.000000
226,10.000000
227,10.000000
228,10.000000
229,10.000000
230,10.000000
231,2.000000
232,0.000000
233,-4.000000
234,10.000000
235,-16.000000
236,-4.000000
237,-8.000000
238,-4.000000
239,-4.000000
240,-4.000000
241,-4.000000
242,-4.000000
243,-8.000000
244,-4.000000
245,-12.000000
246,-12.000000
247,-4.000000
248,-2.000000
249,-28.000000
250,-4.000000
251,-4.000000
252,-4.000000
253,-4.000000
254,-4.000000
255,-12.000000
256,-4.000000
257,-4.000000
258,-4.000000
259,-4.000000
260,-4.000000
261,-4.000000
262,-6.000000
263,0.000000
264,0.000000
265,0.000000
266,0.000000
267,-4.000000
268,-2.000000
269,-4.000000
270,-4.000000
271,0.000000
272,0.000000
273,-4.000000
274,-4.000000
275,-4.000000
276,-2.000000
277,0.000000
278,0.000000
279,0.000000
280,0.000000
281,0.000000
282,0.000000
283,2.000000
284,-4.000000
285,0.000000
286,0.000000
287,-4.000000
288,-4.000000
289,0.000000
290,0.000000
291,0.000000
292,0.000000
293,0.000000
294,0.000000
295,-2.000000
296,-4.000000
297,-4.000000
298,-4.000000
299,-8.000000
300,-4.000000
301,-2.000000
302,-4.000000
303,-4.000000
304,-4.000000
305,-4.000000
306,-4.000000
307,-4.000000
308,-4.000000
309,-4.000000
310,-4.000000
311,0.000000
312,-4.000000
313,-4.000000
314,-4.000000
315,-4.000000
316,-4.000000
317,-8.000000
318,-4.000000
319,-4.000000
320,-6.000000
321,-4.000000
322,-4.000000
323,-4.000000
324,-4.000000
325,-4.000000
326,-10.000000
327,-4.000000
328,-4.000000
329,-4.000000
330,-4.000000
331,-4.000000
332,4.000000
333,-4.000000
334,-8.000000
335,-12.000000
336,-4.000000
337,-4.000000
338,-4.000000
339,2.000000
340,2.000000
341,-8.000000
342,-4.000000
343,-4.000000
344,-14.000000
345,-4.000000
346,-10.000000
347,-4.000000
348,-4.000000
349,-4.000000
350,-4.000000
351,-4.000000
352,-8.000000
353,2.000000
354,-4.000000
355,-4.000000
356,-4.000000
357,-4.000000
358,-4.000000
359,-4.000000
360,-4.000000
361,2.000000
362,2.000000
363,0.000000
364,0.000000
365,0.000000
366,0.000000
367,2.000000
368,2.000000
369,-4.000000
370,-2.000000
371,-2.000000
372,-4.000000
373,-4.000000
374,-2.000000
375,0.000000
376,0.000000
377,-4.000000
378,-2.000000
379,-4.000000
380,2.000000
381,0.000000
382,0.000000
383,-2.000000
384,-2.000000
385,0.000000
386,0.000000
387,-4.000000
388,-4.000000
389,0.000000
390,0.000000
391,0.000000
392,0.000000
393,-2.000000
394,0.000000
395,-4.000000
396,-2.000000
397,10.000000
398,10.000000
399,2.000000
400,4.000000
401,4.000000
402,4.000000
403,0.000000
404,4.000000
405,4.000000
406,0.000000
407,0.000000
408,2.000000
409,4.000000
410,4.000000
411,2.000000
412,4.000000
413,2.000000
414,2.000000
415,4.000000
416,0.000000
417,2.000000
418,2.000000
419,2.000000
420,2.000000
421,4.000000
422,4.000000
423,10.000000
424,10.000000
425,4.000000
426,4.000000
427,0.000000
428,0.000000
429,6.000000
430,4.000000
431,-4.000000
432,10.000000
433,-4.000000
434,-4.000000
435,-4.000000
436,-4.000000
437,-4.000000
438,-4.000000
439,-12.000000
440,-4.000000
441,-4.000000
442,-4.000000
443,-4.000000
444,-8.000000
445,-4.000000
446,-4.000000
447,-2.000000
448,-4.000000
449,-14.000000
450,-4.000000
451,-2.000000
452,-4.000000
453,-4.000000
454,-4.000000
455,-4.000000
456,-4.000000
457,-4.000000
458,-4.000000
459,0.000000
460,0.000000
461,-4.000000
462,-4.000000
463,0.000000
464,0.000000
465,-4.000000
466,-2.000000
467,0.000000
468,0.000000
469,0.000000
470,0.000000
471,-4.000000
472,-2.000000
473,0.000000
474,0.000000
475,0.000000
476,0.000000
477,0.000000
478,0.000000
479,0.000000
480,0.000000
481,0.000000
482,0.000000
483,0.000000
484,0.000000
485,-4.000000
486,-4.000000
487,0.000000
488,0.000000
489,0.000000
490,0.000000
491,0.000000
492,0.000000
493,0.000000
494,0.000000
495,0.000000
496,0.000000
497,-4.000000
498,-4.000000
499,-4.000000
500,-4.000000
501,-8.000000
502,-4.000000
503,-4.000000
504,-4.000000
505,-4.000000
506,-4.000000
507,-4.000000
508,-4.000000
509,-2.000000
510,-8.000000
511,-4.000000
512,-8.000000
513,-4.000000
514,-4.000000
515,-4.000000
516,-4.000000
517,-4.000000
518,-4.000000
519,-4.000000
520,-4.000000
521,0.000000
522,-2.000000
523,-4.000000
524,-4.000000
525,-4.000000
526,-4.000000
527,-4.000000
528,-4.000000
529,-4.000000
530,-4.000000
531,-4.000000
532,-4.000000
533,-4.000000
534,-8.000000
535,-12.000000
536,-54.000000
537,-4.000000
538,-12.000000
539,-12.000000
540,-4.000000
541,-4.000000
542,-4.000000
543,-4.000000
544,-8.000000
545,-8.000000
546,-4.000000
547,-4.000000
548,-8.000000
549,-4.000000
550,-4.000000
551,-4.000000
552,-8.000000
553,-4.000000
554,-8.000000
555,-8.000000
556,-2.000000
557,-4.000000
558,-2.000000
559,0.000000
560,0.000000
561,0.000000
562,0.000000
563,-4.000000
564,-4.000000
565,0.000000
566,0.000000
567,0.000000
568,0.000000
569,0.000000
570,0.000000
571,0.000000
572,0.000000
573,-2.000000
574,-4.000000
575,0.000000
576,0.000000
577,-4.000000
578,-4.000000
579,-2.000000
580,-4.000000
581,0.000000
582,0.000000
583,0.000000
584,0.000000
585,-2.000000
586,-2.000000
587,-4.000000
588,-4.000000
589,-4.000000
590,-4.000000
591,0.000000
592,0.000000
593,-4.000000
594,-4.000000
595,0.000000
596,2.000000
597,4.000000
598,4.000000
599,2.000000
600,2.000000
601,4.000000
602,4.000000
603,4.000000
604,4.000000
605,2.000000
606,2.000000
607,4.000000
608,4.000000
609,0.000000
610,2.000000
611,0.000000
612,0.000000
613,4.000000
614,4.000000
615,-18.000000
616,2.000000
617,4.000000
618,4.000000
619,2.000000
620,0.000000
621,4.000000
622,4.000000
623,10.000000
624,0.000000
625,4.000000
626,0.000000
627,10.000000
628,-22.000000
629,10.000000
630,10.000000
631,4.000000
632,2.000000
633,-4.000000
634,-12.000000
635,-4.000000
636,-8.000000
637,-4.000000
638,-4.000000
639,-4.000000
640,-4.000000
641,-16.000000
642,-4.000000
643,-10.000000
644,-2.000000
645,-14.000000
646,2.000000
647,2.000000
648,-14.000000
649,-4.000000
650,-12.000000
651,-4.000000
652,-12.000000
653,-4.000000
654,-4.000000
655,-8.000000
656,-8.000000
657,-4.000000
658,-4.000000
659,-4.000000
660,-4.000000
661,-4.000000
662,-4.000000
663,0.000000
664,0.000000
665,-4.000000
666,-4.000000
667,0.000000
668,0.000000
669,-2.000000
670,-4.000000
671,0.000000
672,0.000000
673,-2.000000
674,-4.000000
675,-4.000000
676,-4.000000
677,0.000000
678,0.000000
679,0.000000
680,0.000000
681,-2.000000
682,-4.000000
683,0.000000
684,0.000000
685,0.000000
686,0.000000
687,0.000000
688,0.000000
689,2.000000
690,0.000000
691,-4.000000
692,-4.000000
693,0.000000
694,0.000000
695,0.000000
696,0.000000
697,-4.000000
698,-4.000000
699,-4.000000
700,-4.000000
701,-4.000000
702,-4.000000
703,-4.000000
704,0.000000
705,-4.000000
706,-4.000000
707,-8.000000
708,-4.000000
709,-10.000000
710,-4.000000
711,-4.000000
712,-4.000000
713,-4.000000
714,-4.000000
715,-4.000000
716,-4.000000
717,-4.000000
718,-4.000000
719,-4.000000
720,-12.000000
721,-4.000000
722,-4.000000
723,-4.000000
724,0.000000
725,-8.000000
726,-4.000000
727,-4.000000
728,-8.000000
729,-4.000000
730,-4.000000
731,-4.000000
732,0.000000
733,-4.000000
734,-4.000000
735,-4.000000
736,-4.000000
737,-14.000000
738,0.000000
739,-4.000000
740,-14.000000
741,-4.000000
742,-4.000000
743,-4.000000
744,-10.000000
745,-4.000000
746,-4.000000
747,-8.000000
748,-4.000000
749,-14.000000
750,-4.000000
751,-12.000000
752,-4.000000
753,-4.000000
754,-4.000000
755,-4.000000
756,-4.000000
757,-4.000000
758,-4.000000
759,-4.000000
760,-4.000000
761,0.000000
762,0.000000
763,0.000000
764,0.000000
765,0.000000
766,0.000000
767,0.000000
768,0.000000
769,0.000000
770,0.000000
771,0.000000
772,2.000000
773,2.000000
774,0.000000
775,0.000000
776,0.000000
777,0.000000
778,0.000000
779,-2.000000
780,-4.000000
781,-2.000000
782,-2.000000
783,0.000000
784,0.000000
785,-2.000000
786,-2.000000
787,-4.000000
788,-4.000000
789,0.000000
790,0.000000
791,0.000000
792,0.000000
793,2.000000
794,2.000000
795,-2.000000
796,-4.000000
797,4.000000
798,4.000000
799,2.000000
800,2.000000
801,4.000000
802,4.000000
803,0.000000
804,4.000000
805,2.000000
806,2.000000
807,0.000000
808,0.000000
809,0.000000
810,4.000000
811,2.000000
812,2.000000
813,-8.000000
814,4.000000
815,0.000000
816,-8.000000
817,4.000000
818,0.000000
819,0.000000
820,0.000000
821,4.000000
822,2.000000
823,10.000000
824,10.000000
825,4.000000
826,0.000000
827,10.000000
828,10.000000
829,8.000000
830,0.000000
831,-12.000000
832,0.000000
833,-4.000000
834,-12.000000
835,8.000000
836,-4.000000
837,-10.000000
838,-14.000000
839,-4.000000
840,-4.000000
841,-14.000000
842,0.000000
843,8.000000
844,-8.000000
845,-4.000000
846,-10.000000
847,-4.000000
848,-4.000000
849,-4.000000
850,-4.000000
851,-12.000000
852,-2.000000
853,-4.000000
854,-4.000000
855,-4.000000
856,-4.000000
857,-4.000000
858,-4.000000
859,0.000000
860,0.000000
861,0.000000
862,0.000000
863,-4.000000
864,-4.000000
865,0.000000
866,0.000000
867,0.000000
868,0.000000
869,0.000000
870,0.000000
871,0.000000
872,0.000000
873,-4.000000
874,-4.000000
875,0.000000
876,0.000000
877,0.000000
878,0.000000
879,0.000000
880,0.000000
881,-4.000000
882,-4.000000
883,0.000000
884,0.000000
885,0.000000
886,0.000000
887,0.000000
888,0.000000
889,0.000000
890,0.000000
891,-4.000000
892,-4.000000
893,-4.000000
894,-4.000000
895,-2.000000
896,-4.000000
897,-4.000000
898,-4.000000
899,-4.000000
900,-4.000000
901,-8.000000
902,-4.000000
903,-8.000000
904,-4.000000
905,-4.000000
906,-8.000000
907,-4.000000
908,-4.000000
909,-4.000000
910,-4.000000
911,-4.000000
912,-8.000000
913,-4.000000
914,-4.000000
915,-4.000000
916,-4.000000
917,-14.000000
918,-4.000000
919,0.000000
920,-4.000000
921,-8.000000
922,-4.000000
923,-14.000000
924,-4.000000
925,-4.000000
926,-4.000000
927,-4.000000
928,-4.000000
929,-6.000000
930,-4.000000
931,-4.000000
932,0.000000
933,-8.000000
934,-4.000000
935,-4.000000
936,-4.000000
937,-4.000000
938,-4.000000
939,-10.000000
940,-4.000000
941,-4.000000
942,-8.000000
943,-4.000000
944,-4.000000
945,-6.000000
946,-8.000000
947,-14.000000
948,-4.000000
949,-4.000000
950,4.000000
951,-4.000000
952,-8.000000
953,-4.000000
954,-4.000000
955,-4.000000
956,-4.000000
957,0.000000
958,0.000000
959,-4.000000
960,4.000000
961,-4.000000
962,-4.000000
963,-4.000000
964,-4.000000
965,-4.000000
966,-4.000000
967,-4.000000
968,-4.000000
969,0.000000
970,0.000000
971,0.000000
972,0.000000
973,-4.000000
974,-4.000000
975,0.000000
976,0.000000
977,-2.000000
978,-4.000000
979,-4.000000
980,-4.000000
981,-4.000000
982,-4.000000
983,0.000000
984,0.000000
985,-2.000000
986,-4.000000
987,-4.000000
988,-4.000000
989,0.000000
990,0.000000
991,0.000000
992,0.000000
993,0.000000
994,0.000000
995,-4.000000
996,-2.000000
997,10.000000
998,10.000000
999,2.000000
1000,0.000000
1001,0.000000
1002,4.000000
1003,4.000000
1004,4.000000
1005,4.000000
1006,4.000000
1007,4.000000
1008,0.000000
1009,0.000000
1010,2.000000
1011,4.000000
1012,4.000000
1013,4.000000
1014,0.000000
1015,2.000000
1016,4.000000
1017,2.000000
1018,2.000000
1019,4.000000
1020,4.000000
1021,4.000000
1022,0.000000
1023,2.000000
1024,0.000000
1025,0.000000
1026,0.000000
1027,10.000000
1028,10.000000
1029,10.000000
1030,0.000000
1031,10.000000
1032,10.000000
1033,-4.000000
1034,-4.000000
1035,-4.000000
1036,24.000000
1037,-4.000000
1038,-14.000000
1039,-4.000000
1040,-4.000000
1041,-10.000000
1042,-8.000000
1043,-4.000000
1044,-12.000000
1045,-4.000000
1046,-4.000000
1047,-14.000000
1048,-4.000000
1049,-4.000000
1050,-12.000000
1051,-4.000000
1052,-8.000000
1053,8.000000
1054,0.000000
1055,-4.000000
1056,-4.000000
1057,-4.000000
1058,-4.000000
1059,-4.000000
1060,-4.000000
1061,-4.000000
1062,-4.000000
1063,-4.000000
1064,-4.000000
1065,0.000000
1066,-4.000000
1067,0.000000
1068,0.000000
1069,-4.000000
1070,-2.000000
1071,-4.000000
1072,0.000000
1073,0.000000
1074,2.000000
1075,0.000000
1076,0.000000
1077,0.000000
1078,-2.000000
1079,0.000000
1080,0.000000
1081,0.000000
1082,0.000000
1083,0.000000
1084,0.000000
1085,-2.000000
1086,-4.000000
1087,0.000000
1088,0.000000
1089,0.000000
1090,0.000000
1091,-4.000000
1092,-4.000000
1093,-2.000000
1094,0.000000
1095,-4.000000
1096,-4.000000
1097,-14.000000
1098,-4.000000
1099,-4.000000
1100,-4.000000
1101,-4.000000
1102,-4.000000
1103,-4.000000
1104,-14.000000
1105,-4.000000
1106,-4.000000
1107,-12.000000
1108,-4.000000
1109,-4.000000
1110,2.000000
1111,-4.000000
1112,-4.000000
1113,-4.000000
1114,2.000000
1115,-4.000000
1116,-4.000000
1117,-8.000000
1118,-4.000000
1119,-10.000000
1120,-14.000000
1121,-4.000000
1122,-4.000000
1123,-4.000000
1124,-4.000000
1125,-4.000000
1126,-4.000000
1127,-4.000000
1128,-2.000000
1129,-4.000000
1130,-4.000000
1131,-4.000000
1132,-4.000000
1133,-4.000000
1134,-10.000000
1135,2.000000
1136,-14.000000
1137,-12.000000
1138,-4.000000
1139,-4.000000
1140,-12.000000
1141,-4.000000
1142,-4.000000
1143,-4.000000
1144,2.000000
1145,-14.000000
1146,-4.000000
1147,-10.000000
1148,-2.000000
1149,-8.000000
1150,-4.000000
1151,-4.000000
1152,-4.000000
1153,-8.000000
1154,-4.000000
1155,-8.000000
1156,-4.000000
1157,0.000000
1158,0.000000
1159,-4.000000
1160,-4.000000
1161,0.000000
1162,0.000000
1163,0.000000
1164,0.000000
1165,0.000000
1166,0.000000
1167,-2.000000
1168,-2.000000
1169,0.000000
1170,0.000000
1171,-6.000000
1172,0.000000
1173,-4.000000
1174,-4.000000
1175,-2.000000
1176,-2.000000
1177,-4.000000
1178,-4.000000
1179,-4.000000
1180,-4.000000
1181,2.000000
1182,0.000000
1183,-2.000000
1184,-4.000000
1185,-4.000000
1186,-4.000000
1187,-2.000000
1188,-4.000000
1189,2.000000
1190,0.000000
1191,0.000000
1192,0.000000
1193,0.000000
1194,0.000000
1195,-4.000000
1196,-4.000000
1197,2.000000
1198,10.000000
1199,2.000000
1200,0.000000
1201,0.000000
1202,4.000000
1203,2.000000
1204,0.000000
1205,4.000000
1206,0.000000
1207,4.000000
1208,0.000000
1209,2.000000
1210,0.000000
1211,2.000000
1212,2.000000
1213,0.000000
1214,4.000000
1215,2.000000
1216,2.000000
1217,4.000000
1218,4.000000
1219,0.000000
1220,4.000000
1221,0.000000
1222,-4.000000
1223,4.000000
1224,6.000000
1225,0.000000
1226,4.000000
1227,10.000000
1228,10.000000
1229,10.000000
1230,0.000000
1231,0.000000
1232,0.000000
1233,-4.000000
1234,-4.000000
1235,-4.000000
1236,-8.000000
1237,-4.000000
1238,-4.000000
1239,-4.000000
1240,0.000000
1241,-4.000000
1242,-4.000000
1243,-8.000000
1244,-4.000000
1245,-4.000000
1246,-4.000000
1247,-8.000000
1248,-4.000000
1249,-4.000000
1250,0.000000
1251,-4.000000
1252,-4.000000
1253,-10.000000
1254,-4.000000
1255,-4.000000
1256,-4.000000
1257,-4.000000
1258,-4.000000
1259,-4.000000
1260,-4.000000
1261,-4.000000
1262,-4.000000
1263,8.000000
1264,-2.000000
1265,0.000000
1266,0.000000
1267,0.000000
1268,0.000000
1269,-4.000000
1270,-4.000000
1271,-4.000000
1272,-4.000000
1273,0.000000
1274,0.000000
1275,0.000000
1276,0.000000
1277,-4.000000
1278,-2.000000
1279,-2.000000
1280,-4.000000
1281,0.000000
1282,0.000000
1283,0.000000
1284,0.000000
1285,-4.000000
1286,-4.000000
1287,-4.000000
1288,-4.000000
1289,-4.000000
1290,-2.000000
1291,0.000000
1292,0.000000
1293,0.000000
1294,0.000000
1295,0.000000
1296,0.000000
1297,-4.000000
1298,-14.000000
1299,-4.000000
1300,-4.000000
1301,-4.000000
1302,-4.000000
1303,-4.000000
1304,-4.000000
1305,-4.000000
1306,-12.000000
1307,-12.000000
1308,-4.000000
1309,-14.000000
1310,-4.000000
1311,-4.000000
1312,-4.000000
1313,-4.000000
1314,-4.000000
1315,-4.000000
1316,-4.000000
1317,-4.000000
1318,-4.000000
1319,-4.000000
1320,-4.000000
1321,-4.000000
1322,-4.000000
1323,-4.000000
1324,0.000000
1325,-4.000000
1326,-6.000000
1327,-8.000000
1328,-4.000000
1329,-6.000000
1330,-4.000000
1331,-4.000000
1332,-4.000000
1333,-10.000000
1334,-4.000000
1335,-4.000000
1336,26.000000
1337,-14.000000
1338,-4.000000
1339,-8.000000
1340,-4.000000
1341,-4.000000
1342,-2.000000
1343,-4.000000
1344,-12.000000
1345,-8.000000
1346,-6.000000
1347,-8.000000
1348,-4.000000
1349,-4.000000
1350,-8.000000
1351,-4.000000
1352,-4.000000
1353,-4.000000
1354,-4.000000
1355,-8.000000
1356,-4.000000
1357,-4.000000
1358,-4.000000
1359,-2.000000
1360,-2.000000
1361,-2.000000
1362,-4.000000
1363,0.000000
1364,0.000000
1365,-4.000000
1366,-4.000000
1367,-4.000000
1368,-4.000000
1369,0.000000
1370,0.000000
1371,0.000000
1372,2.000000
1373,0.000000
1374,0.000000
1375,0.000000
1376,0.000000
1377,-4.000000
1378,-4.000000
1379,-4.000000
1380,-2.000000
1381,0.000000
1382,0.000000
1383,-4.000000
1384,-4.000000
1385,-2.000000
1386,-2.000000
1387,0.000000
1388,0.000000
1389,0.000000
1390,0.000000
1391,-4.000000
1392,-4.000000
1393,-2.000000
1394,-4.000000
1395,-4.000000
1396,-4.000000
1397,0.000000
1398,4.000000
1399,0.000000
1400,4.000000
1401,2.000000
1402,4.000000
1403,2.000000
1404,2.000000
1405,4.000000
1406,4.000000
1407,2.000000
1408,2.000000
1409,4.000000
1410,4.000000
1411,2.000000
1412,2.000000
1413,2.000000
1414,2.000000
1415,2.000000
1416,2.000000
1417,4.000000
1418,4.000000
1419,4.000000
1420,4.000000
1421,0.000000
1422,4.000000
1423,4.000000
