docs/evidence/raw/2026-09-07/data_21_008.csv

Channel              :,CH1
Frequency            :,  ?
Period               :,  ?
PK-PK                :,84.00mV
Probe attenuation    :,1X
Voltage per ADC value:,0.125000mV
Time interval        :,100.00000us

index,CH1_Voltage(mV)
1,-6.000000
2,-6.000000
3,-8.000000
4,-4.000000
5,-4.000000
6,-4.000000
7,-4.000000
8,-12.000000
9,-4.000000
10,-4.000000
11,-14.000000
12,-8.000000
13,6.000000
14,-8.000000
15,-4.000000
16,-4.000000
17,-4.000000
18,-4.000000
19,-4.000000
20,-4.000000
21,-4.000000
22,-14.000000
23,-14.000000
24,-4.000000
25,-4.000000
26,-6.000000
27,-8.000000
28,-8.000000
29,-4.000000
30,-8.000000
31,2.000000
32,-14.000000
33,-14.000000
34,-12.000000
35,-4.000000
36,-12.000000
37,-4.000000
38,-4.000000
39,-8.000000
40,-8.000000
41,-8.000000
42,-4.000000
43,-8.000000
44,-4.000000
45,4.000000
46,-4.000000
47,-4.000000
48,0.000000
49,-4.000000
50,-8.000000
51,-4.000000
52,-4.000000
53,-4.000000
54,-4.000000
55,-4.000000
56,0.000000
57,0.000000
58,-2.000000
59,-2.000000
60,-4.000000
61,-2.000000
62,-2.000000
63,-4.000000
64,-4.000000
65,-4.000000
66,0.000000
67,0.000000
68,-4.000000
69,-4.000000
70,0.000000
71,0.000000
72,-4.000000
73,-4.000000
74,-2.000000
75,-2.000000
76,-2.000000
77,-4.000000
78,0.000000
79,0.000000
80,0.000000
81,0.000000
82,0.000000
83,0.000000
84,-4.000000
85,-4.000000
86,0.000000
87,0.000000
88,0.000000
89,0.000000
90,0.000000
91,0.000000
92,0.000000
93,0.000000
94,-4.000000
95,-4.000000
96,2.000000
97,2.000000
98,0.000000
99,0.000000
100,0.000000
101,0.000000
102,2.000000
103,2.000000
104,2.000000
105,2.000000
106,2.000000
107,2.000000
108,2.000000
109,2.000000
110,0.000000
111,0.000000
112,2.000000
113,0.000000
114,2.000000
115,0.000000
116,2.000000
117,0.000000
118,2.000000
119,2.000000
120,-4.000000
121,2.000000
122,2.000000
123,2.000000
124,0.000000
125,4.000000
126,0.000000
127,-4.000000
128,0.000000
129,4.000000
130,4.000000
131,4.000000
132,-4.000000
133,-4.000000
134,-28.000000
135,-12.000000
136,-4.000000
137,-4.000000
138,-4.000000
139,-4.000000
140,-12.000000
141,-12.000000
142,-4.000000
143,-4.000000
144,-4.000000
145,-8.000000
146,-4.000000
147,-12.000000
148,-4.000000
149,-4.000000
150,-4.000000
151,-4.000000
152,-4.000000
153,-4.000000
154,-4.000000
155,-4.000000
156,-4.000000
157,-4.000000
158,-4.000000
159,-2.000000
160,-2.000000
161,0.000000
162,-2.000000
163,-2.000000
164,-2.000000
165,-2.000000
166,0.000000
167,0.000000
168,-4.000000
169,-4.000000
170,-4.000000
171,-4.000000
172,-4.000000
173,-2.000000
174,-2.000000
175,-2.000000
176,0.000000
177,0.000000
178,-4.000000
179,-4.000000
180,0.000000
181,-4.000000
182,-2.000000
183,-4.000000
184,0.000000
185,0.000000
186,0.000000
187,0.000000
188,-2.000000
189,-2.000000
190,-2.000000
191,-4.000000
192,-4.000000
193,-4.000000
194,0.000000
195,0.000000
196,-8.000000
197,2.000000
198,-4.000000
199,-4.000000
200,-14.000000
201,-12.000000
202,-4.000000
203,-4.000000
204,-4.000000
205,-8.000000
206,-8.000000
207,-4.000000
208,0.000000
209,-8.000000
210,-4.000000
211,-4.000000
212,-8.000000
213,-2.000000
214,-4.000000
215,-4.000000
216,-4.000000
217,-4.000000
218,-4.000000
219,-4.000000
220,-4.000000
221,-4.000000
222,-4.000000
223,-4.000000
224,-8.000000
225,-4.000000
226,-4.000000
227,-4.000000
228,-4.000000
229,-4.000000
230,-4.000000
231,-4.000000
232,-8.000000
233,-8.000000
234,-12.000000
235,28.000000
236,-4.000000
237,-12.000000
238,-4.000000
239,0.000000
240,-4.000000
241,-4.000000
242,-4.000000
243,-4.000000
244,-4.000000
245,-2.000000
246,-4.000000
247,-8.000000
248,-4.000000
249,-8.000000
250,-4.000000
251,-8.000000
252,-8.000000
253,-8.000000
254,-4.000000
255,-4.000000
256,-4.000000
257,-2.000000
258,0.000000
259,0.000000
260,-2.000000
261,-4.000000
262,-2.000000
263,-2.000000
264,-2.000000
265,-2.000000
266,0.000000
267,0.000000
268,-4.000000
269,-2.000000
270,-4.000000
271,-2.000000
272,0.000000
273,0.000000
274,0.000000
275,0.000000
276,-4.000000
277,-4.000000
278,0.000000
279,0.000000
280,-2.000000
281,-2.000000
282,0.000000
283,0.000000
284,-2.000000
285,-2.000000
286,0.000000
287,0.000000
288,0.000000
289,0.000000
290,0.000000
291,0.000000
292,0.000000
293,0.000000
294,-2.000000
295,-4.000000
296,0.000000
297,2.000000
298,0.000000
299,2.000000
300,0.000000
301,2.000000
302,0.000000
303,0.000000
304,0.000000
305,0.000000
306,2.000000
307,0.000000
308,2.000000
309,0.000000
310,0.000000
311,2.000000
312,2.000000
313,0.000000
314,0.000000
315,0.000000
316,2.000000
317,-8.000000
318,0.000000
319,2.000000
320,4.000000
321,4.000000
322,4.000000
323,4.000000
324,4.000000
325,4.000000
326,0.000000
327,0.000000
328,4.000000
329,4.000000
330,4.000000
331,4.000000
332,-4.000000
333,-14.000000
334,-12.000000
335,-4.000000
336,-4.000000
337,0.000000
338,-4.000000
339,-14.000000
340,2.000000
341,-8.000000
342,-4.000000
343,-4.000000
344,-8.000000
345,-8.000000
346,-4.000000
347,-14.000000
348,-4.000000
349,-4.000000
350,-4.000000
351,-8.000000
352,-4.000000
353,-12.000000
354,-4.000000
355,-4.000000
356,-4.000000
357,-4.000000
358,-2.000000
359,-4.000000
360,-4.000000
361,-4.000000
362,0.000000
363,0.000000
364,0.000000
365,0.000000
366,0.000000
367,2.000000
368,2.000000
369,2.000000
370,0.000000
371,0.000000
372,-4.000000
373,-4.000000
374,0.000000
375,0.000000
376,-2.000000
377,-4.000000
378,0.000000
379,0.000000
380,-4.000000
381,-4.000000
382,-4.000000
383,-2.000000
384,0.000000
385,0.000000
386,0.000000
387,0.000000
388,-2.000000
389,-4.000000
390,-4.000000
391,-4.000000
392,-4.000000
393,-4.000000
394,-4.000000
395,-4.000000
396,-8.000000
397,-4.000000
398,-4.000000
399,-4.000000
400,-8.000000
401,-10.000000
402,-4.000000
403,-4.000000
404,-4.000000
405,-4.000000
406,-4.000000
407,-8.000000
408,-4.000000
409,-4.000000
410,-4.000000
411,-4.000000
412,-4.000000
413,-8.000000
414,-4.000000
415,-4.000000
416,-14.000000
417,-4.000000
418,-14.000000
419,-14.000000
420,-8.000000
421,-12.000000
422,-4.000000
423,-14.000000
424,-4.000000
425,-4.000000
426,-8.000000
427,-8.000000
428,-4.000000
429,-6.000000
430,-4.000000
431,-4.000000
432,-8.000000
433,-10.000000
434,-4.000000
435,-6.000000
436,-8.000000
437,-2.000000
438,-4.000000
439,-4.000000
440,-4.000000
441,-4.000000
442,-8.000000
443,-12.000000
444,-8.000000
445,-4.000000
446,2.000000
447,-4.000000
448,-8.000000
449,-10.000000
450,-4.000000
451,-8.000000
452,-8.000000
453,0.000000
454,-6.000000
455,-4.000000
456,-4.000000
457,-4.000000
458,-4.000000
459,-2.000000
460,-4.000000
461,-2.000000
462,0.000000
463,0.000000
464,0.000000
465,0.000000
466,-4.000000
467,-4.000000
468,-2.000000
469,-4.000000
470,0.000000
471,0.000000
472,0.000000
473,0.000000
474,-2.000000
475,-4.000000
476,-4.000000
477,-4.000000
478,0.000000
479,0.000000
480,0.000000
481,0.000000
482,0.000000
483,0.000000
484,0.000000
485,0.000000
486,-4.000000
487,-2.000000
488,0.000000
489,0.000000
490,-4.000000
491,-4.000000
492,-4.000000
493,-2.000000
494,0.000000
495,0.000000
496,2.000000
497,0.000000
498,2.000000
499,2.000000
500,0.000000
501,2.000000
502,2.000000
503,2.000000
504,2.000000
505,2.000000
506,2.000000
507,2.000000
508,2.000000
509,2.000000
510,2.000000
511,2.000000
512,-4.000000
513,2.000000
514,0.000000
515,0.000000
516,-2.000000
517,0.000000
518,0.000000
519,-18.000000
520,0.000000
521,0.000000
522,2.000000
523,0.000000
524,2.000000
525,0.000000
526,0.000000
527,4.000000
528,0.000000
529,0.000000
530,-4.000000
531,-4.000000
532,-4.000000
533,-4.000000
534,-12.000000
535,-14.000000
536,-14.000000
537,-14.000000
538,-4.000000
539,-8.000000
540,-4.000000
541,-14.000000
542,-4.000000
543,-4.000000
544,-4.000000
545,-4.000000
546,0.000000
547,-12.000000
548,-8.000000
549,-8.000000
550,-14.000000
551,-14.000000
552,-4.000000
553,-4.000000
554,-14.000000
555,-4.000000
556,-4.000000
557,-4.000000
558,-2.000000
559,-2.000000
560,-4.000000
561,-4.000000
562,-4.000000
563,-2.000000
564,0.000000
565,0.000000
566,-4.000000
567,-4.000000
568,0.000000
569,0.000000
570,0.000000
571,-4.000000
572,-4.000000
573,-4.000000
574,-4.000000
575,-2.000000
576,-4.000000
577,-4.000000
578,0.000000
579,2.000000
580,-2.000000
581,-4.000000
582,0.000000
583,0.000000
584,-2.000000
585,-2.000000
586,0.000000
587,0.000000
588,-4.000000
589,-2.000000
590,-4.000000
591,-4.000000
592,-4.000000
593,-4.000000
594,-4.000000
595,-8.000000
596,-4.000000
597,-14.000000
598,-8.000000
599,-4.000000
600,-4.000000
601,-4.000000
602,-4.000000
603,-4.000000
604,-14.000000
605,-4.000000
606,-4.000000
607,-14.000000
608,-8.000000
609,-8.000000
610,-4.000000
611,-12.000000
612,-8.000000
613,-4.000000
614,-4.000000
615,-12.000000
616,-10.000000
617,-4.000000
618,-4.000000
619,-4.000000
620,-8.000000
621,-8.000000
622,-8.000000
623,-8.000000
624,-4.000000
625,-12.000000
626,-4.000000
627,-4.000000
628,-6.000000
629,14.000000
630,-4.000000
631,2.000000
632,0.000000
633,-4.000000
634,-4.000000
635,-14.000000
636,-4.000000
637,-8.000000
638,-14.000000
639,-14.000000
640,-14.000000
641,-4.000000
642,-12.000000
643,-10.000000
644,-4.000000
645,-4.000000
646,-10.000000
647,-4.000000
648,-4.000000
649,-12.000000
650,-8.000000
651,-4.000000
652,-4.000000
653,-4.000000
654,6.000000
655,-4.000000
656,-2.000000
657,0.000000
658,-2.000000
659,-4.000000
660,-2.000000
661,-4.000000
662,0.000000
663,0.000000
664,-2.000000
665,-2.000000
666,-2.000000
667,-2.000000
668,-4.000000
669,-4.000000
670,-6.000000
671,0.000000
672,0.000000
673,0.000000
674,2.000000
675,0.000000
676,-4.000000
677,-4.000000
678,-4.000000
679,-4.000000
680,0.000000
681,0.000000
682,-2.000000
683,-4.000000
684,-2.000000
685,-2.000000
686,0.000000
687,0.000000
688,-4.000000
689,-4.000000
690,-2.000000
691,-4.000000
692,-2.000000
693,-4.000000
694,-4.000000
695,-4.000000
696,0.000000
697,2.000000
698,-8.000000
699,0.000000
700,0.000000
701,2.000000
702,2.000000
703,0.000000
704,0.000000
705,0.000000
706,0.000000
707,0.000000
708,2.000000
709,2.000000
710,0.000000
711,0.000000
712,0.000000
713,0.000000
714,0.000000
715,2.000000
716,0.000000
717,2.000000
718,0.000000
719,2.000000
720,2.000000
721,0.000000
722,4.000000
723,4.000000
724,4.000000
725,0.000000
726,4.000000
727,4.000000
728,2.000000
729,2.000000
730,2.000000
731,0.000000
732,-4.000000
733,-4.000000
734,-12.000000
735,-4.000000
736,-4.000000
737,-4.000000
738,-4.000000
739,-4.000000
740,-4.000000
741,-4.000000
742,-4.000000
743,-14.000000
744,-14.000000
745,-4.000000
746,-10.000000
747,-8.000000
748,-8.000000
749,-4.000000
750,-4.000000
751,-8.000000
752,-4.000000
753,-4.000000
754,-4.000000
755,-4.000000
756,-4.000000
757,-4.000000
758,-4.000000
759,-2.000000
760,-2.000000
761,-4.000000
762,-2.000000
763,-2.000000
764,-4.000000
765,-4.000000
766,-4.000000
767,-4.000000
768,-2.000000
769,-2.000000
770,-2.000000
771,-2.000000
772,2.000000
773,0.000000
774,0.000000
775,0.000000
776,-2.000000
777,-2.000000
778,-4.000000
779,-4.000000
780,-2.000000
781,-2.000000
782,-4.000000
783,-4.000000
784,-4.000000
785,-4.000000
786,0.000000
787,0.000000
788,-4.000000
789,-2.000000
790,0.000000
791,0.000000
792,-4.000000
793,-4.000000
794,-8.000000
795,-10.000000
796,-4.000000
797,-4.000000
798,-4.000000
799,-4.000000
800,-12.000000
801,-12.000000
802,-4.000000
803,-14.000000
804,-4.000000
805,-4.000000
806,-2.000000
807,-8.000000
808,-8.000000
809,-8.000000
810,-12.000000
811,-8.000000
812,-4.000000
813,-14.000000
814,-4.000000
815,-4.000000
816,-4.000000
817,-4.000000
818,-4.000000
819,-4.000000
820,-12.000000
821,-4.000000
822,0.000000
823,-14.000000
824,-8.000000
825,-4.000000
826,-4.000000
827,-4.000000
828,-4.000000
829,-4.000000
830,-4.000000
831,-2.000000
832,-14.000000
833,-4.000000
834,-14.000000
835,-12.000000
836,-8.000000
837,-4.000000
838,-10.000000
839,-8.000000
840,-8.000000
841,-8.000000
842,-4.000000
843,-8.000000
844,-4.000000
845,-8.000000
846,-4.000000
847,-8.000000
848,-4.000000
849,-8.000000
850,-10.000000
851,-4.000000
852,-4.000000
853,-8.000000
854,-4.000000
855,-4.000000
856,-4.000000
857,-4.000000
858,-2.000000
859,-4.000000
860,-4.000000
861,-4.000000
862,-4.000000
863,-4.000000
864,-2.000000
865,-4.000000
866,0.000000
867,0.000000
868,-4.000000
869,-4.000000
870,0.000000
871,0.000000
872,-4.000000
873,-4.000000
874,-2.000000
875,-2.000000
876,0.000000
877,0.000000
878,-2.000000
879,-2.000000
880,0.000000
881,0.000000
882,-4.000000
883,-2.000000
884,-4.000000
885,-2.000000
886,-4.000000
887,-4.000000
888,-4.000000
889,-4.000000
890,0.000000
891,0.000000
892,-4.000000
893,-4.000000
894,0.000000
895,-8.000000
896,0.000000
897,0.000000
898,0.000000
899,2.000000
900,2.000000
901,0.000000
902,2.000000
903,2.000000
904,2.000000
905,2.000000
906,2.000000
907,2.000000
908,2.000000
909,2.000000
910,2.000000
911,-2.000000
912,2.000000
913,2.000000
914,2.000000
915,2.000000
916,0.000000
917,2.000000
918,0.000000
919,2.000000
920,0.000000
921,2.000000
922,-4.000000
923,-4.000000
924,2.000000
925,2.000000
926,4.000000
927,4.000000
928,4.000000
929,4.000000
930,2.000000
931,0.000000
932,-4.000000
933,-4.000000
934,-4.000000
935,-4.000000
936,-2.000000
937,-2.000000
938,-2.000000
939,-8.000000
940,-4.000000
941,-4.000000
942,-4.000000
943,-14.000000
944,-12.000000
945,0.000000
946,-8.000000
947,-4.000000
948,-4.000000
949,-4.000000
950,-4.000000
951,-4.000000
952,-4.000000
953,-4.000000
954,-8.000000
955,-4.000000
956,-4.000000
957,-4.000000
958,0.000000
959,0.000000
960,-4.000000
961,-4.000000
962,-4.000000
963,-2.000000
964,0.000000
965,0.000000
966,0.000000
967,0.000000
968,-4.000000
969,-4.000000
970,-4.000000
971,-4.000000
972,0.000000
973,0.000000
974,-4.000000
975,-4.000000
976,0.000000
977,0.000000
978,0.000000
979,0.000000
980,0.000000
981,0.000000
982,-4.000000
983,-4.000000
984,-4.000000
985,-4.000000
986,0.000000
987,0.000000
988,-4.000000
989,-2.000000
990,-4.000000
991,-2.000000
992,-4.000000
993,-4.000000
994,-4.000000
995,-4.000000
996,-4.000000
997,-8.000000
998,-4.000000
999,-4.000000
1000,-4.000000
1001,-4.000000
1002,-4.000000
1003,-8.000000
1004,-12.000000
1005,-14.000000
1006,-4.000000
1007,-4.000000
1008,-4.000000
1009,-4.000000
1010,-4.000000
1011,-8.000000
1012,-4.000000
1013,-4.000000
1014,-4.000000
1015,-4.000000
1016,-4.000000
1017,-8.000000
1018,-4.000000
1019,-8.000000
1020,-4.000000
1021,-4.000000
1022,-4.000000
1023,-8.000000
1024,-4.000000
1025,-4.000000
1026,-4.000000
1027,-8.000000
1028,-6.000000
1029,-4.000000
1030,-8.000000
1031,-8.000000
1032,-14.000000
1033,-4.000000
1034,-4.000000
1035,-4.000000
1036,-12.000000
1037,-4.000000
1038,-4.000000
1039,-8.000000
1040,-4.000000
1041,-4.000000
1042,-4.000000
1043,-8.000000
1044,-12.000000
1045,-4.000000
1046,-4.000000
1047,-4.000000
1048,-4.000000
1049,-4.000000
1050,-8.000000
1051,-4.000000
1052,-4.000000
1053,-4.000000
1054,-4.000000
1055,-4.000000
1056,-4.000000
1057,-4.000000
1058,-2.000000
1059,-4.000000
1060,-4.000000
1061,-4.000000
1062,-4.000000
1063,-4.000000
1064,0.000000
1065,0.000000
1066,0.000000
1067,0.000000
1068,0.000000
1069,0.000000
1070,-4.000000
1071,-4.000000
1072,-2.000000
1073,-2.000000
1074,0.000000
1075,0.000000
1076,-2.000000
1077,-2.000000
1078,-4.000000
1079,-4.000000
1080,2.000000
1081,0.000000
1082,-4.000000
1083,-4.000000
1084,-2.000000
1085,-4.000000
1086,0.000000
1087,0.000000
1088,-2.000000
1089,-4.000000
1090,0.000000
1091,-4.000000
1092,0.000000
1093,0.000000
1094,0.000000
1095,4.000000
1096,2.000000
1097,2.000000
1098,2.000000
1099,0.000000
1100,0.000000
1101,0.000000
1102,2.000000
1103,2.000000
1104,2.000000
1105,2.000000
1106,0.000000
1107,0.000000
1108,2.000000
1109,0.000000
1110,2.000000
1111,0.000000
1112,2.000000
1113,0.000000
1114,-4.000000
1115,0.000000
1116,0.000000
1117,0.000000
1118,2.000000
1119,0.000000
1120,4.000000
1121,4.000000
1122,0.000000
1123,4.000000
1124,4.000000
1125,4.000000
1126,4.000000
1127,4.000000
1128,4.000000
1129,4.000000
1130,-2.000000
1131,-4.000000
1132,-4.000000
1133,-4.000000
1134,-4.000000
1135,-4.000000
1136,-8.000000
1137,24.000000
1138,-4.000000
1139,-14.000000
1140,-12.000000
1141,-12.000000
1142,-10.000000
1143,-4.000000
1144,-4.000000
1145,-14.000000
1146,-4.000000
1147,2.000000
1148,-14.000000
1149,2.000000
1150,-12.000000
1151,-4.000000
1152,-8.000000
1153,-8.000000
1154,-4.000000
1155,-4.000000
1156,-4.000000
1157,-4.000000
1158,-2.000000
1159,-4.000000
1160,0.000000
1161,0.000000
1162,-2.000000
1163,-4.000000
1164,-4.000000
1165,-2.000000
1166,0.000000
1167,0.000000
1168,-2.000000
1169,-4.000000
1170,-4.000000
1171,-4.000000
1172,0.000000
1173,0.000000
1174,-2.000000
1175,-4.000000
1176,-2.000000
1177,-4.000000
1178,0.000000
1179,0.000000
1180,0.000000
1181,0.000000
1182,-4.000000
1183,-4.000000
1184,0.000000
1185,0.000000
1186,-2.000000
1187,-4.000000
1188,-4.000000
1189,-4.000000
1190,-4.000000
1191,-4.000000
1192,0.000000
1193,0.000000
1194,-10.000000
1195,-4.000000
1196,-4.000000
1197,-4.000000
1198,-4.000000
1199,-8.000000
1200,2.000000
1201,-4.000000
1202,-4.000000
1203,-2.000000
1204,-4.000000
1205,-14.000000
1206,-4.000000
1207,-4.000000
1208,-8.000000
1209,-4.000000
1210,-8.000000
1211,-4.000000
1212,-8.000000
1213,-8.000000
1214,-4.000000
1215,-4.000000
1216,-4.000000
1217,-4.000000
1218,-4.000000
1219,-8.000000
1220,-10.000000
1221,-4.000000
1222,-4.000000
1223,-4.000000
1224,-4.000000
1225,-4.000000
1226,-4.000000
1227,-8.000000
1228,-2.000000
1229,-4.000000
1230,-8.000000
1231,-12.000000
1232,-12.000000
1233,-4.000000
1234,-4.000000
1235,-4.000000
1236,-8.000000
1237,-12.000000
1238,-8.000000
1239,14.000000
1240,-4.000000
1241,-8.000000
1242,-4.000000
1243,-4.000000
1244,-8.000000
1245,-4.000000
1246,-4.000000
1247,-8.000000
1248,-4.000000
1249,-8.000000
1250,-4.000000
1251,-4.000000
1252,-4.000000
1253,-6.000000
1254,-2.000000
1255,-2.000000
1256,-2.000000
1257,-2.000000
1258,-4.000000
1259,-4.000000
1260,-4.000000
1261,-2.000000
1262,0.000000
1263,0.000000
1264,-2.000000
1265,-4.000000
1266,-4.000000
1267,-2.000000
1268,-4.000000
1269,-4.000000
1270,-4.000000
1271,-4.000000
1272,0.000000
1273,0.000000
1274,-2.000000
1275,-4.000000
1276,-4.000000
1277,-4.000000
1278,0.000000
1279,0.000000
1280,0.000000
1281,0.000000
1282,0.000000
1283,-4.000000
1284,-2.000000
1285,-2.000000
1286,-4.000000
1287,-4.000000
1288,0.000000
1289,0.000000
1290,-2.000000
1291,-4.000000
1292,0.000000
1293,2.000000
1294,4.000000
1295,4.000000
1296,2.000000
1297,2.000000
1298,2.000000
1299,0.000000
1300,2.000000
1301,2.000000
1302,2.000000
1303,2.000000
1304,4.000000
1305,4.000000
1306,2.000000
1307,2.000000
1308,2.000000
1309,2.000000
1310,0.000000
1311,0.000000
1312,0.000000
1313,0.000000
1314,0.000000
1315,0.000000
1316,2.000000
1317,-2.000000
1318,0.000000
1319,2.000000
1320,0.000000
1321,2.000000
1322,4.000000
1323,4.000000
1324,2.000000
1325,0.000000
1326,2.000000
1327,2.000000
1328,2.000000
1329,0.000000
1330,-4.000000
1331,-4.000000
1332,-4.000000
1333,-4.000000
1334,-4.000000
1335,-4.000000
1336,-4.000000
1337,-8.000000
1338,-8.000000
1339,-12.000000
1340,-4.000000
1341,6.000000
1342,-4.000000
1343,-4.000000
1344,-4.000000
1345,-4.000000
1346,-8.000000
1347,-4.000000
1348,8.000000
1349,-4.000000
1350,-4.000000
1351,-4.000000
1352,-14.000000
1353,2.000000
1354,-4.000000
1355,-4.000000
1356,0.000000
1357,0.000000
1358,-4.000000
1359,-4.000000
1360,-4.000000
1361,-4.000000
1362,0.000000
1363,2.000000
1364,-4.000000
1365,-2.000000
1366,-4.000000
1367,-4.000000
1368,-4.000000
1369,-4.000000
1370,-2.000000
1371,-4.000000
1372,-4.000000
1373,-4.000000
1374,0.000000
1375,0.000000
1376,0.000000
1377,0.000000
1378,-2.000000
1379,-4.000000
1380,0.000000
1381,0.000000
1382,-2.000000
1383,-4.000000
1384,-4.000000
1385,-4.000000
1386,-4.000000
1387,-4.000000
1388,-4.000000
1389,-2.000000
1390,0.000000
1391,0.000000
1392,-4.000000
1393,-4.000000
1394,-4.000000
1395,-4.000000
1396,-4.000000
1397,-4.000000
1398,-8.000000
1399,-12.000000
1400,-4.000000
1401,-4.000000
1402,-4.000000
1403,-8.000000
1404,0.000000
1405,-4.000000
1406,-10.000000
1407,-4.000000
1408,-14.000000
1409,-14.000000
1410,-8.000000
1411,-8.000000
1412,-8.000000
1413,-4.000000
1414,-4.000000
1415,-4.000000
1416,-4.000000
