docs/evidence/raw/2026-09-07/data_20_012on.csv

Channel              :,CH1
Frequency            :,  ?
Period               :,  ?
PK-PK                :,236.0mV
Probe attenuation    :,1X
Voltage per ADC value:,0.250000mV
Time interval        :,100.00000us

index,CH1_Voltage(mV)
1,0.000000
2,0.000000
3,-8.000000
4,-8.000000
5,-64.000000
6,0.000000
7,-4.000000
8,-4.000000
9,-20.000000
10,0.000000
11,64.000000
12,-20.000000
13,-44.000000
14,24.000000
15,0.000000
16,16.000000
17,-24.000000
18,-24.000000
19,-8.000000
20,16.000000
21,-36.000000
22,12.000000
23,-16.000000
24,20.000000
25,24.000000
26,-24.000000
27,-28.000000
28,-28.000000
29,-16.000000
30,-16.000000
31,-36.000000
32,4.000000
33,-24.000000
34,-64.000000
35,-28.000000
36,20.000000
37,-28.000000
38,0.000000
39,52.000000
40,-24.000000
41,0.000000
42,-24.000000
43,28.000000
44,-20.000000
45,-12.000000
46,-16.000000
47,-28.000000
48,-32.000000
49,-16.000000
50,52.000000
51,-12.000000
52,-12.000000
53,-8.000000
54,0.000000
55,-20.000000
56,8.000000
57,8.000000
58,-12.000000
59,-48.000000
60,-40.000000
61,-32.000000
62,-12.000000
63,28.000000
64,-8.000000
65,-12.000000
66,-4.000000
67,12.000000
68,8.000000
69,-12.000000
70,52.000000
71,-8.000000
72,-4.000000
73,-12.000000
74,12.000000
75,-20.000000
76,-20.000000
77,-20.000000
78,-8.000000
79,60.000000
80,-124.000000
81,32.000000
82,-36.000000
83,-12.000000
84,28.000000
85,16.000000
86,20.000000
87,12.000000
88,16.000000
89,0.000000
90,0.000000
91,16.000000
92,-8.000000
93,12.000000
94,-16.000000
95,-16.000000
96,12.000000
97,-40.000000
98,0.000000
99,40.000000
100,16.000000
101,-4.000000
102,32.000000
103,12.000000
104,12.000000
105,-8.000000
106,0.000000
107,-20.000000
108,16.000000
109,0.000000
110,-12.000000
111,8.000000
112,44.000000
113,-20.000000
114,-12.000000
115,-8.000000
116,20.000000
117,8.000000
118,40.000000
119,12.000000
120,24.000000
121,12.000000
122,-72.000000
123,-12.000000
124,-36.000000
125,-8.000000
126,-4.000000
127,-8.000000
128,0.000000
129,8.000000
130,-20.000000
131,24.000000
132,-8.000000
133,32.000000
134,-8.000000
135,-8.000000
136,24.000000
137,-32.000000
138,0.000000
139,-52.000000
140,0.000000
141,40.000000
142,-20.000000
143,0.000000
144,-8.000000
145,0.000000
146,0.000000
147,0.000000
148,0.000000
149,-28.000000
150,52.000000
151,-20.000000
152,-8.000000
153,-8.000000
154,0.000000
155,4.000000
156,-8.000000
157,8.000000
158,-44.000000
159,-8.000000
160,-8.000000
161,-8.000000
162,-12.000000
163,16.000000
164,8.000000
165,-128.000000
166,-24.000000
167,-4.000000
168,-8.000000
169,4.000000
170,-24.000000
171,4.000000
172,4.000000
173,-8.000000
174,-20.000000
175,0.000000
176,-12.000000
177,44.000000
178,-28.000000
179,68.000000
180,24.000000
181,-72.000000
182,4.000000
183,24.000000
184,4.000000
185,-20.000000
186,4.000000
187,0.000000
188,-20.000000
189,-40.000000
190,28.000000
191,-24.000000
192,-20.000000
193,-12.000000
194,-4.000000
195,-24.000000
196,52.000000
197,-32.000000
198,0.000000
199,-4.000000
200,-16.000000
201,8.000000
202,0.000000
203,-4.000000
204,0.000000
205,0.000000
206,4.000000
207,0.000000
208,-28.000000
209,-28.000000
210,16.000000
211,24.000000
212,24.000000
213,-28.000000
214,36.000000
215,-16.000000
216,20.000000
217,4.000000
218,16.000000
219,-4.000000
220,-20.000000
221,24.000000
222,24.000000
223,-8.000000
224,-8.000000
225,0.000000
226,4.000000
227,0.000000
228,16.000000
229,-8.000000
230,-8.000000
231,16.000000
232,16.000000
233,8.000000
234,40.000000
235,-4.000000
236,-44.000000
237,0.000000
238,-4.000000
239,0.000000
240,-24.000000
241,24.000000
242,20.000000
243,-28.000000
244,64.000000
245,0.000000
246,0.000000
247,32.000000
248,40.000000
249,44.000000
250,-4.000000
251,-8.000000
252,-28.000000
253,24.000000
254,-8.000000
255,-28.000000
256,0.000000
257,-24.000000
258,-28.000000
259,-16.000000
260,-16.000000
261,0.000000
262,-20.000000
263,-20.000000
264,-4.000000
265,16.000000
266,-8.000000
267,0.000000
268,32.000000
269,-60.000000
270,0.000000
271,-8.000000
272,-24.000000
273,-12.000000
274,20.000000
275,-24.000000
276,-28.000000
277,-36.000000
278,-36.000000
279,4.000000
280,-48.000000
281,4.000000
282,-88.000000
283,-24.000000
284,0.000000
285,0.000000
286,-16.000000
287,-20.000000
288,-20.000000
289,-36.000000
290,20.000000
291,4.000000
292,-32.000000
293,-8.000000
294,0.000000
295,-8.000000
296,-8.000000
297,4.000000
298,-20.000000
299,20.000000
300,-40.000000
301,-36.000000
302,-36.000000
303,16.000000
304,-24.000000
305,0.000000
306,0.000000
307,-8.000000
308,20.000000
309,-16.000000
310,-16.000000
311,-20.000000
312,0.000000
313,-60.000000
314,-28.000000
315,-24.000000
316,-20.000000
317,-4.000000
318,-20.000000
319,-20.000000
320,52.000000
321,-40.000000
322,-28.000000
323,-8.000000
324,-8.000000
325,20.000000
326,16.000000
327,-8.000000
328,-24.000000
329,-36.000000
330,-20.000000
331,0.000000
332,4.000000
333,0.000000
334,-8.000000
335,-8.000000
336,0.000000
337,12.000000
338,-8.000000
339,8.000000
340,8.000000
341,8.000000
342,32.000000
343,4.000000
344,4.000000
345,-12.000000
346,-8.000000
347,100.000000
348,12.000000
349,56.000000
350,20.000000
351,-8.000000
352,8.000000
353,16.000000
354,64.000000
355,0.000000
356,0.000000
357,4.000000
358,0.000000
359,0.000000
360,24.000000
361,-52.000000
362,4.000000
363,-8.000000
364,40.000000
365,0.000000
366,-4.000000
367,20.000000
368,24.000000
369,52.000000
370,60.000000
371,0.000000
372,8.000000
373,0.000000
374,4.000000
375,-8.000000
376,-8.000000
377,28.000000
378,24.000000
379,44.000000
380,-8.000000
381,-52.000000
382,8.000000
383,0.000000
384,-72.000000
385,-4.000000
386,-20.000000
387,-12.000000
388,-40.000000
389,-60.000000
390,12.000000
391,-44.000000
392,-48.000000
393,-16.000000
394,16.000000
395,-4.000000
396,-28.000000
397,4.000000
398,12.000000
399,16.000000
400,-16.000000
401,12.000000
402,44.000000
403,0.000000
404,-12.000000
405,-12.000000
406,44.000000
407,0.000000
408,-44.000000
409,-44.000000
410,4.000000
411,-8.000000
412,-32.000000
413,-32.000000
414,0.000000
415,-12.000000
416,-8.000000
417,-4.000000
418,-28.000000
419,16.000000
420,-12.000000
421,16.000000
422,-4.000000
423,-4.000000
424,28.000000
425,0.000000
426,-8.000000
427,0.000000
428,-24.000000
429,20.000000
430,-36.000000
431,4.000000
432,20.000000
433,-16.000000
434,0.000000
435,-28.000000
436,72.000000
437,-40.000000
438,-48.000000
439,-40.000000
440,-28.000000
441,-12.000000
442,-4.000000
443,-8.000000
444,20.000000
445,-8.000000
446,-8.000000
447,-32.000000
448,16.000000
449,44.000000
450,0.000000
451,-32.000000
452,-8.000000
453,-8.000000
454,0.000000
455,-24.000000
456,-8.000000
457,-12.000000
458,-8.000000
459,16.000000
460,60.000000
461,-4.000000
462,-28.000000
463,-16.000000
464,-36.000000
465,-8.000000
466,12.000000
467,-24.000000
468,60.000000
469,20.000000
470,-12.000000
471,-8.000000
472,-4.000000
473,4.000000
474,0.000000
475,0.000000
476,0.000000
477,-108.000000
478,0.000000
479,-16.000000
480,0.000000
481,-24.000000
482,12.000000
483,0.000000
484,-8.000000
485,-8.000000
486,12.000000
487,52.000000
488,24.000000
489,48.000000
490,-12.000000
491,16.000000
492,-20.000000
493,0.000000
494,48.000000
495,-4.000000
496,-8.000000
497,24.000000
498,16.000000
499,28.000000
500,-16.000000
501,-8.000000
502,12.000000
503,-36.000000
504,32.000000
505,8.000000
506,8.000000
507,4.000000
508,-8.000000
509,20.000000
510,-24.000000
511,0.000000
512,16.000000
513,44.000000
514,-12.000000
515,12.000000
516,32.000000
517,28.000000
518,8.000000
519,16.000000
520,12.000000
521,-24.000000
522,-8.000000
523,4.000000
524,-16.000000
525,-8.000000
526,12.000000
527,92.000000
528,12.000000
529,0.000000
530,-24.000000
531,-16.000000
532,-12.000000
533,-16.000000
534,-32.000000
535,-8.000000
536,16.000000
537,0.000000
538,-16.000000
539,-24.000000
540,-20.000000
541,-28.000000
542,-28.000000
543,-48.000000
544,-20.000000
545,4.000000
546,-40.000000
547,-28.000000
548,-4.000000
549,-20.000000
550,-8.000000
551,-4.000000
552,-24.000000
553,-24.000000
554,-24.000000
555,16.000000
556,24.000000
557,-4.000000
558,-40.000000
559,-40.000000
560,-48.000000
561,-36.000000
562,0.000000
563,44.000000
564,-8.000000
565,4.000000
566,4.000000
567,-16.000000
568,-8.000000
569,44.000000
570,-12.000000
571,-4.000000
572,-32.000000
573,-16.000000
574,-36.000000
575,-16.000000
576,4.000000
577,0.000000
578,20.000000
579,8.000000
580,52.000000
581,0.000000
582,-12.000000
583,-52.000000
584,-36.000000
585,-32.000000
586,16.000000
587,-32.000000
588,-12.000000
589,4.000000
590,0.000000
591,12.000000
592,16.000000
593,8.000000
594,52.000000
595,-28.000000
596,8.000000
597,-4.000000
598,20.000000
599,24.000000
600,-16.000000
601,-12.000000
602,-8.000000
603,-20.000000
604,0.000000
605,4.000000
606,4.000000
607,4.000000
608,-60.000000
609,24.000000
610,4.000000
611,-28.000000
612,0.000000
613,20.000000
614,-12.000000
615,52.000000
616,-4.000000
617,-8.000000
618,4.000000
619,-12.000000
620,4.000000
621,20.000000
622,12.000000
623,-16.000000
624,12.000000
625,-4.000000
626,-8.000000
627,-4.000000
628,-64.000000
629,16.000000
630,40.000000
631,-20.000000
632,0.000000
633,-8.000000
634,12.000000
635,-36.000000
636,4.000000
637,20.000000
638,-20.000000
639,0.000000
640,-40.000000
641,0.000000
642,-24.000000
643,-28.000000
644,-36.000000
645,-20.000000
646,8.000000
647,-4.000000
648,-8.000000
649,-24.000000
650,-16.000000
651,-8.000000
652,-16.000000
653,16.000000
654,52.000000
655,-8.000000
656,-12.000000
657,8.000000
658,8.000000
659,12.000000
660,12.000000
661,20.000000
662,0.000000
663,-24.000000
664,-28.000000
665,12.000000
666,0.000000
667,-20.000000
668,0.000000
669,4.000000
670,32.000000
671,28.000000
672,-4.000000
673,8.000000
674,4.000000
675,-60.000000
676,8.000000
677,-8.000000
678,-12.000000
679,-8.000000
680,-20.000000
681,20.000000
682,-8.000000
683,-20.000000
684,-8.000000
685,-12.000000
686,-12.000000
687,-8.000000
688,44.000000
689,-60.000000
690,-8.000000
691,-8.000000
692,-36.000000
693,-24.000000
694,44.000000
695,28.000000
696,-8.000000
697,24.000000
698,-12.000000
699,-92.000000
700,0.000000
701,-8.000000
702,-16.000000
703,0.000000
704,0.000000
705,36.000000
706,32.000000
707,4.000000
708,-8.000000
709,60.000000
710,64.000000
711,4.000000
712,8.000000
713,-20.000000
714,20.000000
715,-4.000000
716,4.000000
717,-20.000000
718,32.000000
719,4.000000
720,-44.000000
721,-12.000000
722,4.000000
723,16.000000
724,0.000000
725,20.000000
726,24.000000
727,20.000000
728,20.000000
729,48.000000
730,8.000000
731,-12.000000
732,20.000000
733,-8.000000
734,24.000000
735,28.000000
736,-12.000000
737,-8.000000
738,-8.000000
739,-4.000000
740,76.000000
741,0.000000
742,40.000000
743,4.000000
744,-24.000000
745,20.000000
746,16.000000
747,-8.000000
748,44.000000
749,-36.000000
750,-44.000000
751,-24.000000
752,4.000000
753,-16.000000
754,4.000000
755,-4.000000
756,0.000000
757,-32.000000
758,-12.000000
759,-16.000000
760,32.000000
761,12.000000
762,-4.000000
763,8.000000
764,-8.000000
765,20.000000
766,-4.000000
767,-12.000000
768,0.000000
769,-8.000000
770,-4.000000
771,-32.000000
772,-40.000000
773,-8.000000
774,52.000000
775,-4.000000
776,-4.000000
777,12.000000
778,-12.000000
779,-8.000000
780,-8.000000
781,-8.000000
782,92.000000
783,84.000000
784,-16.000000
785,-24.000000
786,20.000000
787,-24.000000
788,-48.000000
789,44.000000
790,-20.000000
791,0.000000
792,28.000000
793,4.000000
794,0.000000
795,-52.000000
796,-8.000000
797,-8.000000
798,4.000000
799,-8.000000
800,-8.000000
801,16.000000
802,-24.000000
803,76.000000
804,-20.000000
805,-32.000000
806,-92.000000
807,-20.000000
808,8.000000
809,20.000000
810,-16.000000
811,-16.000000
812,-8.000000
813,-40.000000
814,-12.000000
815,56.000000
816,-8.000000
817,16.000000
818,-8.000000
819,-56.000000
820,-16.000000
821,-52.000000
822,-28.000000
823,-8.000000
824,-88.000000
825,-16.000000
826,28.000000
827,28.000000
828,-20.000000
829,-52.000000
830,12.000000
831,-8.000000
832,-4.000000
833,8.000000
834,8.000000
835,0.000000
836,4.000000
837,0.000000
838,-20.000000
839,-32.000000
840,24.000000
841,64.000000
842,-8.000000
843,76.000000
844,-20.000000
845,0.000000
846,8.000000
847,16.000000
848,-16.000000
849,-24.000000
850,-48.000000
851,-24.000000
852,-20.000000
853,4.000000
854,16.000000
855,12.000000
856,48.000000
857,4.000000
858,-28.000000
859,8.000000
860,8.000000
861,28.000000
862,20.000000
863,24.000000
864,12.000000
865,-16.000000
866,20.000000
867,0.000000
868,0.000000
869,-12.000000
870,0.000000
871,0.000000
872,24.000000
873,20.000000
874,24.000000
875,0.000000
876,-8.000000
877,0.000000
878,-76.000000
879,-8.000000
880,24.000000
881,-8.000000
882,52.000000
883,-60.000000
884,4.000000
885,-12.000000
886,0.000000
887,32.000000
888,-16.000000
889,4.000000
890,-20.000000
891,16.000000
892,16.000000
893,24.000000
894,-8.000000
895,0.000000
896,0.000000
897,44.000000
898,-8.000000
899,48.000000
900,-28.000000
901,-40.000000
902,-36.000000
903,20.000000
904,-16.000000
905,12.000000
906,-8.000000
907,0.000000
908,0.000000
909,0.000000
910,8.000000
911,-16.000000
912,12.000000
913,-20.000000
914,52.000000
915,-32.000000
916,-12.000000
917,4.000000
918,0.000000
919,-20.000000
920,-4.000000
921,16.000000
922,20.000000
923,-32.000000
924,4.000000
925,-4.000000
926,-36.000000
927,-4.000000
928,-32.000000
929,4.000000
930,0.000000
931,4.000000
932,-36.000000
933,8.000000
934,12.000000
935,20.000000
936,20.000000
937,-4.000000
938,-8.000000
939,-16.000000
940,-12.000000
941,-20.000000
942,0.000000
943,-24.000000
944,68.000000
945,-12.000000
946,-12.000000
947,-24.000000
948,-20.000000
949,4.000000
950,20.000000
951,12.000000
952,8.000000
953,-24.000000
954,-8.000000
955,-28.000000
956,0.000000
957,-8.000000
958,-12.000000
959,24.000000
960,0.000000
961,52.000000
962,-20.000000
963,-52.000000
964,8.000000
965,44.000000
966,-24.000000
967,20.000000
968,16.000000
969,16.000000
970,-28.000000
971,12.000000
972,-16.000000
973,-20.000000
974,-44.000000
975,-24.000000
976,0.000000
977,4.000000
978,28.000000
979,-8.000000
980,-8.000000
981,4.000000
982,-20.000000
983,12.000000
984,-24.000000
985,20.000000
986,8.000000
987,8.000000
988,12.000000
989,60.000000
990,-8.000000
991,24.000000
992,44.000000
993,4.000000
994,-20.000000
995,52.000000
996,0.000000
997,-12.000000
998,24.000000
999,-8.000000
1000,44.000000
1001,44.000000
1002,52.000000
1003,52.000000
1004,-8.000000
1005,12.000000
1006,8.000000
1007,-32.000000
1008,20.000000
1009,8.000000
1010,8.000000
1011,0.000000
1012,12.000000
1013,0.000000
1014,-16.000000
1015,12.000000
1016,-28.000000
1017,-20.000000
1018,32.000000
1019,0.000000
1020,16.000000
1021,28.000000
1022,60.000000
1023,-56.000000
1024,20.000000
1025,-28.000000
1026,4.000000
1027,-28.000000
1028,-16.000000
1029,8.000000
1030,28.000000
1031,28.000000
1032,-8.000000
1033,-8.000000
1034,-28.000000
1035,24.000000
1036,0.000000
1037,-12.000000
1038,-8.000000
1039,-4.000000
1040,12.000000
1041,28.000000
1042,16.000000
1043,20.000000
1044,4.000000
1045,-24.000000
1046,-20.000000
1047,4.000000
1048,-24.000000
1049,-28.000000
1050,-24.000000
1051,-36.000000
1052,-40.000000
1053,-16.000000
1054,-8.000000
1055,-28.000000
1056,-20.000000
1057,-8.000000
1058,72.000000
1059,-28.000000
1060,-52.000000
1061,-12.000000
1062,-24.000000
1063,-4.000000
1064,-8.000000
1065,20.000000
1066,-36.000000
1067,0.000000
1068,-36.000000
1069,0.000000
1070,28.000000
1071,-20.000000
1072,-16.000000
1073,-40.000000
1074,-4.000000
1075,0.000000
1076,-40.000000
1077,-8.000000
1078,-8.000000
1079,-8.000000
1080,8.000000
1081,-24.000000
1082,12.000000
1083,-44.000000
1084,20.000000
1085,-4.000000
1086,-8.000000
1087,-20.000000
1088,12.000000
1089,16.000000
1090,-12.000000
1091,-8.000000
1092,8.000000
1093,24.000000
1094,20.000000
1095,-12.000000
1096,8.000000
1097,0.000000
1098,0.000000
1099,-8.000000
1100,64.000000
1101,0.000000
1102,-8.000000
1103,16.000000
1104,0.000000
1105,-8.000000
1106,16.000000
1107,4.000000
1108,4.000000
1109,-100.000000
1110,-24.000000
1111,4.000000
1112,-8.000000
1113,8.000000
1114,-12.000000
1115,28.000000
1116,-12.000000
1117,-28.000000
1118,-44.000000
1119,8.000000
1120,-8.000000
1121,16.000000
1122,16.000000
1123,-8.000000
1124,24.000000
1125,24.000000
1126,-4.000000
1127,32.000000
1128,-12.000000
1129,32.000000
1130,4.000000
1131,12.000000
1132,8.000000
1133,16.000000
1134,-8.000000
1135,-64.000000
1136,24.000000
1137,32.000000
1138,16.000000
1139,68.000000
1140,-12.000000
1141,-20.000000
1142,0.000000
1143,4.000000
1144,-12.000000
1145,8.000000
1146,32.000000
1147,-32.000000
1148,-52.000000
1149,0.000000
1150,4.000000
1151,-28.000000
1152,0.000000
1153,12.000000
1154,-16.000000
1155,0.000000
1156,-36.000000
1157,0.000000
1158,-32.000000
1159,-8.000000
1160,-88.000000
1161,-28.000000
1162,-8.000000
1163,-28.000000
1164,64.000000
1165,-8.000000
1166,-4.000000
1167,-20.000000
1168,-8.000000
1169,-28.000000
1170,20.000000
1171,0.000000
1172,8.000000
1173,40.000000
1174,-16.000000
1175,-4.000000
1176,-8.000000
1177,-32.000000
1178,-8.000000
1179,-44.000000
1180,84.000000
1181,-16.000000
1182,-32.000000
1183,-16.000000
1184,-20.000000
1185,-20.000000
1186,4.000000
1187,4.000000
1188,-20.000000
1189,-36.000000
1190,68.000000
1191,-28.000000
1192,-24.000000
1193,12.000000
1194,-40.000000
1195,-28.000000
1196,-44.000000
1197,0.000000
1198,-8.000000
1199,16.000000
1200,8.000000
1201,0.000000
1202,-24.000000
1203,0.000000
1204,-32.000000
1205,-12.000000
1206,52.000000
1207,16.000000
1208,44.000000
1209,-16.000000
1210,16.000000
1211,16.000000
1212,8.000000
1213,-8.000000
1214,-40.000000
1215,24.000000
1216,20.000000
1217,16.000000
1218,-8.000000
1219,16.000000
1220,-32.000000
1221,4.000000
1222,-40.000000
1223,-20.000000
1224,20.000000
1225,-4.000000
1226,-32.000000
1227,-12.000000
1228,-28.000000
1229,-4.000000
1230,0.000000
1231,0.000000
1232,44.000000
1233,-12.000000
1234,-16.000000
1235,-8.000000
1236,-4.000000
1237,16.000000
1238,24.000000
1239,-24.000000
1240,16.000000
1241,24.000000
1242,-12.000000
1243,16.000000
1244,0.000000
1245,52.000000
1246,-20.000000
1247,0.000000
1248,12.000000
1249,52.000000
1250,20.000000
1251,4.000000
1252,8.000000
1253,-8.000000
1254,-8.000000
1255,20.000000
1256,-16.000000
1257,-12.000000
1258,0.000000
1259,8.000000
1260,8.000000
1261,12.000000
1262,12.000000
1263,4.000000
1264,4.000000
1265,-12.000000
1266,-52.000000
1267,-16.000000
1268,-24.000000
1269,44.000000
1270,-16.000000
1271,8.000000
1272,-24.000000
1273,-16.000000
1274,-60.000000
1275,-44.000000
1276,52.000000
1277,-8.000000
1278,24.000000
1279,-32.000000
1280,0.000000
1281,0.000000
1282,-16.000000
1283,-20.000000
1284,-52.000000
1285,-52.000000
1286,-24.000000
1287,0.000000
1288,-8.000000
1289,-24.000000
1290,-28.000000
1291,52.000000
1292,24.000000
1293,-120.000000
1294,-16.000000
1295,-48.000000
1296,-16.000000
1297,-8.000000
1298,-8.000000
1299,28.000000
1300,-28.000000
1301,-24.000000
1302,-20.000000
1303,-20.000000
1304,-20.000000
1305,-28.000000
1306,20.000000
1307,-20.000000
1308,-12.000000
1309,4.000000
1310,-16.000000
1311,0.000000
1312,-20.000000
1313,-8.000000
1314,0.000000
1315,84.000000
1316,-32.000000
1317,-8.000000
1318,44.000000
1319,-8.000000
1320,-68.000000
1321,-32.000000
1322,24.000000
1323,-16.000000
1324,-8.000000
1325,16.000000
1326,-8.000000
1327,32.000000
1328,4.000000
1329,20.000000
1330,-20.000000
1331,0.000000
1332,-28.000000
1333,0.000000
1334,8.000000
1335,-52.000000
1336,0.000000
1337,-12.000000
1338,-8.000000
1339,16.000000
1340,24.000000
1341,-12.000000
1342,-8.000000
1343,16.000000
1344,16.000000
1345,60.000000
1346,16.000000
1347,16.000000
1348,16.000000
1349,12.000000
1350,0.000000
1351,20.000000
1352,0.000000
1353,0.000000
1354,40.000000
1355,-8.000000
1356,20.000000
1357,-8.000000
1358,-16.000000
1359,4.000000
1360,0.000000
1361,20.000000
1362,20.000000
1363,12.000000
1364,12.000000
1365,12.000000
1366,12.000000
1367,-12.000000
1368,8.000000
1369,-20.000000
1370,4.000000
1371,12.000000
1372,8.000000
1373,44.000000
1374,28.000000
1375,12.000000
1376,0.000000
1377,4.000000
1378,24.000000
1379,0.000000
