docs/evidence/raw/2026-09-07/data_21_011.csv

Channel              :,CH1
Frequency            :,  ?
Period               :,  ?
PK-PK                :,74.00mV
Probe attenuation    :,1X
Voltage per ADC value:,0.125000mV
Time interval        :,100.00000us

index,CH1_Voltage(mV)
1,-4.000000
2,-4.000000
3,-4.000000
4,-2.000000
5,0.000000
6,0.000000
7,0.000000
8,-4.000000
9,-4.000000
10,0.000000
11,2.000000
12,0.000000
13,0.000000
14,-2.000000
15,-4.000000
16,0.000000
17,0.000000
18,0.000000
19,0.000000
20,2.000000
21,2.000000
22,-4.000000
23,-2.000000
24,-4.000000
25,-4.000000
26,-4.000000
27,-4.000000
28,0.000000
29,0.000000
30,2.000000
31,2.000000
32,2.000000
33,0.000000
34,4.000000
35,4.000000
36,4.000000
37,4.000000
38,4.000000
39,4.000000
40,0.000000
41,0.000000
42,2.000000
43,2.000000
44,0.000000
45,0.000000
46,4.000000
47,4.000000
48,4.000000
49,4.000000
50,4.000000
51,4.000000
52,4.000000
53,4.000000
54,4.000000
55,4.000000
56,0.000000
57,10.000000
58,0.000000
59,4.000000
60,10.000000
61,10.000000
62,10.000000
63,10.000000
64,10.000000
65,10.000000
66,2.000000
67,0.000000
68,-4.000000
69,4.000000
70,-4.000000
71,-4.000000
72,-4.000000
73,-4.000000
74,-14.000000
75,-4.000000
76,-4.000000
77,-12.000000
78,-8.000000
79,-4.000000
80,-12.000000
81,2.000000
82,-8.000000
83,-8.000000
84,-4.000000
85,-2.000000
86,-4.000000
87,-4.000000
88,-8.000000
89,-4.000000
90,-4.000000
91,-8.000000
92,-4.000000
93,-4.000000
94,0.000000
95,0.000000
96,-4.000000
97,-4.000000
98,-2.000000
99,-4.000000
100,-4.000000
101,-4.000000
102,0.000000
103,0.000000
104,-4.000000
105,-4.000000
106,0.000000
107,0.000000
108,0.000000
109,0.000000
110,-2.000000
111,-4.000000
112,2.000000
113,2.000000
114,0.000000
115,0.000000
116,0.000000
117,0.000000
118,-2.000000
119,-2.000000
120,0.000000
121,0.000000
122,-4.000000
123,-2.000000
124,-4.000000
125,-4.000000
126,-4.000000
127,-4.000000
128,0.000000
129,0.000000
130,-4.000000
131,-12.000000
132,-4.000000
133,-4.000000
134,-4.000000
135,-4.000000
136,-4.000000
137,-4.000000
138,-4.000000
139,-10.000000
140,-4.000000
141,-4.000000
142,-8.000000
143,-8.000000
144,-4.000000
145,-10.000000
146,-4.000000
147,-8.000000
148,-4.000000
149,-4.000000
150,-4.000000
151,-8.000000
152,-4.000000
153,-8.000000
154,-8.000000
155,-8.000000
156,-8.000000
157,-4.000000
158,-4.000000
159,-12.000000
160,-4.000000
161,-4.000000
162,-4.000000
163,-4.000000
164,-4.000000
165,-4.000000
166,-4.000000
167,-8.000000
168,-4.000000
169,-14.000000
170,-4.000000
171,-10.000000
172,-10.000000
173,-4.000000
174,-4.000000
175,-4.000000
176,-4.000000
177,-8.000000
178,-8.000000
179,-4.000000
180,-4.000000
181,-8.000000
182,-18.000000
183,-4.000000
184,-4.000000
185,-12.000000
186,-8.000000
187,-4.000000
188,-4.000000
189,-4.000000
190,2.000000
191,2.000000
192,0.000000
193,0.000000
194,-2.000000
195,-2.000000
196,0.000000
197,0.000000
198,0.000000
199,0.000000
200,0.000000
201,0.000000
202,0.000000
203,0.000000
204,-2.000000
205,-2.000000
206,0.000000
207,0.000000
208,-4.000000
209,-4.000000
210,-4.000000
211,-4.000000
212,-4.000000
213,-4.000000
214,0.000000
215,0.000000
216,0.000000
217,0.000000
218,0.000000
219,0.000000
220,0.000000
221,0.000000
222,0.000000
223,0.000000
224,0.000000
225,0.000000
226,0.000000
227,0.000000
228,-4.000000
229,-4.000000
230,4.000000
231,4.000000
232,0.000000
233,0.000000
234,4.000000
235,4.000000
236,4.000000
237,4.000000
238,2.000000
239,2.000000
240,4.000000
241,4.000000
242,0.000000
243,0.000000
244,0.000000
245,0.000000
246,4.000000
247,2.000000
248,0.000000
249,0.000000
250,-4.000000
251,4.000000
252,0.000000
253,4.000000
254,0.000000
255,4.000000
256,10.000000
257,10.000000
258,10.000000
259,10.000000
260,4.000000
261,0.000000
262,4.000000
263,4.000000
264,10.000000
265,10.000000
266,0.000000
267,2.000000
268,-4.000000
269,-4.000000
270,-8.000000
271,-8.000000
272,-4.000000
273,-4.000000
274,-14.000000
275,-10.000000
276,-4.000000
277,-4.000000
278,-4.000000
279,-4.000000
280,-4.000000
281,-4.000000
282,-4.000000
283,0.000000
284,8.000000
285,-12.000000
286,-2.000000
287,-4.000000
288,-4.000000
289,-4.000000
290,-4.000000
291,-4.000000
292,-4.000000
293,-2.000000
294,0.000000
295,0.000000
296,-4.000000
297,-2.000000
298,-2.000000
299,-4.000000
300,0.000000
301,0.000000
302,-4.000000
303,-4.000000
304,0.000000
305,0.000000
306,0.000000
307,0.000000
308,-4.000000
309,-2.000000
310,0.000000
311,0.000000
312,-4.000000
313,-4.000000
314,-2.000000
315,-4.000000
316,0.000000
317,0.000000
318,0.000000
319,0.000000
320,-4.000000
321,-4.000000
322,2.000000
323,2.000000
324,-4.000000
325,-4.000000
326,-4.000000
327,-2.000000
328,-2.000000
329,8.000000
330,-4.000000
331,-4.000000
332,0.000000
333,-14.000000
334,-4.000000
335,-14.000000
336,-8.000000
337,-4.000000
338,-4.000000
339,-4.000000
340,-4.000000
341,-4.000000
342,-4.000000
343,-4.000000
344,-4.000000
345,-4.000000
346,-4.000000
347,-4.000000
348,-4.000000
349,-4.000000
350,-4.000000
351,-4.000000
352,-4.000000
353,-4.000000
354,-4.000000
355,-4.000000
356,-4.000000
357,-8.000000
358,-4.000000
359,-14.000000
360,-4.000000
361,-4.000000
362,-4.000000
363,-4.000000
364,-4.000000
365,-6.000000
366,-4.000000
367,-4.000000
368,0.000000
369,-4.000000
370,-4.000000
371,-4.000000
372,-4.000000
373,-4.000000
374,-4.000000
375,-4.000000
376,-2.000000
377,-4.000000
378,-4.000000
379,-8.000000
380,-8.000000
381,-8.000000
382,-4.000000
383,-4.000000
384,-4.000000
385,-8.000000
386,-4.000000
387,-4.000000
388,-4.000000
389,-4.000000
390,-4.000000
391,-4.000000
392,0.000000
393,-4.000000
394,-4.000000
395,-4.000000
396,0.000000
397,0.000000
398,-4.000000
399,-4.000000
400,0.000000
401,0.000000
402,-4.000000
403,-4.000000
404,0.000000
405,2.000000
406,-4.000000
407,-4.000000
408,0.000000
409,0.000000
410,-4.000000
411,-4.000000
412,0.000000
413,0.000000
414,0.000000
415,0.000000
416,0.000000
417,0.000000
418,0.000000
419,0.000000
420,0.000000
421,0.000000
422,-4.000000
423,-4.000000
424,0.000000
425,0.000000
426,0.000000
427,0.000000
428,0.000000
429,0.000000
430,4.000000
431,4.000000
432,2.000000
433,2.000000
434,4.000000
435,4.000000
436,4.000000
437,-34.000000
438,0.000000
439,2.000000
440,4.000000
441,4.000000
442,4.000000
443,4.000000
444,0.000000
445,0.000000
446,4.000000
447,4.000000
448,0.000000
449,4.000000
450,4.000000
451,4.000000
452,4.000000
453,4.000000
454,4.000000
455,4.000000
456,4.000000
457,4.000000
458,2.000000
459,4.000000
460,-2.000000
461,10.000000
462,10.000000
463,10.000000
464,10.000000
465,10.000000
466,0.000000
467,0.000000
468,0.000000
469,-4.000000
470,-12.000000
471,-12.000000
472,-4.000000
473,-4.000000
474,-4.000000
475,-4.000000
476,-4.000000
477,-4.000000
478,-4.000000
479,-4.000000
480,-4.000000
481,0.000000
482,-12.000000
483,-4.000000
484,-14.000000
485,-4.000000
486,-4.000000
487,-4.000000
488,-4.000000
489,-4.000000
490,-4.000000
491,-4.000000
492,-4.000000
493,-4.000000
494,-4.000000
495,-4.000000
496,-4.000000
497,-4.000000
498,0.000000
499,0.000000
500,-4.000000
501,-4.000000
502,-4.000000
503,-2.000000
504,0.000000
505,0.000000
506,-4.000000
507,-4.000000
508,2.000000
509,0.000000
510,-4.000000
511,-4.000000
512,-4.000000
513,-4.000000
514,0.000000
515,2.000000
516,0.000000
517,0.000000
518,0.000000
519,0.000000
520,-2.000000
521,0.000000
522,0.000000
523,0.000000
524,0.000000
525,0.000000
526,-4.000000
527,-4.000000
528,0.000000
529,0.000000
530,-8.000000
531,-4.000000
532,-14.000000
533,-4.000000
534,-4.000000
535,-4.000000
536,-4.000000
537,-4.000000
538,-4.000000
539,-4.000000
540,-4.000000
541,-4.000000
542,-14.000000
543,-4.000000
544,-12.000000
545,-4.000000
546,-8.000000
547,-4.000000
548,-4.000000
549,-24.000000
550,-4.000000
551,-4.000000
552,-6.000000
553,-4.000000
554,-4.000000
555,-4.000000
556,-8.000000
557,-8.000000
558,-4.000000
559,-4.000000
560,-8.000000
561,-4.000000
562,-4.000000
563,2.000000
564,-4.000000
565,-6.000000
566,-8.000000
567,-10.000000
568,-4.000000
569,-4.000000
570,-4.000000
571,-4.000000
572,-4.000000
573,-4.000000
574,-4.000000
575,-4.000000
576,-8.000000
577,-8.000000
578,-4.000000
579,-4.000000
580,-2.000000
581,-4.000000
582,-8.000000
583,-4.000000
584,-4.000000
585,-4.000000
586,-4.000000
587,-10.000000
588,-8.000000
589,-8.000000
590,0.000000
591,-4.000000
592,-2.000000
593,-4.000000
594,-4.000000
595,-2.000000
596,0.000000
597,0.000000
598,0.000000
599,0.000000
600,-4.000000
601,-4.000000
602,0.000000
603,0.000000
604,-4.000000
605,-4.000000
606,-4.000000
607,-4.000000
608,0.000000
609,0.000000
610,0.000000
611,0.000000
612,0.000000
613,0.000000
614,0.000000
615,0.000000
616,2.000000
617,2.000000
618,0.000000
619,0.000000
620,0.000000
621,0.000000
622,-4.000000
623,-4.000000
624,-2.000000
625,-2.000000
626,0.000000
627,0.000000
628,0.000000
629,0.000000
630,2.000000
631,2.000000
632,2.000000
633,2.000000
634,0.000000
635,2.000000
636,4.000000
637,4.000000
638,4.000000
639,4.000000
640,4.000000
641,0.000000
642,4.000000
643,4.000000
644,4.000000
645,4.000000
646,4.000000
647,4.000000
648,4.000000
649,4.000000
650,0.000000
651,2.000000
652,6.000000
653,0.000000
654,10.000000
655,10.000000
656,0.000000
657,4.000000
658,10.000000
659,10.000000
660,10.000000
661,10.000000
662,10.000000
663,10.000000
664,0.000000
665,4.000000
666,2.000000
667,0.000000
668,2.000000
669,-4.000000
670,-4.000000
671,24.000000
672,0.000000
673,8.000000
674,-4.000000
675,-4.000000
676,-4.000000
677,-4.000000
678,-4.000000
679,-4.000000
680,8.000000
681,-14.000000
682,-14.000000
683,0.000000
684,8.000000
685,-4.000000
686,-4.000000
687,-4.000000
688,-4.000000
689,-4.000000
690,-4.000000
691,-4.000000
692,-4.000000
693,-4.000000
694,-2.000000
695,-2.000000
696,-4.000000
697,-4.000000
698,-4.000000
699,-4.000000
700,-4.000000
701,-4.000000
702,0.000000
703,0.000000
704,0.000000
705,0.000000
706,0.000000
707,0.000000
708,-2.000000
709,-4.000000
710,0.000000
711,0.000000
712,-4.000000
713,-4.000000
714,-2.000000
715,-4.000000
716,0.000000
717,0.000000
718,0.000000
719,0.000000
720,-4.000000
721,-2.000000
722,-4.000000
723,-4.000000
724,0.000000
725,0.000000
726,0.000000
727,0.000000
728,-4.000000
729,-4.000000
730,-4.000000
731,-4.000000
732,-4.000000
733,-4.000000
734,-4.000000
735,-4.000000
736,-4.000000
737,-4.000000
738,-4.000000
739,-8.000000
740,-4.000000
741,-10.000000
742,-8.000000
743,-4.000000
744,-4.000000
745,-6.000000
746,-4.000000
747,-4.000000
748,-4.000000
749,-4.000000
750,-4.000000
751,-4.000000
752,-4.000000
753,-4.000000
754,-4.000000
755,-4.000000
756,-10.000000
757,-4.000000
758,-4.000000
759,-4.000000
760,-4.000000
761,-4.000000
762,-4.000000
763,-4.000000
764,-4.000000
765,-4.000000
766,-4.000000
767,-4.000000
768,-4.000000
769,-4.000000
770,8.000000
771,-14.000000
772,-4.000000
773,-4.000000
774,-14.000000
775,-14.000000
776,-8.000000
777,-4.000000
778,-4.000000
779,-4.000000
780,-4.000000
781,-12.000000
782,-2.000000
783,-8.000000
784,-4.000000
785,-8.000000
786,-4.000000
787,-4.000000
788,-4.000000
789,-4.000000
790,0.000000
791,0.000000
792,0.000000
793,0.000000
794,0.000000
795,0.000000
796,0.000000
797,0.000000
798,0.000000
799,0.000000
800,0.000000
801,0.000000
802,-4.000000
803,-2.000000
804,0.000000
805,0.000000
806,0.000000
807,0.000000
808,0.000000
809,0.000000
810,0.000000
811,0.000000
812,0.000000
813,0.000000
814,-4.000000
815,6.000000
816,0.000000
817,0.000000
818,0.000000
819,0.000000
820,-4.000000
821,-4.000000
822,0.000000
823,0.000000
824,0.000000
825,0.000000
826,-4.000000
827,-4.000000
828,0.000000
829,0.000000
830,4.000000
831,4.000000
832,4.000000
833,4.000000
834,4.000000
835,4.000000
836,4.000000
837,0.000000
838,-2.000000
839,4.000000
840,2.000000
841,0.000000
842,4.000000
843,4.000000
844,0.000000
845,4.000000
846,4.000000
847,4.000000
848,6.000000
849,0.000000
850,0.000000
851,4.000000
852,0.000000
853,0.000000
854,4.000000
855,4.000000
856,0.000000
857,4.000000
858,10.000000
859,2.000000
860,10.000000
861,0.000000
862,4.000000
863,4.000000
864,0.000000
865,0.000000
866,2.000000
867,4.000000
868,-16.000000
869,-4.000000
870,-14.000000
871,8.000000
872,-4.000000
873,-4.000000
874,-14.000000
875,-4.000000
876,0.000000
877,-8.000000
878,-8.000000
879,-4.000000
880,0.000000
881,-4.000000
882,-4.000000
883,0.000000
884,-14.000000
885,-12.000000
886,-4.000000
887,-4.000000
888,-4.000000
889,-4.000000
890,-4.000000
891,-4.000000
892,-4.000000
893,-4.000000
894,-2.000000
895,-4.000000
896,0.000000
897,0.000000
898,-2.000000
899,-4.000000
900,0.000000
901,0.000000
902,0.000000
903,0.000000
904,0.000000
905,0.000000
906,0.000000
907,0.000000
908,0.000000
909,0.000000
910,0.000000
911,0.000000
912,-4.000000
913,-2.000000
914,-4.000000
915,-4.000000
916,0.000000
917,0.000000
918,0.000000
919,0.000000
920,0.000000
921,0.000000
922,0.000000
923,0.000000
924,0.000000
925,0.000000
926,0.000000
927,-4.000000
928,0.000000
929,0.000000
930,-14.000000
931,-4.000000
932,-4.000000
933,-4.000000
934,-4.000000
935,-4.000000
936,-12.000000
937,-10.000000
938,-8.000000
939,-8.000000
940,-4.000000
941,-4.000000
942,-14.000000
943,-4.000000
944,-4.000000
945,-4.000000
946,-8.000000
947,-4.000000
948,-4.000000
949,-8.000000
950,-4.000000
951,-4.000000
952,-4.000000
953,-4.000000
954,-4.000000
955,-14.000000
956,-4.000000
957,-4.000000
958,-4.000000
959,-4.000000
960,-4.000000
961,-4.000000
962,-4.000000
963,-6.000000
964,-4.000000
965,-4.000000
966,-8.000000
967,-4.000000
968,-4.000000
969,-4.000000
970,-4.000000
971,-4.000000
972,-4.000000
973,-4.000000
974,-8.000000
975,-10.000000
976,-4.000000
977,-4.000000
978,-4.000000
979,-4.000000
980,-4.000000
981,-4.000000
982,-4.000000
983,-4.000000
984,-4.000000
985,-4.000000
986,-4.000000
987,-4.000000
988,-4.000000
989,-4.000000
990,-4.000000
991,-2.000000
992,8.000000
993,-4.000000
994,0.000000
995,0.000000
996,0.000000
997,0.000000
998,-4.000000
999,-4.000000
1000,0.000000
1001,0.000000
1002,0.000000
1003,0.000000
1004,0.000000
1005,0.000000
1006,0.000000
1007,0.000000
1008,0.000000
1009,0.000000
1010,0.000000
1011,0.000000
1012,0.000000
1013,0.000000
1014,0.000000
1015,0.000000
1016,0.000000
1017,0.000000
1018,-4.000000
1019,-4.000000
1020,2.000000
1021,2.000000
1022,0.000000
1023,0.000000
1024,0.000000
1025,0.000000
1026,-4.000000
1027,2.000000
1028,0.000000
1029,0.000000
1030,4.000000
1031,4.000000
1032,4.000000
1033,4.000000
1034,4.000000
1035,4.000000
1036,4.000000
1037,4.000000
1038,4.000000
1039,0.000000
1040,4.000000
1041,4.000000
1042,4.000000
1043,4.000000
1044,0.000000
1045,4.000000
1046,4.000000
1047,0.000000
1048,4.000000
1049,4.000000
1050,0.000000
1051,2.000000
1052,0.000000
1053,2.000000
1054,4.000000
1055,4.000000
1056,-8.000000
1057,4.000000
1058,4.000000
1059,4.000000
1060,4.000000
1061,2.000000
1062,10.000000
1063,8.000000
1064,10.000000
1065,10.000000
1066,4.000000
1067,4.000000
1068,-4.000000
1069,-4.000000
1070,-14.000000
1071,-14.000000
1072,-4.000000
1073,-4.000000
1074,-4.000000
1075,-14.000000
1076,-10.000000
1077,-8.000000
1078,-12.000000
1079,-4.000000
1080,-4.000000
1081,-14.000000
1082,-14.000000
1083,-12.000000
1084,-4.000000
1085,-14.000000
1086,-4.000000
1087,-4.000000
1088,-4.000000
1089,-4.000000
1090,-4.000000
1091,-4.000000
1092,-4.000000
1093,-4.000000
1094,0.000000
1095,0.000000
1096,0.000000
1097,2.000000
1098,0.000000
1099,0.000000
1100,-4.000000
1101,-4.000000
1102,0.000000
1103,0.000000
1104,-4.000000
1105,-2.000000
1106,-2.000000
1107,-4.000000
1108,0.000000
1109,0.000000
1110,-4.000000
1111,-2.000000
1112,0.000000
1113,0.000000
1114,0.000000
1115,0.000000
1116,0.000000
1117,0.000000
1118,0.000000
1119,0.000000
1120,0.000000
1121,0.000000
1122,0.000000
1123,0.000000
1124,-4.000000
1125,-4.000000
1126,0.000000
1127,0.000000
1128,0.000000
1129,0.000000
1130,-4.000000
1131,-4.000000
1132,-4.000000
1133,-4.000000
1134,-4.000000
1135,-4.000000
1136,-4.000000
1137,-8.000000
1138,-4.000000
1139,-4.000000
1140,-8.000000
1141,-8.000000
1142,-4.000000
1143,-4.000000
1144,-6.000000
1145,-6.000000
1146,-4.000000
1147,-4.000000
1148,-8.000000
1149,-4.000000
1150,-12.000000
1151,-10.000000
1152,-4.000000
1153,-8.000000
1154,-4.000000
1155,-14.000000
1156,-4.000000
1157,-4.000000
1158,-8.000000
1159,-8.000000
1160,-4.000000
1161,-4.000000
1162,-4.000000
1163,-8.000000
1164,-4.000000
1165,-4.000000
1166,0.000000
1167,2.000000
1168,-8.000000
1169,-4.000000
1170,-12.000000
1171,-4.000000
1172,-4.000000
1173,-4.000000
1174,-4.000000
1175,-14.000000
1176,-4.000000
1177,-4.000000
1178,-4.000000
1179,-10.000000
1180,-4.000000
1181,-4.000000
1182,-4.000000
1183,0.000000
1184,-8.000000
1185,-8.000000
1186,-8.000000
1187,-8.000000
1188,-4.000000
1189,-4.000000
1190,-4.000000
1191,-4.000000
1192,-4.000000
1193,-4.000000
1194,-4.000000
1195,-4.000000
1196,-2.000000
1197,-2.000000
1198,-4.000000
1199,-4.000000
1200,0.000000
1201,2.000000
1202,0.000000
1203,0.000000
1204,0.000000
1205,0.000000
1206,0.000000
1207,0.000000
1208,0.000000
1209,0.000000
1210,0.000000
1211,0.000000
1212,0.000000
1213,0.000000
1214,0.000000
1215,0.000000
1216,-2.000000
1217,-4.000000
1218,0.000000
1219,0.000000
1220,-2.000000
1221,-4.000000
1222,-4.000000
1223,-4.000000
1224,0.000000
1225,0.000000
1226,-4.000000
1227,-4.000000
1228,0.000000
1229,0.000000
1230,4.000000
1231,4.000000
1232,0.000000
1233,-2.000000
1234,0.000000
1235,4.000000
1236,4.000000
1237,4.000000
1238,0.000000
1239,4.000000
1240,4.000000
1241,4.000000
1242,4.000000
1243,4.000000
1244,4.000000
1245,0.000000
1246,2.000000
1247,2.000000
1248,4.000000
1249,-4.000000
1250,4.000000
1251,4.000000
1252,4.000000
1253,4.000000
1254,4.000000
1255,4.000000
1256,4.000000
1257,4.000000
1258,-8.000000
1259,8.000000
1260,4.000000
1261,4.000000
1262,10.000000
1263,10.000000
1264,10.000000
1265,10.000000
1266,2.000000
1267,2.000000
1268,-4.000000
1269,-4.000000
1270,-4.000000
1271,-4.000000
1272,12.000000
1273,-16.000000
1274,-4.000000
1275,22.000000
1276,-4.000000
1277,-4.000000
1278,-8.000000
1279,-8.000000
1280,-4.000000
1281,-14.000000
1282,20.000000
1283,-4.000000
1284,-14.000000
1285,-14.000000
1286,-14.000000
1287,-4.000000
1288,-4.000000
1289,-4.000000
1290,-8.000000
1291,-4.000000
1292,-4.000000
1293,-4.000000
1294,-4.000000
1295,-4.000000
1296,-4.000000
1297,-4.000000
1298,0.000000
1299,0.000000
1300,0.000000
1301,0.000000
1302,0.000000
1303,0.000000
1304,0.000000
1305,2.000000
1306,0.000000
1307,0.000000
1308,2.000000
1309,2.000000
1310,-4.000000
1311,-4.000000
1312,0.000000
1313,0.000000
1314,0.000000
1315,0.000000
1316,-4.000000
1317,-2.000000
1318,0.000000
1319,0.000000
1320,-2.000000
1321,-4.000000
1322,-4.000000
1323,-2.000000
1324,0.000000
1325,0.000000
1326,0.000000
1327,0.000000
1328,0.000000
1329,0.000000
1330,-6.000000
1331,-4.000000
1332,-4.000000
1333,-4.000000
1334,-14.000000
1335,-12.000000
1336,-4.000000
1337,-4.000000
1338,-4.000000
1339,-12.000000
1340,-4.000000
1341,-8.000000
1342,-4.000000
1343,0.000000
1344,-4.000000
1345,-2.000000
1346,-8.000000
1347,-8.000000
1348,-4.000000
1349,-4.000000
1350,-12.000000
1351,-4.000000
1352,-4.000000
1353,-4.000000
1354,-4.000000
1355,-14.000000
1356,0.000000
1357,-4.000000
1358,-4.000000
1359,-4.000000
1360,-4.000000
1361,-2.000000
1362,-6.000000
1363,-4.000000
1364,-4.000000
1365,-4.000000
1366,-4.000000
1367,8.000000
1368,12.000000
1369,-4.000000
1370,-8.000000
1371,-4.000000
1372,-4.000000
1373,-4.000000
1374,-4.000000
1375,6.000000
1376,-4.000000
1377,-4.000000
1378,-4.000000
1379,-4.000000
1380,-4.000000
1381,-4.000000
1382,-12.000000
1383,-4.000000
1384,-8.000000
1385,-4.000000
1386,-4.000000
1387,-8.000000
1388,-4.000000
1389,-4.000000
1390,-4.000000
1391,-2.000000
1392,-4.000000
1393,-4.000000
1394,0.000000
1395,0.000000
1396,0.000000
1397,0.000000
1398,0.000000
1399,0.000000
1400,0.000000
1401,0.000000
1402,-4.000000
1403,-4.000000
1404,-4.000000
1405,-4.000000
1406,-4.000000
1407,-4.000000
1408,0.000000
1409,2.000000
1410,0.000000
1411,0.000000
1412,0.000000
1413,0.000000
1414,0.000000
1415,0.000000
1416,0.000000
1417,0.000000
1418,-4.000000
1419,-2.000000
1420,0.000000
1421,0.000000
1422,-4.000000
1423,-4.000000
1424,-4.000000
1425,-4.000000
1426,-2.000000
